FPGA/HDL/filter/out.vcd
$date
	Wed Oct  9 21:26:22 2019
$end
$version
	Icarus Verilog
$end
$timescale
	1ps
$end
$scope module CIC_tb $end
$var wire 32 ! OUT [31:0] $end
$var reg 1 " CLK $end
$var reg 32 # IN [31:0] $end
$var reg 4 $ TC [3:0] $end
$var reg 1 % tick $end
$scope module Filter $end
$var wire 32 & IN [31:0] $end
$var wire 4 ' TC [3:0] $end
$var wire 1 " clk $end
$var wire 1 % tick $end
$var wire 64 ( outdat [63:0] $end
$var wire 8 ) outaddr [7:0] $end
$var reg 64 * I0 [63:0] $end
$var reg 32 + OUT [31:0] $end
$var reg 8 , inaddr [7:0] $end
$var reg 1 - lasttick $end
$var reg 11 . tickcount [10:0] $end
$var reg 1 / we $end
$scope module combram $end
$var wire 1 " clk $end
$var wire 8 0 inaddr [7:0] $end
$var wire 64 1 indat [63:0] $end
$var wire 8 2 outaddr [7:0] $end
$var wire 1 / we $end
$var wire 64 3 outdat [63:0] $end
$scope module ram40_4k0 $end
$var wire 16 4 MASK [15:0] $end
$var wire 11 5 RADDR [10:0] $end
$var wire 1 " RCLK $end
$var wire 1 6 RCLKE $end
$var wire 1 7 RE $end
$var wire 16 8 RMASK_I [15:0] $end
$var wire 11 9 WADDR [10:0] $end
$var wire 1 " WCLK $end
$var wire 1 : WCLKE $end
$var wire 16 ; WDATA [15:0] $end
$var wire 1 / WE $end
$var wire 16 < WMASK_I [15:0] $end
$var wire 16 = WDATA_I [15:0] $end
$var wire 16 > RDATA [15:0] $end
$var reg 16 ? RDATA_I [15:0] $end
$var integer 32 @ i [31:0] $end
$scope begin genblk1 $end
$upscope $end
$scope begin genblk2 $end
$upscope $end
$scope begin genblk3 $end
$upscope $end
$scope begin genblk4 $end
$upscope $end
$upscope $end
$scope module ram40_4k1 $end
$var wire 16 A MASK [15:0] $end
$var wire 11 B RADDR [10:0] $end
$var wire 1 " RCLK $end
$var wire 1 C RCLKE $end
$var wire 1 D RE $end
$var wire 16 E RMASK_I [15:0] $end
$var wire 11 F WADDR [10:0] $end
$var wire 1 " WCLK $end
$var wire 1 G WCLKE $end
$var wire 16 H WDATA [15:0] $end
$var wire 1 / WE $end
$var wire 16 I WMASK_I [15:0] $end
$var wire 16 J WDATA_I [15:0] $end
$var wire 16 K RDATA [15:0] $end
$var reg 16 L RDATA_I [15:0] $end
$var integer 32 M i [31:0] $end
$scope begin genblk1 $end
$upscope $end
$scope begin genblk2 $end
$upscope $end
$scope begin genblk3 $end
$upscope $end
$scope begin genblk4 $end
$upscope $end
$upscope $end
$scope module ram40_4k2 $end
$var wire 16 N MASK [15:0] $end
$var wire 11 O RADDR [10:0] $end
$var wire 1 " RCLK $end
$var wire 1 P RCLKE $end
$var wire 1 Q RE $end
$var wire 16 R RMASK_I [15:0] $end
$var wire 11 S WADDR [10:0] $end
$var wire 1 " WCLK $end
$var wire 1 T WCLKE $end
$var wire 16 U WDATA [15:0] $end
$var wire 1 / WE $end
$var wire 16 V WMASK_I [15:0] $end
$var wire 16 W WDATA_I [15:0] $end
$var wire 16 X RDATA [15:0] $end
$var reg 16 Y RDATA_I [15:0] $end
$var integer 32 Z i [31:0] $end
$scope begin genblk1 $end
$upscope $end
$scope begin genblk2 $end
$upscope $end
$scope begin genblk3 $end
$upscope $end
$scope begin genblk4 $end
$upscope $end
$upscope $end
$scope module ram40_4k3 $end
$var wire 16 [ MASK [15:0] $end
$var wire 11 \ RADDR [10:0] $end
$var wire 1 " RCLK $end
$var wire 1 ] RCLKE $end
$var wire 1 ^ RE $end
$var wire 16 _ RMASK_I [15:0] $end
$var wire 11 ` WADDR [10:0] $end
$var wire 1 " WCLK $end
$var wire 1 a WCLKE $end
$var wire 16 b WDATA [15:0] $end
$var wire 1 / WE $end
$var wire 16 c WMASK_I [15:0] $end
$var wire 16 d WDATA_I [15:0] $end
$var wire 16 e RDATA [15:0] $end
$var reg 16 f RDATA_I [15:0] $end
$var integer 32 g i [31:0] $end
$scope begin genblk1 $end
$upscope $end
$scope begin genblk2 $end
$upscope $end
$scope begin genblk3 $end
$upscope $end
$scope begin genblk4 $end
$upscope $end
$upscope $end
$upscope $end
$upscope $end
$upscope $end
$enddefinitions $end
#0
$dumpvars
b10000 g
bx f
bx e
b0 d
b0 c
b0 b
1a
b0 `
b0 _
1^
1]
b11100000 \
b0 [
b10000 Z
bx Y
bx X
b0 W
b0 V
b0 U
1T
b0 S
b0 R
1Q
1P
b11100000 O
b0 N
b10000 M
bx L
bx K
b0 J
b0 I
b0 H
1G
b0 F
b0 E
1D
1C
b11100000 B
b0 A
b10000 @
bx ?
bx >
b0 =
b0 <
b0 ;
1:
b0 9
b0 8
17
16
b11100000 5
b0 4
bx 3
b11100000 2
b0 1
b0 0
0/
b0 .
0-
b0 ,
bx +
b0 *
b11100000 )
bx (
b101 '
b10011100010000 &
0%
b101 $
b10011100010000 #
0"
bx !
$end
#1000
b0 >
b0 ?
b0 K
b0 L
b0 X
b0 Y
b0 (
b0 3
b0 e
b0 f
1"
#2000
0"
#3000
1"
#4000
0"
#5000
1"
#6000
0"
#7000
1"
#8000
0"
#9000
1"
#10000
0"
b10011100010001 #
b10011100010001 &
1%
#11000
b10011100010001 =
b10011100010001 ;
b10011100010001 *
b10011100010001 1
b0 !
b0 +
b1 .
1-
1"
#12000
0"
#13000
1"
#14000
0"
#15000
1"
#16000
0"
#17000
1"
#18000
0"
#19000
1"
#20000
0"
b10011100010010 #
b10011100010010 &
0%
#21000
0-
1"
#22000
0"
#23000
1"
#24000
0"
#25000
1"
#26000
0"
#27000
1"
#28000
0"
#29000
1"
#30000
0"
b10011100010011 #
b10011100010011 &
1%
#31000
b100111000100100 =
b100111000100100 ;
b100111000100100 *
b100111000100100 1
b10 .
1-
1"
#32000
0"
#33000
1"
#34000
0"
#35000
1"
#36000
0"
#37000
1"
#38000
0"
#39000
1"
#40000
0"
b10011100010100 #
b10011100010100 &
0%
#41000
0-
1"
#42000
0"
#43000
1"
#44000
0"
#45000
1"
#46000
0"
#47000
1"
#48000
0"
#49000
1"
#50000
0"
b10011100010101 #
b10011100010101 &
1%
#51000
b111010100111001 =
b111010100111001 ;
b111010100111001 *
b111010100111001 1
b11 .
1-
1"
#52000
0"
#53000
1"
#54000
0"
#55000
1"
#56000
0"
#57000
1"
#58000
0"
#59000
1"
#60000
0"
b10011100010110 #
b10011100010110 &
0%
#61000
0-
1"
#62000
0"
#63000
1"
#64000
0"
#65000
1"
#66000
0"
#67000
1"
#68000
0"
#69000
1"
#70000
0"
b10011100010111 #
b10011100010111 &
1%
#71000
b1001110001010000 =
b1001110001010000 ;
b1001110001010000 *
b1001110001010000 1
1/
b11100001 5
b11100001 B
b11100001 O
b11100001 \
b11100001 )
b11100001 2
b1 9
b1 F
b1 S
b1 `
b1 ,
b1 0
b0 .
1-
1"
#72000
0"
#73000
0/
1"
#74000
0"
#75000
1"
#76000
0"
#77000
1"
#78000
0"
#79000
1"
#80000
0"
b10011100011000 #
b10011100011000 &
0%
#81000
0-
1"
#82000
0"
#83000
1"
#84000
0"
#85000
1"
#86000
0"
#87000
1"
#88000
0"
#89000
1"
#90000
0"
b10011100011001 #
b10011100011001 &
1%
#91000
b1100001101101001 =
b1100001101101001 ;
b1100001101101001 *
b1100001101101001 1
b100111000 !
b100111000 +
b1 .
1-
1"
#92000
0"
#93000
1"
#94000
0"
#95000
1"
#96000
0"
#97000
1"
#98000
0"
#99000
1"
#100000
0"
b10011100011010 #
b10011100011010 &
0%
#101000
0-
1"
#102000
0"
#103000
1"
#104000
0"
#105000
1"
#106000
0"
#107000
1"
#108000
0"
#109000
1"
#110000
0"
b10011100011011 #
b10011100011011 &
1%
#111000
b1110101010000100 =
b1110101010000100 ;
b1110101010000100 *
b1110101010000100 1
b10 .
1-
1"
#112000
0"
#113000
1"
#114000
0"
#115000
1"
#116000
0"
#117000
1"
#118000
0"
#119000
1"
#120000
0"
b10011100011100 #
b10011100011100 &
0%
#121000
0-
1"
#122000
0"
#123000
1"
#124000
0"
#125000
1"
#126000
0"
#127000
1"
#128000
0"
#129000
1"
#130000
0"
b10011100011101 #
b10011100011101 &
1%
#131000
b1000110100001 =
b1000110100001 ;
b1 J
b1 H
b10001000110100001 *
b10001000110100001 1
b11 .
1-
1"
#132000
0"
#133000
1"
#134000
0"
#135000
1"
#136000
0"
#137000
1"
#138000
0"
#139000
1"
#140000
0"
b10011100011110 #
b10011100011110 &
0%
#141000
0-
1"
#142000
0"
#143000
1"
#144000
0"
#145000
1"
#146000
0"
#147000
1"
#148000
0"
#149000
1"
#150000
0"
b10011100011111 #
b10011100011111 &
1%
#151000
b11100011000000 =
b11100011000000 ;
b10011100011000000 *
b10011100011000000 1
1/
b11100010 5
b11100010 B
b11100010 O
b11100010 \
b11100010 )
b11100010 2
b10 9
b10 F
b10 S
b10 `
b10 ,
b10 0
b0 .
1-
1"
#152000
0"
#153000
0/
1"
#154000
0"
#155000
1"
#156000
0"
#157000
1"
#158000
0"
#159000
1"
#160000
0"
b10011100100000 #
b10011100100000 &
0%
#161000
0-
1"
#162000
0"
#163000
1"
#164000
0"
#165000
1"
#166000
0"
#167000
1"
#168000
0"
#169000
1"
#170000
0"
b10011100100001 #
b10011100100001 &
1%
#171000
b101111111100001 =
b101111111100001 ;
b10101111111100001 *
b10101111111100001 1
b1001110001 !
b1001110001 +
b1 .
1-
1"
#172000
0"
#173000
1"
#174000
0"
#175000
1"
#176000
0"
#177000
1"
#178000
0"
#179000
1"
#180000
0"
b10011100100010 #
b10011100100010 &
0%
#181000
0-
1"
#182000
0"
#183000
1"
#184000
0"
#185000
1"
#186000
0"
#187000
1"
#188000
0"
#189000
1"
#190000
0"
b10011100100011 #
b10011100100011 &
1%
#191000
b1000011100000100 =
b1000011100000100 ;
b11000011100000100 *
b11000011100000100 1
b10 .
1-
1"
#192000
0"
#193000
1"
#194000
0"
#195000
1"
#196000
0"
#197000
1"
#198000
0"
#199000
1"
#200000
0"
b10011100100100 #
b10011100100100 &
0%
#201000
0-
1"
#202000
0"
#203000
1"
#204000
0"
#205000
1"
#206000
0"
#207000
1"
#208000
0"
#209000
1"
#210000
0"
b10011100100101 #
b10011100100101 &
1%
#211000
b1010111000101001 =
b1010111000101001 ;
b11010111000101001 *
b11010111000101001 1
b11 .
1-
1"
#212000
0"
#213000
1"
#214000
0"
#215000
1"
#216000
0"
#217000
1"
#218000
0"
#219000
1"
#220000
0"
b10011100100110 #
b10011100100110 &
0%
#221000
0-
1"
#222000
0"
#223000
1"
#224000
0"
#225000
1"
#226000
0"
#227000
1"
#228000
0"
#229000
1"
#230000
0"
b10011100100111 #
b10011100100111 &
1%
#231000
b1101010101010000 =
b1101010101010000 ;
b11101010101010000 *
b11101010101010000 1
1/
b11100011 5
b11100011 B
b11100011 O
b11100011 \
b11100011 )
b11100011 2
b11 9
b11 F
b11 S
b11 `
b11 ,
b11 0
b0 .
1-
1"
#232000
0"
#233000
0/
1"
#234000
0"
#235000
1"
#236000
0"
#237000
1"
#238000
0"
#239000
1"
#240000
0"
b10011100101000 #
b10011100101000 &
0%
#241000
0-
1"
#242000
0"
#243000
1"
#244000
0"
#245000
1"
#246000
0"
#247000
1"
#248000
0"
#249000
1"
#250000
0"
b10011100101001 #
b10011100101001 &
1%
#251000
b1111110001111001 =
b1111110001111001 ;
b11111110001111001 *
b11111110001111001 1
b1110101010 !
b1110101010 +
b1 .
1-
1"
#252000
0"
#253000
1"
#254000
0"
#255000
1"
#256000
0"
#257000
1"
#258000
0"
#259000
1"
#260000
0"
b10011100101010 #
b10011100101010 &
0%
#261000
0-
1"
#262000
0"
#263000
1"
#264000
0"
#265000
1"
#266000
0"
#267000
1"
#268000
0"
#269000
1"
#270000
0"
b10011100101011 #
b10011100101011 &
1%
#271000
b10001110100100 =
b10001110100100 ;
b10 J
b10 H
b100010001110100100 *
b100010001110100100 1
b10 .
1-
1"
#272000
0"
#273000
1"
#274000
0"
#275000
1"
#276000
0"
#277000
1"
#278000
0"
#279000
1"
#280000
0"
b10011100101100 #
b10011100101100 &
0%
#281000
0-
1"
#282000
0"
#283000
1"
#284000
0"
#285000
1"
#286000
0"
#287000
1"
#288000
0"
#289000
1"
#290000
0"
b10011100101101 #
b10011100101101 &
1%
#291000
b100101011010001 =
b100101011010001 ;
b100100101011010001 *
b100100101011010001 1
b11 .
1-
1"
#292000
0"
#293000
1"
#294000
0"
#295000
1"
#296000
0"
#297000
1"
#298000
0"
#299000
1"
#300000
0"
b10011100101110 #
b10011100101110 &
0%
#301000
0-
1"
#302000
0"
#303000
1"
#304000
0"
#305000
1"
#306000
0"
#307000
1"
#308000
0"
#309000
1"
#310000
0"
b10011100101111 #
b10011100101111 &
1%
#311000
b111001000000000 =
b111001000000000 ;
b100111001000000000 *
b100111001000000000 1
1/
b11100100 5
b11100100 B
b11100100 O
b11100100 \
b11100100 )
b11100100 2
b100 9
b100 F
b100 S
b100 `
b100 ,
b100 0
b0 .
1-
1"
#312000
0"
#313000
0/
1"
#314000
0"
#315000
1"
#316000
0"
#317000
1"
#318000
0"
#319000
1"
#320000
0"
b10011100110000 #
b10011100110000 &
0%
#321000
0-
1"
#322000
0"
#323000
1"
#324000
0"
#325000
1"
#326000
0"
#327000
1"
#328000
0"
#329000
1"
#330000
0"
b10011100110001 #
b10011100110001 &
1%
#331000
b1001100100110001 =
b1001100100110001 ;
b101001100100110001 *
b101001100100110001 1
b10011100100 !
b10011100100 +
b1 .
1-
1"
#332000
0"
#333000
1"
#334000
0"
#335000
1"
#336000
0"
#337000
1"
#338000
0"
#339000
1"
#340000
0"
b10011100110010 #
b10011100110010 &
0%
#341000
0-
1"
#342000
0"
#343000
1"
#344000
0"
#345000
1"
#346000
0"
#347000
1"
#348000
0"
#349000
1"
#350000
0"
b10011100110011 #
b10011100110011 &
1%
#351000
b1100000001100100 =
b1100000001100100 ;
b101100000001100100 *
b101100000001100100 1
b10 .
1-
1"
#352000
0"
#353000
1"
#354000
0"
#355000
1"
#356000
0"
#357000
1"
#358000
0"
#359000
1"
#360000
0"
b10011100110100 #
b10011100110100 &
0%
#361000
0-
1"
#362000
0"
#363000
1"
#364000
0"
#365000
1"
#366000
0"
#367000
1"
#368000
0"
#369000
1"
#370000
0"
b10011100110101 #
b10011100110101 &
1%
#371000
b1110011110011001 =
b1110011110011001 ;
b101110011110011001 *
b101110011110011001 1
b11 .
1-
1"
#372000
0"
#373000
1"
#374000
0"
#375000
1"
#376000
0"
#377000
1"
#378000
0"
#379000
1"
#380000
0"
b10011100110110 #
b10011100110110 &
0%
#381000
0-
1"
#382000
0"
#383000
1"
#384000
0"
#385000
1"
#386000
0"
#387000
1"
#388000
0"
#389000
1"
#390000
0"
b10011100110111 #
b10011100110111 &
1%
#391000
b111011010000 =
b111011010000 ;
b11 J
b11 H
b110000111011010000 *
b110000111011010000 1
1/
b11100101 5
b11100101 B
b11100101 O
b11100101 \
b11100101 )
b11100101 2
b101 9
b101 F
b101 S
b101 `
b101 ,
b101 0
b0 .
1-
1"
#392000
0"
#393000
0/
1"
#394000
0"
#395000
1"
#396000
0"
#397000
1"
#398000
0"
#399000
1"
#400000
0"
b10011100111000 #
b10011100111000 &
0%
#401000
0-
1"
#402000
0"
#403000
1"
#404000
0"
#405000
1"
#406000
0"
#407000
1"
#408000
0"
#409000
1"
#410000
0"
b10011100111001 #
b10011100111001 &
1%
#411000
b11011000001001 =
b11011000001001 ;
b110011011000001001 *
b110011011000001001 1
b11000011101 !
b11000011101 +
b1 .
1-
1"
#412000
0"
#413000
1"
#414000
0"
#415000
1"
#416000
0"
#417000
1"
#418000
0"
#419000
1"
#420000
0"
b10011100111010 #
b10011100111010 &
0%
#421000
0-
1"
#422000
0"
#423000
1"
#424000
0"
#425000
1"
#426000
0"
#427000
1"
#428000
0"
#429000
1"
#430000
0"
b10011100111011 #
b10011100111011 &
1%
#431000
b101110101000100 =
b101110101000100 ;
b110101110101000100 *
b110101110101000100 1
b10 .
1-
1"
#432000
0"
#433000
1"
#434000
0"
#435000
1"
#436000
0"
#437000
1"
#438000
0"
#439000
1"
#440000
0"
b10011100111100 #
b10011100111100 &
0%
#441000
0-
1"
#442000
0"
#443000
1"
#444000
0"
#445000
1"
#446000
0"
#447000
1"
#448000
0"
#449000
1"
#450000
0"
b10011100111101 #
b10011100111101 &
1%
#451000
b1000010010000001 =
b1000010010000001 ;
b111000010010000001 *
b111000010010000001 1
b11 .
1-
1"
#452000
0"
#453000
1"
#454000
0"
#455000
1"
#456000
0"
#457000
1"
#458000
0"
#459000
1"
#460000
0"
b10011100111110 #
b10011100111110 &
0%
#461000
0-
1"
#462000
0"
#463000
1"
#464000
0"
#465000
1"
#466000
0"
#467000
1"
#468000
0"
#469000
1"
#470000
0"
b10011100111111 #
b10011100111111 &
1%
#471000
b1010101111000000 =
b1010101111000000 ;
b111010101111000000 *
b111010101111000000 1
1/
b11100110 5
b11100110 B
b11100110 O
b11100110 \
b11100110 )
b11100110 2
b110 9
b110 F
b110 S
b110 `
b110 ,
b110 0
b0 .
1-
1"
#472000
0"
#473000
0/
1"
#474000
0"
#475000
1"
#476000
0"
#477000
1"
#478000
0"
#479000
1"
#480000
0"
b10011101000000 #
b10011101000000 &
0%
#481000
0-
1"
#482000
0"
#483000
1"
#484000
0"
#485000
1"
#486000
0"
#487000
1"
#488000
0"
#489000
1"
#490000
0"
b10011101000001 #
b10011101000001 &
1%
#491000
b1101001100000001 =
b1101001100000001 ;
b111101001100000001 *
b111101001100000001 1
b11101010111 !
b11101010111 +
b1 .
1-
1"
#492000
0"
#493000
1"
#494000
0"
#495000
1"
#496000
0"
#497000
1"
#498000
0"
#499000
1"
#500000
0"
b10011101000010 #
b10011101000010 &
0%
#501000
0-
1"
#502000
0"
#503000
1"
#504000
0"
#505000
1"
#506000
0"
#507000
1"
#508000
0"
#509000
1"
#510000
0"
b10011101000011 #
b10011101000011 &
1%
#511000
b1111101001000100 =
b1111101001000100 ;
b111111101001000100 *
b111111101001000100 1
b10 .
1-
1"
#512000
0"
#513000
1"
#514000
0"
#515000
1"
#516000
0"
#517000
1"
#518000
0"
#519000
1"
#520000
0"
b10011101000100 #
b10011101000100 &
0%
#521000
0-
1"
#522000
0"
#523000
1"
#524000
0"
#525000
1"
#526000
0"
#527000
1"
#528000
0"
#529000
1"
#530000
0"
b10011101000101 #
b10011101000101 &
1%
#531000
b10000110001001 =
b10000110001001 ;
b100 J
b100 H
b1000010000110001001 *
b1000010000110001001 1
b11 .
1-
1"
#532000
0"
#533000
1"
#534000
0"
#535000
1"
#536000
0"
#537000
1"
#538000
0"
#539000
1"
#540000
0"
b10011101000110 #
b10011101000110 &
0%
#541000
0-
1"
#542000
0"
#543000
1"
#544000
0"
#545000
1"
#546000
0"
#547000
1"
#548000
0"
#549000
1"
#550000
0"
b10011101000111 #
b10011101000111 &
1%
#551000
b100100011010000 =
b100100011010000 ;
b1000100100011010000 *
b1000100100011010000 1
1/
b11100111 5
b11100111 B
b11100111 O
b11100111 \
b11100111 )
b11100111 2
b111 9
b111 F
b111 S
b111 `
b111 ,
b111 0
b0 .
1-
1"
#552000
0"
#553000
0/
1"
#554000
0"
#555000
1"
#556000
0"
#557000
1"
#558000
0"
#559000
1"
#560000
0"
b10011101001000 #
b10011101001000 &
0%
#561000
0-
1"
#562000
0"
#563000
1"
#564000
0"
#565000
1"
#566000
0"
#567000
1"
#568000
0"
#569000
1"
#570000
0"
b10011101001001 #
b10011101001001 &
1%
#571000
b111000000011001 =
b111000000011001 ;
b1000111000000011001 *
b1000111000000011001 1
b100010010001 !
b100010010001 +
b1 .
1-
1"
#572000
0"
#573000
1"
#574000
0"
#575000
1"
#576000
0"
#577000
1"
#578000
0"
#579000
1"
#580000
0"
b10011101001010 #
b10011101001010 &
0%
#581000
0-
1"
#582000
0"
#583000
1"
#584000
0"
#585000
1"
#586000
0"
#587000
1"
#588000
0"
#589000
1"
#590000
0"
b10011101001011 #
b10011101001011 &
1%
#591000
b1001011101100100 =
b1001011101100100 ;
b1001001011101100100 *
b1001001011101100100 1
b10 .
1-
1"
#592000
0"
#593000
1"
#594000
0"
#595000
1"
#596000
0"
#597000
1"
#598000
0"
#599000
1"
#600000
0"
b10011101001100 #
b10011101001100 &
0%
#601000
0-
1"
#602000
0"
#603000
1"
#604000
0"
#605000
1"
#606000
0"
#607000
1"
#608000
0"
#609000
1"
#610000
0"
b10011101001101 #
b10011101001101 &
1%
#611000
b1011111010110001 =
b1011111010110001 ;
b1001011111010110001 *
b1001011111010110001 1
b11 .
1-
1"
#612000
0"
#613000
1"
#614000
0"
#615000
1"
#616000
0"
#617000
1"
#618000
0"
#619000
1"
#620000
0"
b10011101001110 #
b10011101001110 &
0%
#621000
0-
1"
#622000
0"
#623000
1"
#624000
0"
#625000
1"
#626000
0"
#627000
1"
#628000
0"
#629000
1"
#630000
0"
b10011101001111 #
b10011101001111 &
1%
#631000
b1110011000000000 =
b1110011000000000 ;
b1001110011000000000 *
b1001110011000000000 1
1/
b11101000 5
b11101000 B
b11101000 O
b11101000 \
b11101000 )
b11101000 2
b1000 9
b1000 F
b1000 S
b1000 `
b1000 ,
b1000 0
b0 .
1-
1"
#632000
0"
#633000
0/
1"
#634000
0"
#635000
1"
#636000
0"
#637000
1"
#638000
0"
#639000
1"
#640000
0"
b10011101010000 #
b10011101010000 &
0%
#641000
0-
1"
#642000
0"
#643000
1"
#644000
0"
#645000
1"
#646000
0"
#647000
1"
#648000
0"
#649000
1"
#650000
0"
b10011101010001 #
b10011101010001 &
1%
#651000
b110101010001 =
b110101010001 ;
b101 J
b101 H
b1010000110101010001 *
b1010000110101010001 1
b100111001100 !
b100111001100 +
b1 .
1-
1"
#652000
0"
#653000
1"
#654000
0"
#655000
1"
#656000
0"
#657000
1"
#658000
0"
#659000
1"
#660000
0"
b10011101010010 #
b10011101010010 &
0%
#661000
0-
1"
#662000
0"
#663000
1"
#664000
0"
#665000
1"
#666000
0"
#667000
1"
#668000
0"
#669000
1"
#670000
0"
b10011101010011 #
b10011101010011 &
1%
#671000
b11010010100100 =
b11010010100100 ;
b1010011010010100100 *
b1010011010010100100 1
b10 .
1-
1"
#672000
0"
#673000
1"
#674000
0"
#675000
1"
#676000
0"
#677000
1"
#678000
0"
#679000
1"
#680000
0"
b10011101010100 #
b10011101010100 &
0%
#681000
0-
1"
#682000
0"
#683000
1"
#684000
0"
#685000
1"
#686000
0"
#687000
1"
#688000
0"
#689000
1"
#690000
0"
b10011101010101 #
b10011101010101 &
1%
#691000
b101101111111001 =
b101101111111001 ;
b1010101101111111001 *
b1010101101111111001 1
b11 .
1-
1"
#692000
0"
#693000
1"
#694000
0"
#695000
1"
#696000
0"
#697000
1"
#698000
0"
#699000
1"
#700000
0"
b10011101010110 #
b10011101010110 &
0%
#701000
0-
1"
#702000
0"
#703000
1"
#704000
0"
#705000
1"
#706000
0"
#707000
1"
#708000
0"
#709000
1"
#710000
0"
b10011101010111 #
b10011101010111 &
1%
#711000
b1000001101010000 =
b1000001101010000 ;
b1011000001101010000 *
b1011000001101010000 1
1/
b11101001 5
b11101001 B
b11101001 O
b11101001 \
b11101001 )
b11101001 2
b1001 9
b1001 F
b1001 S
b1001 `
b1001 ,
b1001 0
b0 .
1-
1"
#712000
0"
#713000
0/
1"
#714000
0"
#715000
1"
#716000
0"
#717000
1"
#718000
0"
#719000
1"
#720000
0"
b10011101011000 #
b10011101011000 &
0%
#721000
0-
1"
#722000
0"
#723000
1"
#724000
0"
#725000
1"
#726000
0"
#727000
1"
#728000
0"
#729000
1"
#730000
0"
b10011101011001 #
b10011101011001 &
1%
#731000
b1010101010101001 =
b1010101010101001 ;
b1011010101010101001 *
b1011010101010101001 1
b101100000110 !
b101100000110 +
b1 .
1-
1"
#732000
0"
#733000
1"
#734000
0"
#735000
1"
#736000
0"
#737000
1"
#738000
0"
#739000
1"
#740000
0"
b10011101011010 #
b10011101011010 &
0%
#741000
0-
1"
#742000
0"
#743000
1"
#744000
0"
#745000
1"
#746000
0"
#747000
1"
#748000
0"
#749000
1"
#750000
0"
b10011101011011 #
b10011101011011 &
1%
#751000
b1101001000000100 =
b1101001000000100 ;
b1011101001000000100 *
b1011101001000000100 1
b10 .
1-
1"
#752000
0"
#753000
1"
#754000
0"
#755000
1"
#756000
0"
#757000
1"
#758000
0"
#759000
1"
#760000
0"
b10011101011100 #
b10011101011100 &
0%
#761000
0-
1"
#762000
0"
#763000
1"
#764000
0"
#765000
1"
#766000
0"
#767000
1"
#768000
0"
#769000
1"
#770000
0"
b10011101011101 #
b10011101011101 &
1%
#771000
b1111100101100001 =
b1111100101100001 ;
b1011111100101100001 *
b1011111100101100001 1
b11 .
1-
1"
#772000
0"
#773000
1"
#774000
0"
#775000
1"
#776000
0"
#777000
1"
#778000
0"
#779000
1"
#780000
0"
b10011101011110 #
b10011101011110 &
0%
#781000
0-
1"
#782000
0"
#783000
1"
#784000
0"
#785000
1"
#786000
0"
#787000
1"
#788000
0"
#789000
1"
#790000
0"
b10011101011111 #
b10011101011111 &
1%
#791000
b10000011000000 =
b10000011000000 ;
b110 J
b110 H
b1100010000011000000 *
b1100010000011000000 1
1/
b11101010 5
b11101010 B
b11101010 O
b11101010 \
b11101010 )
b11101010 2
b1010 9
b1010 F
b1010 S
b1010 `
b1010 ,
b1010 0
b0 .
1-
1"
#792000
0"
#793000
0/
1"
#794000
0"
#795000
1"
#796000
0"
#797000
1"
#798000
0"
#799000
1"
#800000
0"
b10011101100000 #
b10011101100000 &
0%
#801000
0-
1"
#802000
0"
#803000
1"
#804000
0"
#805000
1"
#806000
0"
#807000
1"
#808000
0"
#809000
1"
#810000
0"
b10011101100001 #
b10011101100001 &
1%
#811000
b100100000100001 =
b100100000100001 ;
b1100100100000100001 *
b1100100100000100001 1
b110001000001 !
b110001000001 +
b1 .
1-
1"
#812000
0"
#813000
1"
#814000
0"
#815000
1"
#816000
0"
#817000
1"
#818000
0"
#819000
1"
#820000
0"
b10011101100010 #
b10011101100010 &
0%
#821000
0-
1"
#822000
0"
#823000
1"
#824000
0"
#825000
1"
#826000
0"
#827000
1"
#828000
0"
#829000
1"
#830000
0"
b10011101100011 #
b10011101100011 &
1%
#831000
b110111110000100 =
b110111110000100 ;
b1100110111110000100 *
b1100110111110000100 1
b10 .
1-
1"
#832000
0"
#833000
1"
#834000
0"
#835000
1"
#836000
0"
#837000
1"
#838000
0"
#839000
1"
#840000
0"
b10011101100100 #
b10011101100100 &
0%
#841000
0-
1"
#842000
0"
#843000
1"
#844000
0"
#845000
1"
#846000
0"
#847000
1"
#848000
0"
#849000
1"
#850000
0"
b10011101100101 #
b10011101100101 &
1%
#851000
b1001011011101001 =
b1001011011101001 ;
b1101001011011101001 *
b1101001011011101001 1
b11 .
1-
1"
#852000
0"
#853000
1"
#854000
0"
#855000
1"
#856000
0"
#857000
1"
#858000
0"
#859000
1"
#860000
0"
b10011101100110 #
b10011101100110 &
0%
#861000
0-
1"
#862000
0"
#863000
1"
#864000
0"
#865000
1"
#866000
0"
#867000
1"
#868000
0"
#869000
1"
#870000
0"
b10011101100111 #
b10011101100111 &
1%
#871000
b1011111001010000 =
b1011111001010000 ;
b1101011111001010000 *
b1101011111001010000 1
1/
b11101011 5
b11101011 B
b11101011 O
b11101011 \
b11101011 )
b11101011 2
b1011 9
b1011 F
b1011 S
b1011 `
b1011 ,
b1011 0
b0 .
1-
1"
#872000
0"
#873000
0/
1"
#874000
0"
#875000
1"
#876000
0"
#877000
1"
#878000
0"
#879000
1"
#880000
0"
b10011101101000 #
b10011101101000 &
0%
#881000
0-
1"
#882000
0"
#883000
1"
#884000
0"
#885000
1"
#886000
0"
#887000
1"
#888000
0"
#889000
1"
#890000
0"
b10011101101001 #
b10011101101001 &
1%
#891000
b1110010110111001 =
b1110010110111001 ;
b1101110010110111001 *
b1101110010110111001 1
b110101111100 !
b110101111100 +
b1 .
1-
1"
#892000
0"
#893000
1"
#894000
0"
#895000
1"
#896000
0"
#897000
1"
#898000
0"
#899000
1"
#900000
0"
b10011101101010 #
b10011101101010 &
0%
#901000
0-
1"
#902000
0"
#903000
1"
#904000
0"
#905000
1"
#906000
0"
#907000
1"
#908000
0"
#909000
1"
#910000
0"
b10011101101011 #
b10011101101011 &
1%
#911000
b110100100100 =
b110100100100 ;
b111 J
b111 H
b1110000110100100100 *
b1110000110100100100 1
b10 .
1-
1"
#912000
0"
#913000
1"
#914000
0"
#915000
1"
#916000
0"
#917000
1"
#918000
0"
#919000
1"
#920000
0"
b10011101101100 #
b10011101101100 &
0%
#921000
0-
1"
#922000
0"
#923000
1"
#924000
0"
#925000
1"
#926000
0"
#927000
1"
#928000
0"
#929000
1"
#930000
0"
b10011101101101 #
b10011101101101 &
1%
#931000
b11010010010001 =
b11010010010001 ;
b1110011010010010001 *
b1110011010010010001 1
b11 .
1-
1"
#932000
0"
#933000
1"
#934000
0"
#935000
1"
#936000
0"
#937000
1"
#938000
0"
#939000
1"
#940000
0"
b10011101101110 #
b10011101101110 &
0%
#941000
0-
1"
#942000
0"
#943000
1"
#944000
0"
#945000
1"
#946000
0"
#947000
1"
#948000
0"
#949000
1"
#950000
0"
b10011101101111 #
b10011101101111 &
1%
#951000
b101110000000000 =
b101110000000000 ;
b1110101110000000000 *
b1110101110000000000 1
1/
b11101100 5
b11101100 B
b11101100 O
b11101100 \
b11101100 )
b11101100 2
b1100 9
b1100 F
b1100 S
b1100 `
b1100 ,
b1100 0
b0 .
1-
1"
#952000
0"
#953000
0/
1"
#954000
0"
#955000
1"
#956000
0"
#957000
1"
#958000
0"
#959000
1"
#960000
0"
b10011101110000 #
b10011101110000 &
0%
#961000
0-
1"
#962000
0"
