FPGA/HDL/cordic/out.vcd
$date
	Fri Oct 18 22:15:15 2019
$end
$version
	Icarus Verilog
$end
$timescale
	1ns
$end
$scope module tb $end
$var wire 17 ! y_o [16:0] $end
$var wire 17 " x_o [16:0] $end
$var wire 17 # theta_o [16:0] $end
$var reg 1 $ clock $end
$var reg 17 % ex [16:0] $end
$var reg 17 & ey [16:0] $end
$var reg 1 ' init $end
$var reg 1 ( reset $end
$var reg 17 ) theta_i [16:0] $end
$var reg 17 * x_i [16:0] $end
$var reg 17 + y_i [16:0] $end
$var real 1 , a_e $end
$var real 1 - a_i $end
$var real 1 . a_o $end
$var integer 32 / i [31:0] $end
$var integer 32 0 j [31:0] $end
$var real 1 1 rx $end
$var real 1 2 ry $end
$scope module UUT $end
$var wire 1 $ clk $end
$var wire 1 ( rst $end
$var wire 17 3 theta_i [16:0] $end
$var wire 17 4 theta_o [16:0] $end
$var wire 17 5 x_i [16:0] $end
$var wire 17 6 x_o [16:0] $end
$var wire 17 7 y_i [16:0] $end
$var wire 17 8 y_o [16:0] $end
$scope function tanangle $end
$var reg 4 9 i [3:0] $end
$var reg 17 : tanangle [16:0] $end
$upscope $end
$scope module U0 $end
$var wire 1 $ clk $end
$var wire 1 ( rst $end
$var wire 17 ; x_i [16:0] $end
$var wire 17 < x_o [16:0] $end
$var wire 17 = y_i [16:0] $end
$var wire 17 > y_o [16:0] $end
$var wire 17 ? z_i [16:0] $end
$var wire 17 @ z_o [16:0] $end
$var wire 17 A y_i_shifted [16:0] $end
$var wire 17 B x_i_shifted [16:0] $end
$var reg 17 C x_1 [16:0] $end
$var reg 17 D x_i_pipe [16:0] $end
$var reg 17 E x_i_s_pipe [16:0] $end
$var reg 17 F y_1 [16:0] $end
$var reg 17 G y_i_pipe [16:0] $end
$var reg 17 H y_i_s_pipe [16:0] $end
$var reg 17 I z_1 [16:0] $end
$scope module x_shifter $end
$var wire 17 J D [16:0] $end
$var reg 17 K Q [16:0] $end
$var integer 32 L j [31:0] $end
$upscope $end
$scope module y_shifter $end
$var wire 17 M D [16:0] $end
$var reg 17 N Q [16:0] $end
$var integer 32 O j [31:0] $end
$upscope $end
$upscope $end
$scope module U1 $end
$var wire 1 $ clk $end
$var wire 1 ( rst $end
$var wire 17 P x_i [16:0] $end
$var wire 17 Q x_o [16:0] $end
$var wire 17 R y_i [16:0] $end
$var wire 17 S y_o [16:0] $end
$var wire 17 T z_i [16:0] $end
$var wire 17 U z_o [16:0] $end
$var wire 17 V y_i_shifted [16:0] $end
$var wire 17 W x_i_shifted [16:0] $end
$var reg 17 X x_1 [16:0] $end
$var reg 17 Y x_i_pipe [16:0] $end
$var reg 17 Z x_i_s_pipe [16:0] $end
$var reg 17 [ y_1 [16:0] $end
$var reg 17 \ y_i_pipe [16:0] $end
$var reg 17 ] y_i_s_pipe [16:0] $end
$var reg 17 ^ z_1 [16:0] $end
$scope module x_shifter $end
$var wire 17 _ D [16:0] $end
$var reg 17 ` Q [16:0] $end
$var integer 32 a j [31:0] $end
$upscope $end
$scope module y_shifter $end
$var wire 17 b D [16:0] $end
$var reg 17 c Q [16:0] $end
$var integer 32 d j [31:0] $end
$upscope $end
$upscope $end
$scope module U10 $end
$var wire 1 $ clk $end
$var wire 1 ( rst $end
$var wire 17 e x_o [16:0] $end
$var wire 17 f y_o [16:0] $end
$var wire 17 g z_o [16:0] $end
$var wire 17 h z_i [16:0] $end
$var wire 17 i y_i_shifted [16:0] $end
$var wire 17 j y_i [16:0] $end
$var wire 17 k x_i_shifted [16:0] $end
$var wire 17 l x_i [16:0] $end
$var reg 17 m x_1 [16:0] $end
$var reg 17 n x_i_pipe [16:0] $end
$var reg 17 o x_i_s_pipe [16:0] $end
$var reg 17 p y_1 [16:0] $end
$var reg 17 q y_i_pipe [16:0] $end
$var reg 17 r y_i_s_pipe [16:0] $end
$var reg 17 s z_1 [16:0] $end
$scope module x_shifter $end
$var wire 17 t D [16:0] $end
$var reg 17 u Q [16:0] $end
$var integer 32 v j [31:0] $end
$upscope $end
$scope module y_shifter $end
$var wire 17 w D [16:0] $end
$var reg 17 x Q [16:0] $end
$var integer 32 y j [31:0] $end
$upscope $end
$upscope $end
$scope module U2 $end
$var wire 1 $ clk $end
$var wire 1 ( rst $end
$var wire 17 z x_i [16:0] $end
$var wire 17 { x_o [16:0] $end
$var wire 17 | y_i [16:0] $end
$var wire 17 } y_o [16:0] $end
$var wire 17 ~ z_i [16:0] $end
$var wire 17 !" z_o [16:0] $end
$var wire 17 "" y_i_shifted [16:0] $end
$var wire 17 #" x_i_shifted [16:0] $end
$var reg 17 $" x_1 [16:0] $end
$var reg 17 %" x_i_pipe [16:0] $end
$var reg 17 &" x_i_s_pipe [16:0] $end
$var reg 17 '" y_1 [16:0] $end
$var reg 17 (" y_i_pipe [16:0] $end
$var reg 17 )" y_i_s_pipe [16:0] $end
$var reg 17 *" z_1 [16:0] $end
$scope module x_shifter $end
$var wire 17 +" D [16:0] $end
$var reg 17 ," Q [16:0] $end
$var integer 32 -" j [31:0] $end
$upscope $end
$scope module y_shifter $end
$var wire 17 ." D [16:0] $end
$var reg 17 /" Q [16:0] $end
$var integer 32 0" j [31:0] $end
$upscope $end
$upscope $end
$scope module U3 $end
$var wire 1 $ clk $end
$var wire 1 ( rst $end
$var wire 17 1" x_i [16:0] $end
$var wire 17 2" x_o [16:0] $end
$var wire 17 3" y_i [16:0] $end
$var wire 17 4" y_o [16:0] $end
$var wire 17 5" z_i [16:0] $end
$var wire 17 6" z_o [16:0] $end
$var wire 17 7" y_i_shifted [16:0] $end
$var wire 17 8" x_i_shifted [16:0] $end
$var reg 17 9" x_1 [16:0] $end
$var reg 17 :" x_i_pipe [16:0] $end
$var reg 17 ;" x_i_s_pipe [16:0] $end
$var reg 17 <" y_1 [16:0] $end
$var reg 17 =" y_i_pipe [16:0] $end
$var reg 17 >" y_i_s_pipe [16:0] $end
$var reg 17 ?" z_1 [16:0] $end
$scope module x_shifter $end
$var wire 17 @" D [16:0] $end
$var reg 17 A" Q [16:0] $end
$var integer 32 B" j [31:0] $end
$upscope $end
$scope module y_shifter $end
$var wire 17 C" D [16:0] $end
$var reg 17 D" Q [16:0] $end
$var integer 32 E" j [31:0] $end
$upscope $end
$upscope $end
$scope module U4 $end
$var wire 1 $ clk $end
$var wire 1 ( rst $end
$var wire 17 F" x_i [16:0] $end
$var wire 17 G" x_o [16:0] $end
$var wire 17 H" y_i [16:0] $end
$var wire 17 I" y_o [16:0] $end
$var wire 17 J" z_i [16:0] $end
$var wire 17 K" z_o [16:0] $end
$var wire 17 L" y_i_shifted [16:0] $end
$var wire 17 M" x_i_shifted [16:0] $end
$var reg 17 N" x_1 [16:0] $end
$var reg 17 O" x_i_pipe [16:0] $end
$var reg 17 P" x_i_s_pipe [16:0] $end
$var reg 17 Q" y_1 [16:0] $end
$var reg 17 R" y_i_pipe [16:0] $end
$var reg 17 S" y_i_s_pipe [16:0] $end
$var reg 17 T" z_1 [16:0] $end
$scope module x_shifter $end
$var wire 17 U" D [16:0] $end
$var reg 17 V" Q [16:0] $end
$var integer 32 W" j [31:0] $end
$upscope $end
$scope module y_shifter $end
$var wire 17 X" D [16:0] $end
$var reg 17 Y" Q [16:0] $end
$var integer 32 Z" j [31:0] $end
$upscope $end
$upscope $end
$scope module U5 $end
$var wire 1 $ clk $end
$var wire 1 ( rst $end
$var wire 17 [" x_i [16:0] $end
$var wire 17 \" x_o [16:0] $end
$var wire 17 ]" y_i [16:0] $end
$var wire 17 ^" y_o [16:0] $end
$var wire 17 _" z_i [16:0] $end
$var wire 17 `" z_o [16:0] $end
$var wire 17 a" y_i_shifted [16:0] $end
$var wire 17 b" x_i_shifted [16:0] $end
$var reg 17 c" x_1 [16:0] $end
$var reg 17 d" x_i_pipe [16:0] $end
$var reg 17 e" x_i_s_pipe [16:0] $end
$var reg 17 f" y_1 [16:0] $end
$var reg 17 g" y_i_pipe [16:0] $end
$var reg 17 h" y_i_s_pipe [16:0] $end
$var reg 17 i" z_1 [16:0] $end
$scope module x_shifter $end
$var wire 17 j" D [16:0] $end
$var reg 17 k" Q [16:0] $end
$var integer 32 l" j [31:0] $end
$upscope $end
$scope module y_shifter $end
$var wire 17 m" D [16:0] $end
$var reg 17 n" Q [16:0] $end
$var integer 32 o" j [31:0] $end
$upscope $end
$upscope $end
$scope module U6 $end
$var wire 1 $ clk $end
$var wire 1 ( rst $end
$var wire 17 p" x_i [16:0] $end
$var wire 17 q" x_o [16:0] $end
$var wire 17 r" y_i [16:0] $end
$var wire 17 s" y_o [16:0] $end
$var wire 17 t" z_i [16:0] $end
$var wire 17 u" z_o [16:0] $end
$var wire 17 v" y_i_shifted [16:0] $end
$var wire 17 w" x_i_shifted [16:0] $end
$var reg 17 x" x_1 [16:0] $end
$var reg 17 y" x_i_pipe [16:0] $end
$var reg 17 z" x_i_s_pipe [16:0] $end
$var reg 17 {" y_1 [16:0] $end
$var reg 17 |" y_i_pipe [16:0] $end
$var reg 17 }" y_i_s_pipe [16:0] $end
$var reg 17 ~" z_1 [16:0] $end
$scope module x_shifter $end
$var wire 17 !# D [16:0] $end
$var reg 17 "# Q [16:0] $end
$var integer 32 ## j [31:0] $end
$upscope $end
$scope module y_shifter $end
$var wire 17 $# D [16:0] $end
$var reg 17 %# Q [16:0] $end
$var integer 32 &# j [31:0] $end
$upscope $end
$upscope $end
$scope module U7 $end
$var wire 1 $ clk $end
$var wire 1 ( rst $end
$var wire 17 '# x_i [16:0] $end
$var wire 17 (# x_o [16:0] $end
$var wire 17 )# y_i [16:0] $end
$var wire 17 *# y_o [16:0] $end
$var wire 17 +# z_i [16:0] $end
$var wire 17 ,# z_o [16:0] $end
$var wire 17 -# y_i_shifted [16:0] $end
$var wire 17 .# x_i_shifted [16:0] $end
$var reg 17 /# x_1 [16:0] $end
$var reg 17 0# x_i_pipe [16:0] $end
$var reg 17 1# x_i_s_pipe [16:0] $end
$var reg 17 2# y_1 [16:0] $end
$var reg 17 3# y_i_pipe [16:0] $end
$var reg 17 4# y_i_s_pipe [16:0] $end
$var reg 17 5# z_1 [16:0] $end
$scope module x_shifter $end
$var wire 17 6# D [16:0] $end
$var reg 17 7# Q [16:0] $end
$var integer 32 8# j [31:0] $end
$upscope $end
$scope module y_shifter $end
$var wire 17 9# D [16:0] $end
$var reg 17 :# Q [16:0] $end
$var integer 32 ;# j [31:0] $end
$upscope $end
$upscope $end
$scope module U8 $end
$var wire 1 $ clk $end
$var wire 1 ( rst $end
$var wire 17 <# x_i [16:0] $end
$var wire 17 =# x_o [16:0] $end
$var wire 17 ># y_i [16:0] $end
$var wire 17 ?# y_o [16:0] $end
$var wire 17 @# z_i [16:0] $end
$var wire 17 A# z_o [16:0] $end
$var wire 17 B# y_i_shifted [16:0] $end
$var wire 17 C# x_i_shifted [16:0] $end
$var reg 17 D# x_1 [16:0] $end
$var reg 17 E# x_i_pipe [16:0] $end
$var reg 17 F# x_i_s_pipe [16:0] $end
$var reg 17 G# y_1 [16:0] $end
$var reg 17 H# y_i_pipe [16:0] $end
$var reg 17 I# y_i_s_pipe [16:0] $end
$var reg 17 J# z_1 [16:0] $end
$scope module x_shifter $end
$var wire 17 K# D [16:0] $end
$var reg 17 L# Q [16:0] $end
$var integer 32 M# j [31:0] $end
$upscope $end
$scope module y_shifter $end
$var wire 17 N# D [16:0] $end
$var reg 17 O# Q [16:0] $end
$var integer 32 P# j [31:0] $end
$upscope $end
$upscope $end
$scope module U9 $end
$var wire 1 $ clk $end
$var wire 1 ( rst $end
$var wire 17 Q# x_i [16:0] $end
$var wire 17 R# x_o [16:0] $end
$var wire 17 S# y_i [16:0] $end
$var wire 17 T# y_o [16:0] $end
$var wire 17 U# z_i [16:0] $end
$var wire 17 V# z_o [16:0] $end
$var wire 17 W# y_i_shifted [16:0] $end
$var wire 17 X# x_i_shifted [16:0] $end
$var reg 17 Y# x_1 [16:0] $end
$var reg 17 Z# x_i_pipe [16:0] $end
$var reg 17 [# x_i_s_pipe [16:0] $end
$var reg 17 \# y_1 [16:0] $end
$var reg 17 ]# y_i_pipe [16:0] $end
$var reg 17 ^# y_i_s_pipe [16:0] $end
$var reg 17 _# z_1 [16:0] $end
$scope module x_shifter $end
$var wire 17 `# D [16:0] $end
$var reg 17 a# Q [16:0] $end
$var integer 32 b# j [31:0] $end
$upscope $end
$scope module y_shifter $end
$var wire 17 c# D [16:0] $end
$var reg 17 d# Q [16:0] $end
$var integer 32 e# j [31:0] $end
$upscope $end
$upscope $end
$upscope $end
$scope task show_results $end
$var reg 17 f# ltheta [16:0] $end
$var reg 17 g# lx [16:0] $end
$var reg 17 h# ly [16:0] $end
$var integer 32 i# j [31:0] $end
$upscope $end
$scope task show_rotate_results $end
$var reg 17 j# lx [16:0] $end
$var reg 17 k# ly [16:0] $end
$var integer 32 l# j [31:0] $end
$upscope $end
$scope task show_vector_results $end
$var reg 17 m# theta [16:0] $end
$var integer 32 n# j [31:0] $end
$upscope $end
$upscope $end
$enddefinitions $end
#0
$dumpvars
bx n#
bx m#
bx l#
bx k#
bx j#
bx i#
bx h#
bx g#
bx f#
bx e#
bx d#
bx c#
bx b#
bx a#
bx `#
bx _#
bx ^#
bx ]#
bx \#
bx [#
bx Z#
bx Y#
bx X#
bx W#
bx V#
bx U#
bx T#
bx S#
bx R#
bx Q#
bx P#
bx O#
bx N#
bx M#
bx L#
bx K#
bx J#
bx I#
bx H#
bx G#
bx F#
bx E#
bx D#
bx C#
bx B#
bx A#
bx @#
bx ?#
bx >#
bx =#
bx <#
bx ;#
bx :#
bx 9#
bx 8#
bx 7#
bx 6#
bx 5#
bx 4#
bx 3#
bx 2#
bx 1#
bx 0#
bx /#
bx .#
bx -#
bx ,#
bx +#
bx *#
bx )#
bx (#
bx '#
bx &#
bx %#
bx $#
bx ##
bx "#
bx !#
bx ~"
bx }"
bx |"
bx {"
bx z"
bx y"
bx x"
bx w"
bx v"
bx u"
bx t"
bx s"
bx r"
bx q"
bx p"
bx o"
bx n"
bx m"
bx l"
bx k"
bx j"
bx i"
bx h"
bx g"
bx f"
bx e"
bx d"
bx c"
bx b"
bx a"
bx `"
bx _"
bx ^"
bx ]"
bx \"
bx ["
bx Z"
bx Y"
bx X"
bx W"
bx V"
bx U"
bx T"
bx S"
bx R"
bx Q"
bx P"
bx O"
bx N"
bx M"
bx L"
bx K"
bx J"
bx I"
bx H"
bx G"
bx F"
bx E"
bx D"
bx C"
bx B"
bx A"
bx @"
bx ?"
bx >"
bx ="
bx <"
bx ;"
bx :"
bx 9"
bx 8"
bx 7"
bx 6"
bx 5"
bx 4"
bx 3"
bx 2"
bx 1"
bx 0"
bx /"
bx ."
bx -"
bx ,"
bx +"
bx *"
bx )"
bx ("
bx '"
bx &"
bx %"
bx $"
bx #"
bx ""
bx !"
bx ~
bx }
bx |
bx {
bx z
bx y
bx x
bx w
bx v
bx u
bx t
bx s
bx r
bx q
bx p
bx o
bx n
bx m
bx l
bx k
bx j
bx i
bx h
bx g
bx f
bx e
bx d
bx c
bx b
bx a
bx `
bx _
bx ^
bx ]
bx \
bx [
bx Z
bx Y
bx X
bx W
bx V
bx U
bx T
bx S
bx R
bx Q
bx P
b0 O
b0 N
b0 M
b0 L
b0 K
b0 J
bx I
bx H
bx G
bx F
bx E
bx D
bx C
b0 B
b0 A
bx @
b0 ?
bx >
b0 =
bx <
b0 ;
bx :
bx 9
bx 8
b0 7
bx 6
b0 5
bx 4
b0 3
r0 2
r0 1
bx 0
bx /
r0 .
r0 -
r0 ,
b0 +
b0 *
b0 )
1(
0'
bx &
bx %
0$
bx #
bx "
bx !
$end
#1
b1 d
b0 V
b0 c
b1 a
b0 W
b0 `
b10 0"
b0 ""
b0 /"
b10 -"
b0 #"
b0 ,"
b11 E"
b0 7"
b0 D"
b11 B"
b0 8"
b0 A"
b100 Z"
b0 L"
b0 Y"
b100 W"
b0 M"
b0 V"
b101 o"
b0 a"
b0 n"
b101 l"
b0 b"
b0 k"
b110 &#
b0 v"
b0 %#
b110 ##
b0 w"
b0 "#
b111 ;#
b0 -#
b0 :#
b111 8#
b0 .#
b0 7#
b1000 P#
b0 B#
b0 O#
b1000 M#
b0 C#
b0 L#
b1001 e#
b0 W#
b0 d#
b1001 b#
b0 X#
b0 a#
b1010 y
b0 i
b0 x
b1010 v
b0 k
b0 u
b0 D
b0 G
b0 E
b0 H
b0 @
b0 T
b0 I
b0 >
b0 R
b0 b
b0 F
b0 <
b0 P
b0 _
b0 C
b0 Y
b0 \
b0 Z
b0 ]
b0 U
b0 ~
b0 ^
b0 S
b0 |
b0 ."
b0 [
b0 Q
b0 z
b0 +"
b0 X
b0 %"
b0 ("
b0 &"
b0 )"
b0 !"
b0 5"
b0 *"
b0 }
b0 3"
b0 C"
b0 '"
b0 {
b0 1"
b0 @"
b0 $"
b0 :"
b0 ="
b0 ;"
b0 >"
b0 6"
b0 J"
b0 ?"
b0 4"
b0 H"
b0 X"
b0 <"
b0 2"
b0 F"
b0 U"
b0 9"
b0 O"
b0 R"
b0 P"
b0 S"
b0 K"
b0 _"
b0 T"
b0 I"
b0 ]"
b0 m"
b0 Q"
b0 G"
b0 ["
b0 j"
b0 N"
b0 d"
b0 g"
b0 e"
b0 h"
b0 `"
b0 t"
b0 i"
b0 ^"
b0 r"
b0 $#
b0 f"
b0 \"
b0 p"
b0 !#
b0 c"
b0 y"
b0 |"
b0 z"
b0 }"
b0 u"
b0 +#
b0 ~"
b0 s"
b0 )#
b0 9#
b0 {"
b0 q"
b0 '#
b0 6#
b0 x"
b0 0#
b0 3#
b0 1#
b0 4#
b0 ,#
b0 @#
b0 5#
b0 *#
b0 >#
b0 N#
b0 2#
b0 (#
b0 <#
b0 K#
b0 /#
b0 E#
b0 H#
b0 F#
b0 I#
b0 A#
b0 U#
b0 J#
b0 ?#
b0 S#
b0 c#
b0 G#
b0 =#
b0 Q#
b0 `#
b0 D#
b0 Z#
b0 ]#
b0 [#
b0 ^#
b0 h
b0 V#
b0 _#
b0 j
b0 w
b0 T#
b0 \#
b0 l
b0 t
b0 R#
b0 Y#
b0 n
b0 q
b0 o
b0 r
b0 #
b0 4
b0 g
b0 s
b0 !
b0 8
b0 f
b0 p
b0 "
b0 6
b0 e
b0 m
1$
#2
b1000000000000000 B
b1000000000000000 K
b1000000000000000 ;
b1000000000000000 J
b1000000000000000 *
b1000000000000000 5
0(
0$
b0 0
#3
b1 d
b100000000000000 V
b100000000000000 c
b1 a
b100000000000000 W
b100000000000000 `
b11111111111110010 #
b11111111111110010 4
b11111111111110010 g
b11111111111110010 s
b11111111111100100 h
b11111111111100100 V#
b11111111111100100 _#
b11111111111000111 A#
b11111111111000111 U#
b11111111111000111 J#
b11111111110001110 ,#
b11111111110001110 @#
b11111111110001110 5#
b11111111100011011 u"
b11111111100011011 +#
b11111111100011011 ~"
b11111111000110110 `"
b11111111000110110 t"
b11111111000110110 i"
b11111110001101101 K"
b11111110001101101 _"
b11111110001101101 T"
b11111100011100000 6"
b11111100011100000 J"
b11111100011100000 ?"
b11111000111110111 !"
b11111000111110111 5"
b11111000111110111 *"
b11110010101110000 U
b11110010101110000 ~
b11110010101110000 ^
b11101001100000000 @
b11101001100000000 T
b11101001100000000 I
b1000000000000000 >
b1000000000000000 R
b1000000000000000 b
b1000000000000000 F
b1000000000000000 <
b1000000000000000 P
b1000000000000000 _
b1000000000000000 C
1$
#4
b1000111011 A
b1000111011 N
b111111111111011 B
b111111111111011 K
b1000111011 =
b1000111011 M
b1000111011 +
b1000111011 7
b111111111111011 ;
b111111111111011 J
b111111111111011 *
b111111111111011 5
0$
b1 0
#5
b1 d
b11100000100100000 V
b11100000100100000 c
b1 a
b100000100011011 W
b100000100011011 `
b10 0"
b1000000000000 ""
b1000000000000 /"
b10 -"
b11000000000000 #"
b11000000000000 ,"
b10110100000000 @
b10110100000000 T
b10110100000000 I
b11000001001000000 >
b11000001001000000 R
b11000001001000000 b
b11000001001000000 F
b1000001000110110 <
b1000001000110110 P
b1000001000110110 _
b1000001000110110 C
b11110110110010000 U
b11110110110010000 ~
b11110110110010000 ^
b100000000000000 S
b100000000000000 |
b100000000000000 ."
b100000000000000 [
b1100000000000000 Q
b1100000000000000 z
b1100000000000000 +"
b1100000000000000 X
b11101011101100111 !"
b11101011101100111 5"
b11101011101100111 *"
b11110101011010111 6"
b11110101011010111 J"
b11110101011010111 ?"
b11111010101001101 K"
b11111010101001101 _"
b11111010101001101 T"
b11111101010100011 `"
b11111101010100011 t"
b11111101010100011 i"
b11111110101010001 u"
b11111110101010001 +#
b11111110101010001 ~"
b11111111010101001 ,#
b11111111010101001 @#
b11111111010101001 5#
b11111111101010101 A#
b11111111101010101 U#
b11111111101010101 J#
b11111111110101011 h
b11111111110101011 V#
b11111111110101011 _#
b11111111111010110 #
b11111111111010110 4
b11111111111010110 g
b11111111111010110 s
1$
#6
b10001110111 A
b10001110111 N
b111111111101100 B
b111111111101100 K
b10001110111 =
b10001110111 M
b10001110111 +
b10001110111 7
b111111111101100 ;
b111111111101100 J
b111111111101100 *
b111111111101100 5
0$
b10 0
#7
b11 E"
b1000000000 7"
b1000000000 D"
b11 B"
b1101000000000 8"
b1101000000000 A"
b10 0"
b11111000011010110 ""
b11111000011010110 /"
b10 -"
b11000001000101 #"
b11000001000101 ,"
b1 d
b11100001001000101 V
b11100001001000101 c
b1 a
b100001000110001 W
b100001000110001 `
b11111111110011101 #
b11111111110011101 4
b11111111110011101 g
b11111111110011101 s
b11111111100111001 h
b11111111100111001 V#
b11111111100111001 _#
b11111111001110000 A#
b11111111001110000 U#
b11111111001110000 J#
b11111110011011111 ,#
b11111110011011111 @#
b11111110011011111 5#
b11111100110111110 u"
b11111100110111110 +#
b11111100110111110 ~"
b11111001110000011 `"
b11111001110000011 t"
b11111001110000011 i"
b11110011101000100 K"
b11110011101000100 _"
b11110011101000100 T"
b11101000001000111 6"
b11101000001000111 J"
b11101000001000111 ?"
b11111101110011001 !"
b11111101110011001 5"
b11111101110011001 *"
b1000000000000 }
b1000000000000 3"
b1000000000000 C"
b1000000000000 '"
b1101000000000000 {
b1101000000000000 1"
b1101000000000000 @"
b1101000000000000 $"
b1001001110000 U
b1001001110000 ~
b1001001110000 ^
b11100001101011011 S
b11100001101011011 |
b11100001101011011 ."
b11100001101011011 [
b1100000100010110 Q
b1100000100010110 z
b1100000100010110 +"
b1100000100010110 X
b11000010010001011 >
b11000010010001011 R
b11000010010001011 b
b11000010010001011 F
b1000010001100011 <
b1000010001100011 P
b1000010001100011 _
b1000010001100011 C
1$
#8
b11010110010 A
b11010110010 N
b111111111010011 B
b111111111010011 K
b11010110010 =
b11010110010 M
b11010110010 +
b11010110010 7
b111111111010011 ;
b111111111010011 J
b111111111010011 *
b111111111010011 5
0$
b11 0
#9
b1 d
b11100001101101111 V
b11100001101101111 c
b1 a
b100001101000010 W
b100001101000010 `
b10 0"
b11111000110101111 ""
b11111000110101111 /"
b10 -"
b11000010000111 #"
b11000010000111 ,"
b11 E"
b11111111001110100 7"
b11111111001110100 D"
b11 B"
b1101000001000 8"
b1101000001000 A"
b100 Z"
b11111111101100000 L"
b11111111101100000 Y"
b100 W"
b110100100000 M"
b110100100000 V"
b11000011011011111 >
b11000011011011111 R
b11000011011011111 b
b11000011011011111 F
b1000011010000101 <
b1000011010000101 P
b1000011010000101 _
b1000011010000101 C
b11100011010111100 S
b11100011010111100 |
b11100011010111100 ."
b11100011010111100 [
b1100001000011110 Q
b1100001000011110 z
b1100001000011110 +"
b1100001000011110 X
b10001100111 !"
b10001100111 5"
b10001100111 *"
b11111001110100000 }
b11111001110100000 3"
b11111001110100000 C"
b11111001110100000 '"
b1101000001000000 {
b1101000001000000 1"
b1101000001000000 @"
b1101000001000000 $"
b1010111001 6"
b1010111001 J"
b1010111001 ?"
b11111011000000000 4"
b11111011000000000 H"
b11111011000000000 X"
b11111011000000000 <"
b1101001000000000 2"
b1101001000000000 F"
b1101001000000000 U"
b1101001000000000 9"
b11100110010110100 K"
b11100110010110100 _"
b11100110010110100 T"
b11110010101111010 `"
b11110010101111010 t"
b11110010101111010 i"
b11111001010011110 u"
b11111001010011110 +#
b11111001010011110 ~"
b11111100101001100 ,#
b11111100101001100 @#
b11111100101001100 5#
b11111110010100110 A#
b11111110010100110 U#
b11111110010100110 J#
b11111111001010100 h
b11111111001010100 V#
b11111111001010100 _#
b11111111100101011 #
b11111111100101011 4
b11111111100101011 g
b11111111100101011 s
1$
#10
b100011101101 A
b100011101101 N
b111111110110000 B
b111111110110000 K
b100011101101 =
b100011101101 M
b100011101101 +
b100011101101 7
b111111110110000 ;
b111111110110000 J
b111111110110000 *
b111111110110000 5
0$
b100 0
#11
b101 o"
b11001 a"
b11001 n"
b101 l"
b11010010101 b"
b11010010101 k"
b100 Z"
b11011010 L"
b11011010 Y"
b100 W"
b110100011100 M"
b110100011100 V"
b11 E"
b11111111011101000 7"
b11111111011101000 D"
b11 B"
b1101000001101 8"
b1101000001101 A"
b10 0"
b11111001010001000 ""
b11111001010001000 /"
b10 -"
b11000011000101 #"
b11000011000101 ,"
b1 d
b11100010010011110 V
b11100010010011110 c
b1 a
b100010001001110 W
b100010001001110 `
b11111111001000110 #
b11111111001000110 4
b11111111001000110 g
b11111111001000110 s
b11111110010001010 h
b11111110010001010 V#
b11111110010001010 _#
b11111100100010011 A#
b11111100100010011 U#
b11111100100010011 J#
b11111001000101100 ,#
b11111001000101100 @#
b11111001000101100 5#
b11110010010010101 u"
b11110010010010101 +#
b11110010010010101 ~"
b11100101011101010 `"
b11100101011101010 t"
b11100101011101010 i"
b11111111100100110 K"
b11111111100100110 _"
b11111111100100110 T"
b1100100000 I"
b1100100000 ]"
b1100100000 m"
b1100100000 Q"
b1101001010100000 G"
b1101001010100000 ["
b1101001010100000 j"
b1101001010100000 N"
b11111110101000111 6"
b11111110101000111 J"
b11111110101000111 ?"
b110110101000 4"
b110110101000 H"
b110110101000 X"
b110110101000 <"
b1101000111001100 2"
b1101000111001100 F"
b1101000111001100 U"
b1101000111001100 9"
b11111011101000011 }
b11111011101000011 3"
b11111011101000011 C"
b11111011101000011 '"
b1101000001101111 {
b1101000001101111 1"
b1101000001101111 @"
b1101000001101111 $"
b11100101000100001 S
b11100101000100001 |
b11100101000100001 ."
b11100101000100001 [
b1100001100010110 Q
b1100001100010110 z
b1100001100010110 +"
b1100001100010110 X
b11000100100111101 >
b11000100100111101 R
b11000100100111101 b
b11000100100111101 F
b1000100010011101 <
b1000100010011101 P
b1000100010011101 _
b1000100010011101 C
1$
#12
b101100100111 A
b101100100111 N
b111111110000011 B
b111111110000011 K
b101100100111 =
b101100100111 M
b101100100111 +
b101100100111 7
b111111110000011 ;
b111111110000011 J
b111111110000011 *
b111111110000011 5
0$
b101 0
#13
b1 d
b11100010111010010 V
b11100010111010010 c
b1 a
b100010101010101 W
b100010101010101 `
b10 0"
b11111001101100010 ""
b11111001101100010 /"
b10 -"
b11000011111111 #"
b11000011111111 ,"
b11 E"
b11111111101011100 7"
b11111111101011100 D"
b11 B"
b1101000010001 8"
b1101000010001 A"
b100 Z"
b100010101 L"
b100010101 Y"
b100 W"
b110100011000 M"
b110100011000 V"
b101 o"
b100 a"
b100 n"
b101 l"
b11010010101 b"
b11010010101 k"
b110 &#
b11111111111110010 v"
b11111111111110010 %#
b110 ##
b1101001010 w"
b1101001010 "#
b11000101110100100 >
b11000101110100100 R
b11000101110100100 b
b11000101110100100 F
b1000101010101010 <
b1000101010101010 P
b1000101010101010 _
b1000101010101010 C
b11100110110001011 S
b11100110110001011 |
b11100110110001011 ."
b11100110110001011 [
b1100001111111111 Q
b1100001111111111 z
b1100001111111111 +"
b1100001111111111 X
b11111101011100110 }
b11111101011100110 3"
b11111101011100110 C"
b11111101011100110 '"
b1101000010001110 {
b1101000010001110 1"
b1101000010001110 @"
b1101000010001110 $"
b1000101010000 4"
b1000101010000 H"
b1000101010000 X"
b1000101010000 <"
b1101000110000111 2"
b1101000110000111 F"
b1101000110000111 U"
b1101000110000111 9"
b11011010 K"
b11011010 _"
b11011010 T"
b10001100 I"
b10001100 ]"
b10001100 m"
b10001100 Q"
b1101001010100110 G"
b1101001010100110 ["
b1101001010100110 j"
b1101001010100110 N"
b11110000 `"
b11110000 t"
b11110000 i"
b11111110010001011 ^"
b11111110010001011 r"
b11111110010001011 $#
b11111110010001011 f"
b1101001010111001 \"
b1101001010111001 p"
b1101001010111001 !#
b1101001010111001 c"
b11100101000000101 u"
b11100101000000101 +#
b11100101000000101 ~"
b11110010000100011 ,#
b11110010000100011 @#
b11110010000100011 5#
b11111000111110011 A#
b11111000111110011 U#
b11111000111110011 J#
b11111100011110111 h
b11111100011110111 V#
b11111100011110111 _#
b11111110001111100 #
b11111110001111100 4
b11111110001111100 g
b11111110001111100 s
1$
#14
b110101100001 A
b110101100001 N
b111111101001100 B
b111111101001100 K
b110101100001 =
b110101100001 M
b110101100001 +
b110101100001 7
b111111101001100 ;
b111111101001100 J
b111111101001100 *
b111111101001100 5
0$
b110 0
