FPGA/HDL/cordic/out.vcd
$date
	Fri Oct 18 18:04:37 2019
$end
$version
	Icarus Verilog
$end
$timescale
	1ns
$end
$scope module tb $end
$var wire 17 ! y_o [16:0] $end
$var wire 17 " x_o [16:0] $end
$var wire 17 # theta_o [16:0] $end
$var reg 1 $ clock $end
$var reg 17 % ex [16:0] $end
$var reg 17 & ey [16:0] $end
$var reg 1 ' init $end
$var reg 1 ( reset $end
$var reg 17 ) theta_i [16:0] $end
$var reg 17 * x_i [16:0] $end
$var reg 17 + y_i [16:0] $end
$var real 1 , a_e $end
$var real 1 - a_i $end
$var real 1 . a_o $end
$var integer 32 / i [31:0] $end
$var integer 32 0 j [31:0] $end
$var real 1 1 rx $end
$var real 1 2 ry $end
$scope module UUT $end
$var wire 1 $ clk $end
$var wire 1 ' init $end
$var wire 1 ( rst $end
$var wire 17 3 theta_i [16:0] $end
$var wire 17 4 x_i [16:0] $end
$var wire 17 5 y_i [16:0] $end
$var wire 17 6 z [16:0] $end
$var wire 17 7 y_o [16:0] $end
$var wire 17 8 y [16:0] $end
$var wire 17 9 x_o [16:0] $end
$var wire 17 : x [16:0] $end
$var wire 17 ; theta_o [16:0] $end
$var reg 5 < iteration [4:0] $end
$scope function tanangle $end
$var reg 4 = i [3:0] $end
$var reg 17 > tanangle [16:0] $end
$upscope $end
$scope module U $end
$var wire 1 $ clk $end
$var wire 1 ' init $end
$var wire 4 ? iteration [3:0] $end
$var wire 1 ( rst $end
$var wire 17 @ tangle [16:0] $end
$var wire 17 A x_i [16:0] $end
$var wire 17 B x_o [16:0] $end
$var wire 17 C y_i [16:0] $end
$var wire 17 D y_o [16:0] $end
$var wire 17 E z_i [16:0] $end
$var wire 17 F z_o [16:0] $end
$var wire 17 G y_i_shifted [16:0] $end
$var wire 17 H x_i_shifted [16:0] $end
$var reg 17 I x_1 [16:0] $end
$var reg 17 J y_1 [16:0] $end
$var reg 17 K z_1 [16:0] $end
$scope module x_shifter $end
$var wire 17 L D [16:0] $end
$var wire 17 M Qout [16:0] $end
$var wire 4 N i [3:0] $end
$var integer 32 O j [31:0] $end
$upscope $end
$scope module y_shifter $end
$var wire 17 P D [16:0] $end
$var wire 17 Q Qout [16:0] $end
$var wire 4 R i [3:0] $end
$var integer 32 S j [31:0] $end
$upscope $end
$upscope $end
$upscope $end
$scope task show_results $end
$var reg 17 T ltheta [16:0] $end
$var reg 17 U lx [16:0] $end
$var reg 17 V ly [16:0] $end
$var integer 32 W j [31:0] $end
$upscope $end
$scope task show_rotate_results $end
$var reg 17 X lx [16:0] $end
$var reg 17 Y ly [16:0] $end
$var integer 32 Z j [31:0] $end
$upscope $end
$scope task show_vector_results $end
$var reg 17 [ theta [16:0] $end
$var integer 32 \ j [31:0] $end
$upscope $end
$upscope $end
$enddefinitions $end
#0
$dumpvars
bx \
bx [
bx Z
bx Y
bx X
bx W
bx V
bx U
bx T
bx S
bx R
bx Q
bx P
bx O
bx N
bx M
bx L
bx K
bx J
bx I
bx H
bx G
bx F
bx E
bx D
bx C
bx B
bx A
bx @
bx ?
bx >
bx =
bx <
bx ;
bx :
bx 9
bx 8
bx 7
bx 6
b0 5
b0 4
b0 3
r0 2
r0 1
bx 0
bx /
r0 .
r0 -
r0 ,
b0 +
b0 *
b0 )
1(
0'
bx &
bx %
0$
bx #
bx "
bx !
$end
#1
b10000 S
b10000 O
b0 6
b0 E
b0 8
b0 C
b0 P
b0 :
b0 A
b0 L
b0 #
b0 ;
b0 F
b0 K
b0 !
b0 7
b0 D
b0 J
b0 "
b0 9
b0 B
b0 I
1$
#2
b10000 O
b1000000000000000 :
b1000000000000000 A
b1000000000000000 L
1'
b1000000000000000 *
b1000000000000000 4
0(
0$
b0 0
#3
b110010010000111 @
b110010010000111 >
b0 =
b1000000000000000 H
b1000000000000000 M
b0 G
b0 Q
b0 ?
b0 N
b0 R
b0 <
b1000000000000000 "
b1000000000000000 9
b1000000000000000 B
b1000000000000000 I
1$
#4
0'
0$
b0 /
#5
b100000000000000 G
b100000000000000 Q
b10000 S
b11101101011000 @
b11101101011000 >
b1 =
b11001101101111001 6
b11001101101111001 E
b1000000000000000 8
b1000000000000000 C
b1000000000000000 P
b100000000000000 H
b100000000000000 M
b1 ?
b1 N
b1 R
b11001101101111001 #
b11001101101111001 ;
b11001101101111001 F
b11001101101111001 K
b1000000000000000 !
b1000000000000000 7
b1000000000000000 D
b1000000000000000 J
b1 <
1$
#6
0$
b1 /
#7
b1111101011011 @
b1111101011011 >
b10 =
b10000 S
b10000 O
b11000000000000 H
b11000000000000 M
b1000000000000 G
b1000000000000 Q
b10 ?
b10 N
b10 R
b11101011011010001 6
b11101011011010001 E
b100000000000000 8
b100000000000000 C
b100000000000000 P
b1100000000000000 :
b1100000000000000 A
b1100000000000000 L
b10 <
b11101011011010001 #
b11101011011010001 ;
b11101011011010001 F
b11101011011010001 K
b100000000000000 !
b100000000000000 7
b100000000000000 D
b100000000000000 J
b1100000000000000 "
b1100000000000000 9
b1100000000000000 B
b1100000000000000 I
1$
#8
0$
b10 /
#9
b10000 S
b10000 O
b111111101011 @
b111111101011 >
b11 =
b11111011000101100 6
b11111011000101100 E
b1000000000000 8
b1000000000000 C
b1000000000000 P
b1101000000000000 :
b1101000000000000 A
b1101000000000000 L
b1101000000000 H
b1101000000000 M
b1000000000 G
b1000000000 Q
b11 ?
b11 N
b11 R
b11111011000101100 #
b11111011000101100 ;
b11111011000101100 F
b11111011000101100 K
b1000000000000 !
b1000000000000 7
b1000000000000 D
b1000000000000 J
b1101000000000000 "
b1101000000000000 9
b1101000000000000 B
b1101000000000000 I
b11 <
1$
#10
0$
b11 /
#11
b11111111101 @
b11111111101 >
b100 =
b10000 S
b10000 O
b110100100000 H
b110100100000 M
b11111111101100000 G
b11111111101100000 Q
b100 ?
b100 N
b100 R
b11000010111 6
b11000010111 E
b11111011000000000 8
b11111011000000000 C
b11111011000000000 P
b1101001000000000 :
b1101001000000000 A
b1101001000000000 L
b100 <
b11000010111 #
b11000010111 ;
b11000010111 F
b11000010111 K
b11111011000000000 !
b11111011000000000 7
b11111011000000000 D
b11111011000000000 J
b1101001000000000 "
b1101001000000000 9
b1101001000000000 B
b1101001000000000 I
1$
#12
0$
b100 /
#13
b10000 S
b10000 O
b10000000000 @
b10000000000 >
b101 =
b11111111000011010 6
b11111111000011010 E
b1100100000 8
b1100100000 C
b1100100000 P
b1101001010100000 :
b1101001010100000 A
b1101001010100000 L
b11010010101 H
b11010010101 M
b11001 G
b11001 Q
b101 ?
b101 N
b101 R
b11111111000011010 #
b11111111000011010 ;
b11111111000011010 F
b11111111000011010 K
b1100100000 !
b1100100000 7
b1100100000 D
b1100100000 J
b1101001010100000 "
b1101001010100000 9
b1101001010100000 B
b1101001010100000 I
b101 <
1$
#14
0$
b101 /
#15
b1000000000 @
b1000000000 >
b110 =
b10000 S
b10000 O
b1101001010 H
b1101001010 M
b11111111111110010 G
b11111111111110010 Q
b110 ?
b110 N
b110 R
b1000011010 6
b1000011010 E
b11111110010001011 8
b11111110010001011 C
b11111110010001011 P
b1101001010111001 :
b1101001010111001 A
b1101001010111001 L
b110 <
b1000011010 #
b1000011010 ;
b1000011010 F
b1000011010 K
b11111110010001011 !
b11111110010001011 7
b11111110010001011 D
b11111110010001011 J
b1101001010111001 "
b1101001010111001 9
b1101001010111001 B
b1101001010111001 I
1$
#16
0$
b110 /
#17
b10000 S
b10000 O
b100000000 @
b100000000 >
b111 =
b11010 6
b11010 E
b11111111111010101 8
b11111111111010101 C
b11111111111010101 P
b1101001011000111 :
b1101001011000111 A
b1101001011000111 L
b110100101 H
b110100101 M
b11111111111111111 G
b11111111111111111 Q
b111 ?
b111 N
b111 R
b11010 #
b11010 ;
b11010 F
b11010 K
b11111111111010101 !
b11111111111010101 7
b11111111111010101 D
b11111111111010101 J
b1101001011000111 "
b1101001011000111 9
b1101001011000111 B
b1101001011000111 I
b111 <
1$
#18
0$
b111 /
#19
b10000000 @
b10000000 >
b1000 =
b1 G
b1 Q
b10000 S
b10000 O
b11010010 H
b11010010 M
b1000 ?
b1000 N
b1000 R
b11111111100011010 6
b11111111100011010 E
b101111010 8
b101111010 C
b101111010 P
b1101001011001000 :
b1101001011001000 A
b1101001011001000 L
b1000 <
b11111111100011010 #
b11111111100011010 ;
b11111111100011010 F
b11111111100011010 K
b101111010 !
b101111010 7
b101111010 D
b101111010 J
b1101001011001000 "
b1101001011001000 9
b1101001011001000 B
b1101001011001000 I
1$
#20
0$
b1000 /
#21
b10000 S
b10000 O
b1000000 @
b1000000 >
b1001 =
b11111111110011010 6
b11111111110011010 E
b10101000 8
b10101000 C
b10101000 P
b1101001011001001 :
b1101001011001001 A
b1101001011001001 L
b1101001 H
b1101001 M
b0 G
b0 Q
b1001 ?
b1001 N
b1001 R
b11111111110011010 #
b11111111110011010 ;
b11111111110011010 F
b11111111110011010 K
b10101000 !
b10101000 7
b10101000 D
b10101000 J
b1101001011001001 "
b1101001011001001 9
b1101001011001001 B
b1101001011001001 I
b1001 <
1$
#22
0$
b1001 /
#23
b100000 @
b100000 >
b1010 =
b10000 S
b110100 H
b110100 M
b1010 ?
b1010 N
b1010 R
b11111111111011010 6
b11111111111011010 E
b111111 8
b111111 C
b111111 P
b1010 <
b11111111111011010 #
b11111111111011010 ;
b11111111111011010 F
b11111111111011010 K
b111111 !
b111111 7
b111111 D
b111111 J
1$
#24
0$
b1010 /
#25
b10000 S
b10000 @
b10000 >
b1011 =
b11111111111111010 6
b11111111111111010 E
b1011 8
b1011 C
b1011 P
b11010 H
b11010 M
b1011 ?
b1011 N
b1011 R
b11111111111111010 #
b11111111111111010 ;
b11111111111111010 F
b11111111111111010 K
b1011 !
b1011 7
b1011 D
b1011 J
b1011 <
1$
#26
0$
b1011 /
#27
b1000 @
b1000 >
b1100 =
b11111111111111111 G
b11111111111111111 Q
b10000 S
b1101 H
b1101 M
b1100 ?
b1100 N
b1100 R
b1010 6
b1010 E
b11111111111110001 8
b11111111111110001 C
b11111111111110001 P
b1100 <
b1010 #
b1010 ;
b1010 F
b1010 K
b11111111111110001 !
b11111111111110001 7
b11111111111110001 D
b11111111111110001 J
1$
#28
0$
b1100 /
#29
b10000 S
b10000 O
b100 @
b100 >
b1101 =
b10 6
b10 E
b11111111111111110 8
b11111111111111110 C
b11111111111111110 P
b1101001011001010 :
b1101001011001010 A
b1101001011001010 L
b110 H
b110 M
b1101 ?
b1101 N
b1101 R
b10 #
b10 ;
b10 F
b10 K
b11111111111111110 !
b11111111111111110 7
b11111111111111110 D
b11111111111111110 J
b1101001011001010 "
b1101001011001010 9
b1101001011001010 B
b1101001011001010 I
b1101 <
1$
#30
0$
b1101 /
#31
b10 @
b10 >
b1110 =
b0 G
b0 Q
b10000 S
b10000 O
b11 H
b11 M
b1110 ?
b1110 N
b1110 R
b11111111111111110 6
b11111111111111110 E
b100 8
b100 C
b100 P
b1101001011001011 :
b1101001011001011 A
b1101001011001011 L
b1110 <
b11111111111111110 #
b11111111111111110 ;
b11111111111111110 F
b11111111111111110 K
b100 !
b100 7
b100 D
b100 J
b1101001011001011 "
b1101001011001011 9
b1101001011001011 B
b1101001011001011 I
1$
#32
0$
b1110 /
#33
b10000 S
b1 @
b1 >
b1111 =
b0 6
b0 E
b1 8
b1 C
b1 P
b1 H
b1 M
b1111 ?
b1111 N
b1111 R
b0 #
b0 ;
b0 F
b0 K
b1 !
b1 7
b1 D
b1 J
b1111 <
1$
#34
0$
b1111 /
#35
b110010010000111 @
b110010010000111 >
b0 =
b10000 S
b1101001011001011 H
b1101001011001011 M
b0 G
b0 Q
b0 ?
b0 N
b0 R
b1 6
b1 E
b0 8
b0 C
b0 P
b10000 <
b1 #
b1 ;
b1 F
b1 K
b0 !
b0 7
b0 D
b0 J
1$
#36
b10000 O
b111111111111011 H
b111111111111011 M
b10000 S
b1000111011 G
b1000111011 Q
b111111111111011 :
b111111111111011 A
b111111111111011 L
b1000111011 8
b1000111011 C
b1000111011 P
b0 6
b0 E
1'
b1000111011 +
b1000111011 5
b111111111111011 *
b111111111111011 4
0$
b1 0
r3.0517578125e-05 ,
r3.0517578125e-05 .
b1 [
b0 \
b1 T
b0 V
b1101001011001011 U
b0 W
b10000 /
#37
b0 #
b0 ;
b0 F
b0 K
b1000111011 !
b1000111011 7
b1000111011 D
b1000111011 J
b111111111111011 "
b111111111111011 9
b111111111111011 B
b111111111111011 I
b0 <
1$
#38
0'
0$
b0 /
#39
b11101101011000 @
b11101101011000 >
b1 =
b10000 S
b10000 O
b100000100011011 H
b100000100011011 M
b11100000100100000 G
b11100000100100000 Q
b1 ?
b1 N
b1 R
b110010010000111 6
b110010010000111 E
b11000001001000000 8
b11000001001000000 C
b11000001001000000 P
b1000001000110110 :
b1000001000110110 A
b1000001000110110 L
b1 <
b110010010000111 #
b110010010000111 ;
b110010010000111 F
b110010010000111 K
b11000001001000000 !
b11000001001000000 7
b11000001001000000 D
b11000001001000000 J
b1000001000110110 "
b1000001000110110 9
b1000001000110110 B
b1000001000110110 I
1$
#40
0$
b1 /
#41
b10000 S
b10000 O
b1111101011011 @
b1111101011011 >
b10 =
b10100100101111 6
b10100100101111 E
b11100001101011011 8
b11100001101011011 C
b11100001101011011 P
b1100000100010110 :
b1100000100010110 A
b1100000100010110 L
b11000001000101 H
b11000001000101 M
b11111000011010110 G
b11111000011010110 Q
b10 ?
b10 N
b10 R
b10100100101111 #
b10100100101111 ;
b10100100101111 F
b10100100101111 K
b11100001101011011 !
b11100001101011011 7
b11100001101011011 D
b11100001101011011 J
b1100000100010110 "
b1100000100010110 9
b1100000100010110 B
b1100000100010110 I
b10 <
1$
#42
0$
b10 /
#43
b111111101011 @
b111111101011 >
b11 =
b10000 S
b10000 O
b1101000001000 H
b1101000001000 M
b11111111001110100 G
b11111111001110100 Q
b11 ?
b11 N
b11 R
b100111010100 6
b100111010100 E
b11111001110100000 8
b11111001110100000 C
b11111001110100000 P
b1101000001000000 :
b1101000001000000 A
b1101000001000000 L
b11 <
b100111010100 #
b100111010100 ;
b100111010100 F
b100111010100 K
b11111001110100000 !
b11111001110100000 7
b11111001110100000 D
b11111001110100000 J
b1101000001000000 "
b1101000001000000 9
b1101000001000000 B
b1101000001000000 I
1$
#44
0$
b11 /
#45
b10000 S
b10000 O
b11111111101 @
b11111111101 >
b100 =
b11111100111101001 6
b11111100111101001 E
b110110101000 8
b110110101000 C
b110110101000 P
b1101000111001100 :
b1101000111001100 A
b1101000111001100 L
b110100011100 H
b110100011100 M
b11011010 G
b11011010 Q
b100 ?
b100 N
b100 R
b11111100111101001 #
b11111100111101001 ;
b11111100111101001 F
b11111100111101001 K
b110110101000 !
b110110101000 7
b110110101000 D
b110110101000 J
b1101000111001100 "
b1101000111001100 9
b1101000111001100 B
b1101000111001100 I
b100 <
1$
#46
0$
b100 /
#47
b10000000000 @
b10000000000 >
b101 =
b10000 S
b10000 O
b11010010101 H
b11010010101 M
b100 G
b100 Q
b101 ?
b101 N
b101 R
b111100110 6
b111100110 E
b10001100 8
b10001100 C
b10001100 P
b1101001010100110 :
b1101001010100110 A
b1101001010100110 L
b101 <
b111100110 #
b111100110 ;
b111100110 F
b111100110 K
b10001100 !
b10001100 7
b10001100 D
b10001100 J
b1101001010100110 "
b1101001010100110 9
b1101001010100110 B
b1101001010100110 I
1$
#48
0$
b101 /
#49
b10000 S
b10000 O
b1000000000 @
b1000000000 >
b110 =
b10111100110 6
b10111100110 E
b11111100111110111 8
b11111100111110111 C
b11111100111110111 P
b1101001010101010 :
b1101001010101010 A
b1101001010101010 L
b1101001010 H
b1101001010 M
b11111111111100111 G
b11111111111100111 Q
b110 ?
b110 N
b110 R
b10111100110 #
b10111100110 ;
b10111100110 F
b10111100110 K
b11111100111110111 !
b11111100111110111 7
b11111100111110111 D
b11111100111110111 J
b1101001010101010 "
b1101001010101010 9
b1101001010101010 B
b1101001010101010 I
b110 <
1$
#50
0$
b110 /
#51
b100000000 @
b100000000 >
b111 =
b10000 S
b10000 O
b110100101 H
b110100101 M
b11111111111111010 G
b11111111111111010 Q
b111 ?
b111 N
b111 R
b1111100110 6
b1111100110 E
b11111110101000001 8
b11111110101000001 C
b11111110101000001 P
b1101001011000011 :
b1101001011000011 A
b1101001011000011 L
b111 <
b1111100110 #
b1111100110 ;
b1111100110 F
b1111100110 K
b11111110101000001 !
b11111110101000001 7
b11111110101000001 D
b11111110101000001 J
b1101001011000011 "
b1101001011000011 9
b1101001011000011 B
b1101001011000011 I
1$
#52
0$
b111 /
#53
b10000 S
b10000 O
b10000000 @
b10000000 >
b1000 =
b1011100110 6
b1011100110 E
b11111111011100110 8
b11111111011100110 C
b11111111011100110 P
b1101001011001001 :
b1101001011001001 A
b1101001011001001 L
b11010010 H
b11010010 M
b11111111111111110 G
b11111111111111110 Q
b1000 ?
b1000 N
b1000 R
b1011100110 #
b1011100110 ;
b1011100110 F
b1011100110 K
b11111111011100110 !
b11111111011100110 7
b11111111011100110 D
b11111111011100110 J
b1101001011001001 "
b1101001011001001 9
b1101001011001001 B
b1101001011001001 I
b1000 <
1$
#54
0$
b1000 /
#55
b1000000 @
b1000000 >
b1001 =
b10000 S
b10000 O
b1101001 H
b1101001 M
b11111111111111111 G
b11111111111111111 Q
b1001 ?
b1001 N
b1001 R
b1001100110 6
b1001100110 E
b11111111110111000 8
b11111111110111000 C
b11111111110111000 P
b1101001011001011 :
b1101001011001011 A
b1101001011001011 L
b1001 <
b1001100110 #
b1001100110 ;
b1001100110 F
b1001100110 K
b11111111110111000 !
b11111111110111000 7
b11111111110111000 D
b11111111110111000 J
b1101001011001011 "
b1101001011001011 9
b1101001011001011 B
b1101001011001011 I
1$
#56
0$
b1001 /
#57
b0 G
b0 Q
b10000 S
b10000 O
b100000 @
b100000 >
b1010 =
b1000100110 6
b1000100110 E
b100001 8
b100001 C
b100001 P
b1101001011001100 :
b1101001011001100 A
b1101001011001100 L
b110100 H
b110100 M
b1010 ?
b1010 N
b1010 R
b1000100110 #
b1000100110 ;
b1000100110 F
b1000100110 K
b100001 !
b100001 7
b100001 D
b100001 J
b1101001011001100 "
b1101001011001100 9
b1101001011001100 B
b1101001011001100 I
b1010 <
1$
#58
0$
b1010 /
#59
b10000 @
b10000 >
b1011 =
b11111111111111111 G
b11111111111111111 Q
b10000 S
b11010 H
b11010 M
b1011 ?
b1011 N
b1011 R
b1001000110 6
b1001000110 E
b11111111111101101 8
b11111111111101101 C
b11111111111101101 P
b1011 <
b1001000110 #
b1001000110 ;
b1001000110 F
b1001000110 K
b11111111111101101 !
b11111111111101101 7
b11111111111101101 D
b11111111111101101 J
1$
#60
0$
b1011 /
#61
b0 G
b0 Q
b10000 S
b10000 O
b1000 @
b1000 >
b1100 =
b1000110110 6
b1000110110 E
b111 8
b111 C
b111 P
b1101001011001101 :
b1101001011001101 A
b1101001011001101 L
b1101 H
b1101 M
b1100 ?
b1100 N
b1100 R
b1000110110 #
b1000110110 ;
b1000110110 F
b1000110110 K
b111 !
b111 7
b111 D
b111 J
b1101001011001101 "
b1101001011001101 9
b1101001011001101 B
b1101001011001101 I
b1100 <
1$
#62
0$
b1100 /
#63
b100 @
b100 >
b1101 =
b11111111111111111 G
b11111111111111111 Q
b10000 S
b110 H
b110 M
b1101 ?
b1101 N
b1101 R
b1000111110 6
b1000111110 E
b11111111111111010 8
b11111111111111010 C
b11111111111111010 P
b1101 <
b1000111110 #
b1000111110 ;
b1000111110 F
b1000111110 K
b11111111111111010 !
b11111111111111010 7
b11111111111111010 D
b11111111111111010 J
1$
#64
0$
b1101 /
#65
b0 G
b0 Q
b10000 S
b10000 O
b10 @
b10 >
b1110 =
b1000111010 6
b1000111010 E
b0 8
b0 C
b0 P
b1101001011001110 :
b1101001011001110 A
b1101001011001110 L
b11 H
b11 M
b1110 ?
b1110 N
b1110 R
b1000111010 #
b1000111010 ;
b1000111010 F
b1000111010 K
b0 !
b0 7
b0 D
b0 J
b1101001011001110 "
b1101001011001110 9
b1101001011001110 B
b1101001011001110 I
b1110 <
1$
#66
0$
b1110 /
#67
b1 @
b1 >
b1111 =
b10000 S
b1 H
b1 M
b1111 ?
b1111 N
b1111 R
b1000111000 6
b1000111000 E
b11 8
b11 C
b11 P
b1111 <
b1000111000 #
b1000111000 ;
b1000111000 F
b1000111000 K
b11 !
b11 7
b11 D
b11 J
1$
#68
0$
b1111 /
#69
b10000 S
b110010010000111 @
b110010010000111 >
b0 =
b1000111001 6
b1000111001 E
b10 8
b10 C
b10 P
b1101001011001110 H
b1101001011001110 M
b10 G
b10 Q
b0 ?
b0 N
b0 R
b1000111001 #
b1000111001 ;
b1000111001 F
b1000111001 K
b10 !
b10 7
b10 D
b10 J
b10000 <
1$
#70
b10000 O
b111111111101100 H
b111111111101100 M
b10000 S
b10001110111 G
b10001110111 Q
b111111111101100 :
b111111111101100 A
b111111111101100 L
b10001110111 8
b10001110111 C
b10001110111 P
b0 6
b0 E
1'
b10001110111 +
b10001110111 5
b111111111101100 *
b111111111101100 4
0$
b10 0
r7.994249131944645e-05 ,
r0.017364501953125 .
r0.01744444444444445 -
b1000111001 [
b1 \
b1000111001 T
b10 V
b1101001011001110 U
b1 W
b10000 /
#71
b0 <
b0 #
b0 ;
b0 F
b0 K
b10001110111 !
b10001110111 7
b10001110111 D
b10001110111 J
b111111111101100 "
b111111111101100 9
b111111111101100 B
b111111111101100 I
1$
#72
0'
0$
b0 /
#73
b10000 S
b10000 O
b11101101011000 @
b11101101011000 >
b1 =
b110010010000111 6
b110010010000111 E
b11000010010001011 8
b11000010010001011 C
b11000010010001011 P
b1000010001100011 :
b1000010001100011 A
b1000010001100011 L
b100001000110001 H
b100001000110001 M
b11100001001000101 G
b11100001001000101 Q
b1 ?
b1 N
b1 R
b110010010000111 #
b110010010000111 ;
b110010010000111 F
b110010010000111 K
b11000010010001011 !
b11000010010001011 7
b11000010010001011 D
b11000010010001011 J
b1000010001100011 "
b1000010001100011 9
b1000010001100011 B
b1000010001100011 I
b1 <
1$
#74
0$
b1 /
#75
b1111101011011 @
b1111101011011 >
b10 =
b10000 S
b10000 O
b11000010000111 H
b11000010000111 M
b11111000110101111 G
b11111000110101111 Q
b10 ?
b10 N
b10 R
b10100100101111 6
b10100100101111 E
b11100011010111100 8
b11100011010111100 C
b11100011010111100 P
b1100001000011110 :
b1100001000011110 A
b1100001000011110 L
b10 <
b10100100101111 #
b10100100101111 ;
b10100100101111 F
b10100100101111 K
b11100011010111100 !
b11100011010111100 7
b11100011010111100 D
b11100011010111100 J
b1100001000011110 "
b1100001000011110 9
b1100001000011110 B
b1100001000011110 I
1$
#76
0$
b10 /
#77
b10000 S
b10000 O
b111111101011 @
b111111101011 >
b11 =
b100111010100 6
b100111010100 E
b11111011101000011 8
b11111011101000011 C
b11111011101000011 P
b1101000001101111 :
b1101000001101111 A
b1101000001101111 L
b1101000001101 H
b1101000001101 M
b11111111011101000 G
b11111111011101000 Q
b11 ?
b11 N
b11 R
b100111010100 #
b100111010100 ;
b100111010100 F
b100111010100 K
b11111011101000011 !
b11111011101000011 7
b11111011101000011 D
b11111011101000011 J
b1101000001101111 "
b1101000001101111 9
b1101000001101111 B
b1101000001101111 I
b11 <
1$
#78
0$
b11 /
#79
b11111111101 @
b11111111101 >
b100 =
b10000 S
b10000 O
b110100011000 H
b110100011000 M
b100010101 G
b100010101 Q
b100 ?
b100 N
b100 R
b11111100111101001 6
b11111100111101001 E
b1000101010000 8
b1000101010000 C
b1000101010000 P
b1101000110000111 :
b1101000110000111 A
b1101000110000111 L
b100 <
b11111100111101001 #
b11111100111101001 ;
b11111100111101001 F
b11111100111101001 K
b1000101010000 !
b1000101010000 7
b1000101010000 D
b1000101010000 J
b1101000110000111 "
b1101000110000111 9
b1101000110000111 B
b1101000110000111 I
1$
#80
0$
b100 /
#81
b10000 S
b10000 O
b10000000000 @
b10000000000 >
b101 =
b111100110 6
b111100110 E
b10000111000 8
b10000111000 C
b10000111000 P
b1101001010011100 :
b1101001010011100 A
b1101001010011100 L
b11010010100 H
b11010010100 M
b100001 G
b100001 Q
b101 ?
b101 N
b101 R
b111100110 #
b111100110 ;
b111100110 F
b111100110 K
b10000111000 !
b10000111000 7
b10000111000 D
b10000111000 J
b1101001010011100 "
b1101001010011100 9
b1101001010011100 B
b1101001010011100 I
b101 <
1$
#82
0$
b101 /
#83
b1000000000 @
b1000000000 >
b110 =
b10000 S
b10000 O
b1101001010 H
b1101001010 M
b11111111111110110 G
b11111111111110110 Q
b110 ?
b110 N
b110 R
b10111100110 6
b10111100110 E
b11111110110100100 8
b11111110110100100 C
b11111110110100100 P
b1101001010111101 :
b1101001010111101 A
b1101001010111101 L
b110 <
b10111100110 #
b10111100110 ;
b10111100110 F
b10111100110 K
b11111110110100100 !
b11111110110100100 7
b11111110110100100 D
b11111110110100100 J
b1101001010111101 "
b1101001010111101 9
b1101001010111101 B
b1101001010111101 I
1$
#84
0$
b110 /
#85
b10000 S
b10000 O
b100000000 @
b100000000 >
b111 =
b1111100110 6
b1111100110 E
b11101110 8
b11101110 C
b11101110 P
b1101001011000111 :
b1101001011000111 A
b1101001011000111 L
b110100101 H
b110100101 M
b1 G
b1 Q
b111 ?
b111 N
b111 R
b1111100110 #
b1111100110 ;
b1111100110 F
b1111100110 K
b11101110 !
b11101110 7
b11101110 D
b11101110 J
b1101001011000111 "
b1101001011000111 9
b1101001011000111 B
b1101001011000111 I
b111 <
1$
#86
0$
b111 /
#87
b10000000 @
b10000000 >
b1000 =
b10000 S
b10000 O
b11010010 H
b11010010 M
b11111111111111111 G
b11111111111111111 Q
b1000 ?
b1000 N
b1000 R
b10011100110 6
b10011100110 E
b11111111101001001 8
b11111111101001001 C
b11111111101001001 P
b1101001011001000 :
b1101001011001000 A
b1101001011001000 L
b1000 <
b10011100110 #
b10011100110 ;
b10011100110 F
b10011100110 K
b11111111101001001 !
b11111111101001001 7
b11111111101001001 D
b11111111101001001 J
b1101001011001000 "
b1101001011001000 9
b1101001011001000 B
b1101001011001000 I
1$
#88
0$
b1000 /
#89
b0 G
b0 Q
b10000 S
b10000 O
b1000000 @
b1000000 >
b1001 =
b10001100110 6
b10001100110 E
b11011 8
b11011 C
b11011 P
b1101001011001001 :
b1101001011001001 A
b1101001011001001 L
b1101001 H
b1101001 M
b1001 ?
b1001 N
b1001 R
b10001100110 #
b10001100110 ;
b10001100110 F
b10001100110 K
b11011 !
b11011 7
b11011 D
b11011 J
b1101001011001001 "
b1101001011001001 9
b1101001011001001 B
b1101001011001001 I
b1001 <
1$
#90
0$
b1001 /
#91
b100000 @
b100000 >
b1010 =
b11111111111111111 G
b11111111111111111 Q
b10000 S
b110100 H
b110100 M
b1010 ?
b1010 N
b1010 R
b10010100110 6
b10010100110 E
b11111111110110010 8
b11111111110110010 C
b11111111110110010 P
b1010 <
b10010100110 #
b10010100110 ;
b10010100110 F
b10010100110 K
b11111111110110010 !
b11111111110110010 7
b11111111110110010 D
b11111111110110010 J
1$
#92
0$
b1010 /
#93
b10000 S
b10000 O
b10000 @
b10000 >
b1011 =
b10010000110 6
b10010000110 E
b11111111111100110 8
b11111111111100110 C
b11111111111100110 P
b1101001011001010 :
b1101001011001010 A
b1101001011001010 L
b11010 H
b11010 M
b1011 ?
b1011 N
b1011 R
b10010000110 #
b10010000110 ;
b10010000110 F
b10010000110 K
b11111111111100110 !
b11111111111100110 7
b11111111111100110 D
b11111111111100110 J
b1101001011001010 "
b1101001011001010 9
b1101001011001010 B
b1101001011001010 I
b1011 <
1$
#94
0$
b1011 /
#95
b1000 @
b1000 >
b1100 =
b0 G
b0 Q
b10000 S
b10000 O
b1101 H
b1101 M
b1100 ?
b1100 N
b1100 R
b10001110110 6
b10001110110 E
b0 8
b0 C
b0 P
b1101001011001011 :
b1101001011001011 A
b1101001011001011 L
b1100 <
b10001110110 #
b10001110110 ;
b10001110110 F
b10001110110 K
b0 !
b0 7
b0 D
b0 J
b1101001011001011 "
b1101001011001011 9
b1101001011001011 B
b1101001011001011 I
1$
#96
0$
b1100 /
#97
b10000 S
b100 @
b100 >
b1101 =
b10001101110 6
b10001101110 E
b1101 8
b1101 C
b1101 P
b110 H
b110 M
b1101 ?
b1101 N
b1101 R
b10001101110 #
b10001101110 ;
b10001101110 F
b10001101110 K
b1101 !
b1101 7
b1101 D
b1101 J
b1101 <
1$
#98
0$
b1101 /
#99
b10 @
b10 >
b1110 =
b10000 S
b11 H
b11 M
b1110 ?
b1110 N
b1110 R
b10001110010 6
b10001110010 E
b111 8
b111 C
b111 P
b1110 <
b10001110010 #
b10001110010 ;
b10001110010 F
b10001110010 K
b111 !
b111 7
b111 D
b111 J
1$
#100
0$
b1110 /
#101
b10000 S
b1 @
b1 >
b1111 =
b10001110100 6
b10001110100 E
b100 8
b100 C
b100 P
b1 H
b1 M
b1111 ?
b1111 N
b1111 R
b10001110100 #
b10001110100 ;
b10001110100 F
b10001110100 K
b100 !
b100 7
b100 D
b100 J
b1111 <
1$
#102
0$
b1111 /
#103
b110010010000111 @
b110010010000111 >
b0 =
b10000 S
b1101001011001011 H
b1101001011001011 M
b11 G
b11 Q
b0 ?
b0 N
b0 R
b10001110101 6
b10001110101 E
b11 8
b11 C
b11 P
b10000 <
b10001110101 #
b10001110101 ;
b10001110101 F
b10001110101 K
b11 !
b11 7
b11 D
b11 J
1$
