FPGA/HDL/out.vcd
$date
	Mon Sep  2 11:04:58 2019
$end
$version
	Icarus Verilog
$end
$timescale
	1ps
$end
$scope module top_tb $end
$var wire 8 ! HC [7:0] $end
$var wire 1 " v $end
$var wire 1 # ss $end
$var wire 1 $ sck $end
$var wire 1 % mosi $end
$var wire 1 & R $end
$var wire 4 ' HB [3:0] $end
$var wire 1 ( G $end
$var wire 1 ) B $end
$var reg 1 * CLK $end
$var reg 4 + S [3:0] $end
$var reg 1 , miso $end
$scope module top_test $end
$var wire 1 * CLK12 $end
$var wire 8 - HC [7:0] $end
$var wire 4 . S [3:0] $end
$var wire 1 / clk $end
$var wire 1 0 internalpllclk $end
$var wire 1 1 lock $end
$var wire 1 , miso $end
$var wire 1 " v $end
$var wire 1 2 wen_w $end
$var wire 1 3 wen $end
$var wire 16 4 wdata [15:0] $end
$var wire 1 # ss $end
$var wire 16 5 sin [15:0] $end
$var wire 1 $ sck $end
$var wire 1 6 pulse_out2 $end
$var wire 1 7 pulse_out1 $end
$var wire 18 8 pllphase [17:0] $end
$var wire 1 % mosi $end
$var wire 1 9 islocked $end
$var wire 16 : dout [15:0] $end
$var wire 16 ; cos [15:0] $end
$var wire 1 < busy $end
$var wire 16 = addr_w [15:0] $end
$var wire 16 > addr_r [15:0] $end
$var wire 16 ? addr [15:0] $end
$var wire 1 & R $end
$var wire 4 @ HB [3:0] $end
$var wire 1 ( G $end
$var wire 1 ) B $end
$var reg 32 A count [31:0] $end
$var reg 1 B loadlookup $end
$var reg 1 C rst $end
$var reg 18 D sweep [17:0] $end
$scope module DAC1 $end
$var wire 1 / clk $end
$var wire 16 E dac_val [15:0] $end
$var wire 1 7 pulse_out $end
$var reg 17 F acc [16:0] $end
$upscope $end
$scope module DAC2 $end
$var wire 1 / clk $end
$var wire 16 G dac_val [15:0] $end
$var wire 1 6 pulse_out $end
$var reg 17 H acc [16:0] $end
$upscope $end
$scope module F2SRAM $end
$var wire 1 * clk $end
$var wire 1 , miso $end
$var wire 1 C rst $end
$var wire 1 B start $end
$var wire 1 # ss $end
$var wire 1 I spi_valid $end
$var wire 1 J spi_rdy $end
$var wire 8 K spi_data [7:0] $end
$var wire 1 $ sck $end
$var wire 1 % mosi $end
$var reg 16 L addr [15:0] $end
$var reg 1 < busy $end
$var reg 8 M f_byte [7:0] $end
$var reg 1 N laststart $end
$var reg 16 O poscount [15:0] $end
$var reg 1 P second $end
$var reg 24 Q spi_addr [23:0] $end
$var reg 1 R spi_go $end
$var reg 17 S spi_len [16:0] $end
$var reg 16 T wdata [15:0] $end
$var reg 1 2 wen $end
$scope module SPI_READER $end
$var wire 24 U addr [23:0] $end
$var wire 1 * clk $end
$var wire 1 R go $end
$var wire 1 V io_clk $end
$var wire 1 W io_cs_n $end
$var wire 17 X len [16:0] $end
$var wire 1 J rdy $end
$var wire 1 C rst $end
$var wire 1 , spi_miso $end
$var wire 1 I valid $end
$var wire 1 % spi_mosi $end
$var wire 1 # spi_cs_n $end
$var wire 1 $ spi_clk $end
$var wire 1 Y io_mosi $end
$var wire 1 Z io_miso $end
$var wire 8 [ data [7:0] $end
$var wire 1 \ cnt_len_last $end
$var wire 1 ] cnt_cmd_last $end
$var reg 3 ^ cnt_bit [2:0] $end
$var reg 1 _ cnt_bit_last $end
$var reg 2 ` cnt_cmd [1:0] $end
$var reg 18 a cnt_len [17:0] $end
$var reg 2 b fsm_state [1:0] $end
$var reg 2 c fsm_state_next [1:0] $end
$var reg 1 d rdy_i $end
$var reg 32 e shift_reg [31:0] $end
$var reg 1 f valid_i $end
$scope module iob_clk_I $end
$var wire 1 g CLOCK_ENABLE $end
$var wire 1 h D_IN_0 $end
$var wire 1 i D_IN_1 $end
$var wire 1 V D_OUT_0 $end
$var wire 1 j D_OUT_1 $end
$var wire 1 k INPUT_CLK $end
$var wire 1 l LATCH_INPUT_VALUE $end
$var wire 1 * OUTPUT_CLK $end
$var wire 1 m OUTPUT_ENABLE $end
$var wire 1 n clken_pulled $end
$var wire 1 $ PACKAGE_PIN $end
$var reg 1 o clken_pulled_ri $end
$var reg 1 p clken_pulled_ro $end
$var reg 1 q din_0 $end
$var reg 1 r din_1 $end
$var reg 1 s din_q_0 $end
$var reg 1 t din_q_1 $end
$var reg 1 u dout $end
$var reg 1 v dout_q_0 $end
$var reg 1 w dout_q_1 $end
$var reg 1 x outclk_delayed_1 $end
$var reg 1 y outclk_delayed_2 $end
$var reg 1 z outena_q $end
$scope begin genblk1 $end
$upscope $end
$scope begin genblk3 $end
$upscope $end
$upscope $end
$scope module iob_cs_n_I $end
$var wire 1 { CLOCK_ENABLE $end
$var wire 1 | D_IN_0 $end
$var wire 1 } D_IN_1 $end
$var wire 1 W D_OUT_0 $end
$var wire 1 W D_OUT_1 $end
$var wire 1 ~ INPUT_CLK $end
$var wire 1 !" LATCH_INPUT_VALUE $end
$var wire 1 * OUTPUT_CLK $end
$var wire 1 "" OUTPUT_ENABLE $end
$var wire 1 #" clken_pulled $end
$var wire 1 # PACKAGE_PIN $end
$var reg 1 $" clken_pulled_ri $end
$var reg 1 %" clken_pulled_ro $end
$var reg 1 &" din_0 $end
$var reg 1 '" din_1 $end
$var reg 1 (" din_q_0 $end
$var reg 1 )" din_q_1 $end
$var reg 1 *" dout $end
$var reg 1 +" dout_q_0 $end
$var reg 1 ," dout_q_1 $end
$var reg 1 -" outclk_delayed_1 $end
$var reg 1 ." outclk_delayed_2 $end
$var reg 1 /" outena_q $end
$scope begin genblk1 $end
$upscope $end
$scope begin genblk3 $end
$upscope $end
$upscope $end
$scope module iob_miso_I $end
$var wire 1 0" CLOCK_ENABLE $end
$var wire 1 1" D_IN_1 $end
$var wire 1 2" D_OUT_0 $end
$var wire 1 3" D_OUT_1 $end
$var wire 1 * INPUT_CLK $end
$var wire 1 4" LATCH_INPUT_VALUE $end
$var wire 1 5" OUTPUT_CLK $end
$var wire 1 6" OUTPUT_ENABLE $end
$var wire 1 , PACKAGE_PIN $end
$var wire 1 7" clken_pulled $end
$var wire 1 Z D_IN_0 $end
$var reg 1 8" clken_pulled_ri $end
$var reg 1 9" clken_pulled_ro $end
$var reg 1 Z din_0 $end
$var reg 1 :" din_1 $end
$var reg 1 ;" din_q_0 $end
$var reg 1 <" din_q_1 $end
$var reg 1 =" dout $end
$var reg 1 >" dout_q_0 $end
$var reg 1 ?" dout_q_1 $end
$var reg 1 @" outclk_delayed_1 $end
$var reg 1 A" outclk_delayed_2 $end
$var reg 1 B" outena_q $end
$scope begin genblk1 $end
$upscope $end
$upscope $end
$scope module iob_mosi_I $end
$var wire 1 C" CLOCK_ENABLE $end
$var wire 1 D" D_IN_0 $end
$var wire 1 E" D_IN_1 $end
$var wire 1 Y D_OUT_0 $end
$var wire 1 Y D_OUT_1 $end
$var wire 1 F" INPUT_CLK $end
$var wire 1 G" LATCH_INPUT_VALUE $end
$var wire 1 * OUTPUT_CLK $end
$var wire 1 H" OUTPUT_ENABLE $end
$var wire 1 I" clken_pulled $end
$var wire 1 % PACKAGE_PIN $end
$var reg 1 J" clken_pulled_ri $end
$var reg 1 K" clken_pulled_ro $end
$var reg 1 L" din_0 $end
$var reg 1 M" din_1 $end
$var reg 1 N" din_q_0 $end
$var reg 1 O" din_q_1 $end
$var reg 1 P" dout $end
$var reg 1 Q" dout_q_0 $end
$var reg 1 R" dout_q_1 $end
$var reg 1 S" outclk_delayed_1 $end
$var reg 1 T" outclk_delayed_2 $end
$var reg 1 U" outena_q $end
$scope begin genblk1 $end
$upscope $end
$scope begin genblk3 $end
$upscope $end
$upscope $end
$upscope $end
$upscope $end
$scope module PLL $end
$var wire 1 V" BYPASS $end
$var wire 8 W" DYNAMICDELAY [7:0] $end
$var wire 1 X" EXTFEEDBACK $end
$var wire 1 Y" LATCHINPUTVALUE $end
$var wire 1 1 LOCK $end
$var wire 1 0 PLLOUTCORE $end
$var wire 1 Z" PLLOUTGLOBAL $end
$var wire 1 * REFERENCECLK $end
$var wire 1 [" RESETB $end
$var wire 1 \" SCLK $end
$var wire 1 ]" SDI $end
$var wire 1 ^" SDO $end
$upscope $end
$scope module SRAM $end
$var wire 16 _" addr [15:0] $end
$var wire 1 / clk $end
$var wire 16 `" wdata [15:0] $end
$var wire 1 3 wen $end
$var wire 16 a" rdata_3 [15:0] $end
$var wire 16 b" rdata_2 [15:0] $end
$var wire 16 c" rdata_1 [15:0] $end
$var wire 16 d" rdata_0 [15:0] $end
$var wire 16 e" rdata [15:0] $end
$scope module ram00 $end
$var wire 14 f" ADDRESS [13:0] $end
$var wire 1 g" CHIPSELECT $end
$var wire 1 / CLOCK $end
$var wire 16 h" DATAIN [15:0] $end
$var wire 4 i" MASKWREN [3:0] $end
$var wire 1 j" POWEROFF $end
$var wire 1 k" SLEEP $end
$var wire 1 l" STANDBY $end
$var wire 1 3 WREN $end
$var wire 1 m" off $end
$var reg 16 n" DATAOUT [15:0] $end
$var integer 32 o" i [31:0] $end
$upscope $end
$scope module ram01 $end
$var wire 14 p" ADDRESS [13:0] $end
$var wire 1 q" CHIPSELECT $end
$var wire 1 / CLOCK $end
$var wire 16 r" DATAIN [15:0] $end
$var wire 4 s" MASKWREN [3:0] $end
$var wire 1 t" POWEROFF $end
$var wire 1 u" SLEEP $end
$var wire 1 v" STANDBY $end
$var wire 1 3 WREN $end
$var wire 1 w" off $end
$var reg 16 x" DATAOUT [15:0] $end
$var integer 32 y" i [31:0] $end
$upscope $end
$scope module ram10 $end
$var wire 14 z" ADDRESS [13:0] $end
$var wire 1 {" CHIPSELECT $end
$var wire 1 / CLOCK $end
$var wire 16 |" DATAIN [15:0] $end
$var wire 4 }" MASKWREN [3:0] $end
$var wire 1 ~" POWEROFF $end
$var wire 1 !# SLEEP $end
$var wire 1 "# STANDBY $end
$var wire 1 3 WREN $end
$var wire 1 ## off $end
$var reg 16 $# DATAOUT [15:0] $end
$var integer 32 %# i [31:0] $end
$upscope $end
$scope module ram11 $end
$var wire 14 &# ADDRESS [13:0] $end
$var wire 1 '# CHIPSELECT $end
$var wire 1 / CLOCK $end
$var wire 16 (# DATAIN [15:0] $end
$var wire 4 )# MASKWREN [3:0] $end
$var wire 1 *# POWEROFF $end
$var wire 1 +# SLEEP $end
$var wire 1 ,# STANDBY $end
$var wire 1 3 WREN $end
$var wire 1 -# off $end
$var reg 16 .# DATAOUT [15:0] $end
$var integer 32 /# i [31:0] $end
$upscope $end
$upscope $end
$scope module dds_core $end
$var wire 1 / clk $end
$var wire 16 0# data [15:0] $end
$var wire 1 1# go $end
$var wire 18 2# phase [17:0] $end
$var reg 16 3# addr [15:0] $end
$var reg 16 4# cos [15:0] $end
$var reg 1 5# iscos $end
$var reg 1 6# islast $end
$var reg 1 7# lastgo $end
$var reg 16 8# sin [15:0] $end
$upscope $end
$scope module pll1 $end
$var wire 1 / clk $end
$var wire 1 " in $end
$var wire 18 9# phase_out [17:0] $end
$var reg 16 :# incr [15:0] $end
$var reg 1 ;# l_in $end
$var reg 1 9 locked $end
$var reg 32 <# phase [31:0] $end
$upscope $end
$upscope $end
$upscope $end
$enddefinitions $end
#0
$dumpvars
b0 <#
0;#
b1000101100 :#
b0 9#
bx 8#
07#
06#
05#
bx 4#
bx 3#
b0 2#
01#
bx 0#
bx /#
bx .#
0-#
0,#
0+#
1*#
b1111 )#
b0 (#
x'#
bx &#
bx %#
bx $#
0##
0"#
0!#
1~"
b1111 }"
b0 |"
x{"
bx z"
bx y"
bx x"
0w"
0v"
0u"
1t"
b1111 s"
b0 r"
xq"
bx p"
bx o"
bx n"
0m"
0l"
0k"
1j"
b1111 i"
b0 h"
xg"
bx f"
bx e"
bx d"
bx c"
bx b"
bx a"
b0 `"
bx _"
z^"
z]"
z\"
1["
zZ"
zY"
zX"
bz W"
0V"
xU"
0T"
0S"
xR"
xQ"
xP"
xO"
xN"
xM"
xL"
xK"
xJ"
1I"
zH"
zG"
zF"
xE"
xD"
1C"
xB"
zA"
z@"
x?"
x>"
x="
x<"
x;"
x:"
x9"
x8"
17"
z6"
z5"
z4"
z3"
z2"
x1"
10"
x/"
0."
0-"
x,"
x+"
x*"
x)"
x("
x'"
x&"
x%"
x$"
1#"
z""
z!"
z~
x}
x|
1{
xz
0y
0x
xw
xv
xu
xt
xs
xr
xq
xp
xo
1n
zm
zl
zk
0j
xi
xh
1g
xf
bx e
xd
bx c
bx b
bx a
bx `
x_
bx ^
x]
x\
bx [
xZ
0Y
b11111111111111111 X
1W
0V
b0 U
b0 T
b11111111111111111 S
0R
b0 Q
0P
b0 O
0N
bx M
b0 L
bx K
xJ
xI
b0 H
b0xxxxxxxxxxxxxxx G
b0 F
b0xxxxxxxxxxxxxxx E
b0 D
0C
0B
b0 A
b0zz0 @
bx ?
bx >
b0 =
0<
bx ;
bx :
09
b0 8
07
06
bx 5
b0 4
03
02
z1
z0
0/
b0 .
bz -
0,
b0 +
0*
x)
1(
b0zz0 '
1&
x%
x$
x#
z"
bz !
$end
#1000
0D"
0L"
1|
1&"
0h
0q
0%
0P"
1#
1*"
0$
0u
1T"
1."
1y
bxzzx '
bxzzx @
x7
x6
b1000 8
b1000 2#
b1000 9#
0Z
b0 c
b0 K
b0 [
bx F
bx H
z;#
b1000101100 <#
b1 A
1C
1S"
1-"
1x
1K"
0Q"
zU"
18"
0;"
1%"
1+"
z/"
1p
0v
zz
b0 b
b10101011000000000000000000000000 e
b0 ^
0J
0d
1/
1*
#2000
0y
0."
0T"
01"
0:"
0x
0-"
0S"
0w
1,"
0<"
0R"
0/
0*
#3000
1T"
1."
1y
b10001 8
b10001 2#
b10001 9#
b10 A
b10001011000 <#
1S"
1-"
1x
0I
0f
1J
1d
b1010110000000000000000000000000 e
1/
1*
#4000
0y
0."
0T"
0x
0-"
0S"
0/
0*
#5000
1T"
1."
1y
b11010 8
b11010 2#
b11010 9#
b11010000100 <#
b11 A
1S"
1-"
1x
b10101100000000000000000000000000 e
1/
1*
#6000
0y
0."
0T"
0x
0-"
0S"
0/
0*
#7000
1T"
1."
1y
11#
b100010 8
b100010 2#
b100010 9#
b100 A
b100010110000 <#
1S"
1-"
1x
b1011000000000000000000000000000 e
1/
1*
#8000
0y
0."
0T"
0x
0-"
0S"
0/
0*
#9000
1T"
1."
1y
1g"
0q"
0{"
0'#
b100010 f"
b100010 p"
b100010 z"
b100010 &#
b100010 ?
b100010 _"
b101011 8
b101011 2#
b101011 9#
b100010 >
b100010 3#
15#
17#
b101011011100 <#
b101 A
1S"
1-"
1x
b10110000000000000000000000000000 e
1/
1*
#10000
0y
0."
0T"
0x
0-"
0S"
0/
0*
b11 +
b11 .
#11000
1T"
1."
1y
0g"
1'#
b11111111010100 f"
b11111111010100 p"
b11111111010100 z"
b11111111010100 &#
b1111111111010100 ?
b1111111111010100 _"
b110100 8
b110100 2#
b110100 9#
b110 A
b110100001000 <#
b1111111111010100 >
b1111111111010100 3#
05#
16#
1S"
1-"
1x
b1100000000000000000000000000000 e
1/
1*
#12000
0y
0."
0T"
0x
0-"
0S"
0/
0*
#13000
1T"
1."
1y
b111100 8
b111100 2#
b111100 9#
06#
b111100110100 <#
b111 A
1S"
1-"
1x
b11000000000000000000000000000000 e
1/
1*
#14000
0y
0."
0T"
0x
0-"
0S"
0/
0*
#15000
1T"
1."
1y
01#
b1000101 8
b1000101 2#
b1000101 9#
b1000 A
b1000101100000 <#
1S"
1-"
1x
b10000000000000000000000000000000 e
1/
1*
#16000
0y
0."
0T"
0x
0-"
0S"
0/
0*
#17000
1T"
1."
1y
b1001110 8
b1001110 2#
b1001110 9#
07#
b1001110001100 <#
b1001 A
1S"
1-"
1x
b0 e
1/
1*
#18000
0y
0."
0T"
0x
0-"
0S"
0/
0*
#19000
1T"
1."
1y
b1010110 8
b1010110 2#
b1010110 9#
b1010 A
b1010110111000 <#
1S"
1-"
1x
1/
1*
#20000
0y
0."
0T"
0x
0-"
0S"
0/
0*
#21000
1T"
1."
1y
b1011111 8
b1011111 2#
b1011111 9#
b1011111100100 <#
b1011 A
1S"
1-"
1x
1/
1*
#22000
0y
0."
0T"
0x
0-"
0S"
0/
0*
#23000
1T"
1."
1y
11#
b1101000 8
b1101000 2#
b1101000 9#
b1100 A
b1101000010000 <#
1S"
1-"
1x
1/
1*
#24000
0y
0."
0T"
0x
0-"
0S"
0/
0*
#25000
1T"
1."
1y
1g"
0'#
b1101000 f"
b1101000 p"
b1101000 z"
b1101000 &#
b1101000 ?
b1101000 _"
b1110000 8
b1110000 2#
b1110000 9#
b1101000 >
b1101000 3#
15#
17#
b1110000111100 <#
b1101 A
1S"
1-"
1x
1/
1*
#26000
0y
0."
0T"
0x
0-"
0S"
0/
0*
#27000
1T"
1."
1y
0g"
1'#
b11111110001111 f"
b11111110001111 p"
b11111110001111 z"
b11111110001111 &#
b1111111110001111 ?
b1111111110001111 _"
b1111001 8
b1111001 2#
b1111001 9#
b1110 A
b1111001101000 <#
b1111111110001111 >
b1111111110001111 3#
05#
16#
1S"
1-"
1x
1/
1*
#28000
0y
0."
0T"
0x
0-"
0S"
0/
0*
#29000
1T"
1."
1y
b10000010 8
b10000010 2#
b10000010 9#
06#
b10000010010100 <#
b1111 A
1S"
1-"
1x
1/
1*
#30000
0y
0."
0T"
0x
0-"
0S"
0/
0*
#31000
1T"
1."
1y
01#
b10001011 8
b10001011 2#
b10001011 9#
b10000 A
b10001011000000 <#
1S"
1-"
1x
1/
1*
#32000
0y
0."
0T"
0x
0-"
0S"
0/
0*
#33000
1T"
1."
1y
b10010011 8
b10010011 2#
b10010011 9#
07#
b10010011101100 <#
b10001 A
1S"
1-"
1x
1/
1*
#34000
0y
0."
0T"
0x
0-"
0S"
0/
0*
#35000
1T"
1."
1y
b10011100 8
b10011100 2#
b10011100 9#
b10010 A
b10011100011000 <#
1S"
1-"
1x
1/
1*
#36000
0y
0."
0T"
0x
0-"
0S"
0/
0*
#37000
1T"
1."
1y
b10100101 8
b10100101 2#
b10100101 9#
b10100101000100 <#
b10011 A
1S"
1-"
1x
1/
1*
#38000
0y
0."
0T"
0x
0-"
0S"
0/
0*
#39000
1T"
1."
1y
11#
b10101101 8
b10101101 2#
b10101101 9#
b10100 A
b10101101110000 <#
1S"
1-"
1x
1/
1*
#40000
0y
0."
0T"
0x
0-"
0S"
0/
0*
#41000
1T"
1."
1y
1g"
0'#
b10101101 f"
b10101101 p"
b10101101 z"
b10101101 &#
b10101101 ?
b10101101 _"
b10110110 8
b10110110 2#
b10110110 9#
b10101101 >
b10101101 3#
15#
17#
b10110110011100 <#
b10101 A
1S"
1-"
1x
1/
1*
#42000
0y
0."
0T"
0x
0-"
0S"
0/
0*
#43000
1T"
1."
1y
0g"
1'#
b11111101001001 f"
b11111101001001 p"
b11111101001001 z"
b11111101001001 &#
b1111111101001001 ?
b1111111101001001 _"
b10111111 8
b10111111 2#
b10111111 9#
b10110 A
b10111111001000 <#
b1111111101001001 >
b1111111101001001 3#
05#
16#
1S"
1-"
1x
1/
1*
#44000
0y
0."
0T"
0x
0-"
0S"
0/
0*
#45000
1T"
1."
1y
b11000111 8
b11000111 2#
b11000111 9#
06#
b11000111110100 <#
b10111 A
1S"
1-"
1x
1/
1*
#46000
0y
0."
0T"
0x
0-"
0S"
0/
0*
#47000
1T"
1."
1y
01#
b11010000 8
b11010000 2#
b11010000 9#
b11000 A
b11010000100000 <#
1S"
1-"
1x
1/
1*
#48000
0y
0."
0T"
0x
0-"
0S"
0/
0*
#49000
1T"
1."
1y
b11011001 8
b11011001 2#
b11011001 9#
07#
b11011001001100 <#
b11001 A
1S"
1-"
1x
1/
1*
#50000
0y
0."
0T"
0x
0-"
0S"
0/
0*
#51000
1T"
1."
1y
b11100001 8
b11100001 2#
b11100001 9#
b11010 A
b11100001111000 <#
1S"
1-"
1x
1/
1*
#52000
0y
0."
0T"
0x
0-"
0S"
0/
0*
#53000
1T"
1."
1y
b11101010 8
b11101010 2#
b11101010 9#
b11101010100100 <#
b11011 A
1S"
1-"
1x
1/
1*
#54000
0y
0."
0T"
0x
0-"
0S"
0/
0*
#55000
1T"
1."
1y
11#
b11110011 8
b11110011 2#
b11110011 9#
b11100 A
b11110011010000 <#
1S"
1-"
1x
1/
1*
#56000
0y
0."
0T"
0x
0-"
0S"
0/
0*
#57000
1T"
1."
1y
1g"
0'#
b11110011 f"
b11110011 p"
b11110011 z"
b11110011 &#
b11110011 ?
b11110011 _"
b11111011 8
b11111011 2#
b11111011 9#
b11110011 >
b11110011 3#
15#
17#
b11111011111100 <#
b11101 A
1S"
1-"
1x
1/
1*
#58000
0y
0."
0T"
0x
0-"
0S"
0/
0*
#59000
1T"
1."
1y
0g"
1'#
b11111100000100 f"
b11111100000100 p"
b11111100000100 z"
b11111100000100 &#
b1111111100000100 ?
b1111111100000100 _"
b100000100 8
b100000100 2#
b100000100 9#
b11110 A
b100000100101000 <#
b1111111100000100 >
b1111111100000100 3#
05#
16#
1S"
1-"
1x
1/
1*
#60000
0y
0."
0T"
0x
0-"
0S"
0/
0*
#61000
1T"
1."
1y
b100001101 8
b100001101 2#
b100001101 9#
06#
b100001101010100 <#
b11111 A
1S"
1-"
1x
1/
1*
#62000
0y
0."
0T"
0x
0-"
0S"
0/
0*
#63000
1T"
1."
1y
01#
b100010110 8
b100010110 2#
b100010110 9#
b100000 A
b100010110000000 <#
1S"
1-"
1x
1/
1*
#64000
0y
0."
0T"
0x
0-"
0S"
0/
0*
#65000
1T"
1."
1y
b100011110 8
b100011110 2#
b100011110 9#
07#
b100011110101100 <#
b100001 A
1S"
1-"
1x
1/
1*
#66000
0y
0."
0T"
0x
0-"
0S"
0/
0*
#67000
1T"
1."
1y
b100100111 8
b100100111 2#
b100100111 9#
b100010 A
b100100111011000 <#
1S"
1-"
1x
1/
1*
#68000
0y
0."
0T"
0x
0-"
0S"
0/
0*
#69000
1T"
1."
1y
b100110000 8
b100110000 2#
b100110000 9#
b100110000000100 <#
b100011 A
1S"
1-"
1x
1/
1*
#70000
0y
0."
0T"
0x
0-"
0S"
0/
0*
#71000
1T"
1."
1y
11#
b100111000 8
b100111000 2#
b100111000 9#
b100100 A
b100111000110000 <#
1S"
1-"
1x
1/
1*
#72000
0y
0."
0T"
0x
0-"
0S"
0/
0*
#73000
1T"
1."
1y
1g"
0'#
b100111000 f"
b100111000 p"
b100111000 z"
b100111000 &#
b100111000 ?
b100111000 _"
b101000001 8
b101000001 2#
b101000001 9#
b100111000 >
b100111000 3#
15#
17#
b101000001011100 <#
b100101 A
1S"
1-"
1x
1/
1*
#74000
0y
0."
0T"
0x
0-"
0S"
0/
0*
#75000
1T"
1."
1y
0g"
1'#
b11111010111110 f"
b11111010111110 p"
b11111010111110 z"
b11111010111110 &#
b1111111010111110 ?
b1111111010111110 _"
b101001010 8
b101001010 2#
b101001010 9#
b100110 A
b101001010001000 <#
b1111111010111110 >
b1111111010111110 3#
05#
16#
1S"
1-"
1x
1/
1*
#76000
0y
0."
0T"
0x
0-"
0S"
0/
0*
#77000
1T"
1."
1y
b101010010 8
b101010010 2#
b101010010 9#
06#
b101010010110100 <#
b100111 A
1S"
1-"
1x
1/
1*
#78000
0y
0."
0T"
0x
0-"
0S"
0/
0*
#79000
1T"
1."
1y
01#
b101011011 8
b101011011 2#
b101011011 9#
b101000 A
b101011011100000 <#
1S"
1-"
1x
1/
1*
#80000
0y
0."
0T"
0x
0-"
0S"
0/
0*
#81000
1T"
1."
1y
b101100100 8
b101100100 2#
b101100100 9#
07#
b101100100001100 <#
b101001 A
1S"
1-"
1x
1/
1*
#82000
0y
0."
0T"
0x
0-"
0S"
0/
0*
#83000
1T"
1."
1y
b101101100 8
b101101100 2#
b101101100 9#
b101010 A
b101101100111000 <#
1S"
1-"
1x
1/
1*
#84000
0y
0."
0T"
0x
0-"
0S"
0/
0*
#85000
1T"
1."
1y
b101110101 8
b101110101 2#
b101110101 9#
b101110101100100 <#
b101011 A
1S"
1-"
1x
1/
1*
#86000
0y
0."
0T"
0x
0-"
0S"
0/
0*
#87000
1T"
1."
1y
11#
b101111110 8
b101111110 2#
b101111110 9#
b101100 A
b101111110010000 <#
1S"
1-"
1x
1/
1*
#88000
0y
0."
0T"
0x
0-"
0S"
0/
0*
#89000
1T"
1."
1y
1g"
0'#
b101111110 f"
b101111110 p"
b101111110 z"
b101111110 &#
b101111110 ?
b101111110 _"
b110000110 8
b110000110 2#
b110000110 9#
b101111110 >
b101111110 3#
15#
17#
b110000110111100 <#
b101101 A
1S"
1-"
1x
1/
1*
#90000
0y
0."
0T"
0x
0-"
0S"
0/
0*
#91000
1T"
1."
1y
0g"
1'#
b11111001111001 f"
b11111001111001 p"
b11111001111001 z"
b11111001111001 &#
b1111111001111001 ?
b1111111001111001 _"
b110001111 8
b110001111 2#
b110001111 9#
b101110 A
b110001111101000 <#
b1111111001111001 >
b1111111001111001 3#
05#
16#
1S"
1-"
1x
1/
1*
#92000
0y
0."
0T"
0x
0-"
0S"
0/
0*
#93000
1T"
1."
1y
b110011000 8
b110011000 2#
b110011000 9#
06#
b110011000010100 <#
b101111 A
1S"
1-"
1x
1/
1*
#94000
0y
0."
0T"
0x
0-"
0S"
0/
0*
#95000
1T"
1."
1y
01#
b110100001 8
b110100001 2#
b110100001 9#
b110000 A
b110100001000000 <#
1S"
1-"
1x
1/
1*
#96000
0y
0."
0T"
0x
0-"
0S"
0/
0*
#97000
1T"
1."
1y
b110101001 8
b110101001 2#
b110101001 9#
07#
b110101001101100 <#
b110001 A
1S"
1-"
1x
1/
1*
#98000
0y
0."
0T"
0x
0-"
0S"
0/
0*
#99000
1T"
1."
1y
b110110010 8
b110110010 2#
b110110010 9#
b110010 A
b110110010011000 <#
1S"
1-"
1x
1/
1*
#100000
0y
0."
0T"
0x
0-"
0S"
0/
0*
#101000
1T"
1."
1y
b110111011 8
b110111011 2#
b110111011 9#
b110111011000100 <#
b110011 A
1S"
1-"
1x
1/
1*
#102000
0y
0."
0T"
0x
0-"
0S"
0/
0*
#103000
1T"
1."
1y
11#
b111000011 8
b111000011 2#
b111000011 9#
b110100 A
b111000011110000 <#
1S"
1-"
1x
1/
1*
#104000
0y
0."
0T"
0x
0-"
0S"
0/
0*
#105000
1T"
1."
1y
1g"
0'#
b111000011 f"
b111000011 p"
b111000011 z"
b111000011 &#
b111000011 ?
b111000011 _"
b111001100 8
b111001100 2#
b111001100 9#
b111000011 >
b111000011 3#
15#
17#
b111001100011100 <#
b110101 A
1S"
1-"
1x
1/
1*
#106000
0y
0."
0T"
0x
0-"
0S"
0/
0*
#107000
1T"
1."
1y
0g"
1'#
b11111000110011 f"
b11111000110011 p"
b11111000110011 z"
b11111000110011 &#
b1111111000110011 ?
b1111111000110011 _"
b111010101 8
b111010101 2#
b111010101 9#
b110110 A
b111010101001000 <#
b1111111000110011 >
b1111111000110011 3#
05#
16#
1S"
1-"
1x
1/
1*
#108000
0y
0."
0T"
0x
0-"
0S"
0/
0*
#109000
1T"
1."
1y
b111011101 8
b111011101 2#
b111011101 9#
06#
b111011101110100 <#
b110111 A
1S"
1-"
1x
1/
1*
#110000
0y
0."
0T"
0x
0-"
0S"
0/
0*
#111000
1T"
1."
1y
01#
b111100110 8
b111100110 2#
b111100110 9#
b111000 A
b111100110100000 <#
1S"
1-"
1x
1/
1*
#112000
0y
0."
0T"
0x
0-"
0S"
0/
0*
#113000
1T"
1."
1y
b111101111 8
b111101111 2#
b111101111 9#
07#
b111101111001100 <#
b111001 A
1S"
1-"
1x
1/
1*
#114000
0y
0."
0T"
0x
0-"
0S"
0/
0*
#115000
1T"
1."
1y
b111110111 8
b111110111 2#
b111110111 9#
b111010 A
b111110111111000 <#
1S"
1-"
1x
1/
1*
#116000
0y
0."
0T"
0x
0-"
0S"
0/
0*
#117000
1T"
1."
1y
b1000000000 8
b1000000000 2#
b1000000000 9#
b1000000000100100 <#
b111011 A
1S"
1-"
1x
1/
1*
#118000
0y
0."
0T"
0x
0-"
0S"
0/
0*
#119000
1T"
1."
1y
11#
b1000001001 8
b1000001001 2#
b1000001001 9#
b111100 A
b1000001001010000 <#
1S"
1-"
1x
1/
1*
#120000
0y
0."
0T"
0x
0-"
0S"
0/
0*
#121000
1T"
1."
1y
1g"
0'#
b1000001001 f"
b1000001001 p"
b1000001001 z"
b1000001001 &#
b1000001001 ?
b1000001001 _"
b1000010001 8
b1000010001 2#
b1000010001 9#
b1000001001 >
b1000001001 3#
15#
17#
b1000010001111100 <#
b111101 A
1S"
1-"
1x
1/
1*
#122000
0y
0."
0T"
0x
0-"
0S"
0/
0*
#123000
1T"
1."
1y
0g"
1'#
b11110111101110 f"
b11110111101110 p"
b11110111101110 z"
b11110111101110 &#
b1111110111101110 ?
b1111110111101110 _"
b1000011010 8
b1000011010 2#
b1000011010 9#
b111110 A
b1000011010101000 <#
b1111110111101110 >
b1111110111101110 3#
05#
16#
1S"
1-"
1x
1/
1*
#124000
0y
0."
0T"
0x
0-"
0S"
0/
0*
#125000
1T"
1."
1y
b1000100011 8
b1000100011 2#
b1000100011 9#
06#
b1000100011010100 <#
b111111 A
1S"
1-"
1x
1/
1*
#126000
0y
0."
0T"
0x
0-"
0S"
0/
0*
#127000
1T"
1."
1y
01#
b1000101100 8
b1000101100 2#
b1000101100 9#
b1000000 A
b1000101100000000 <#
1S"
1-"
1x
1/
1*
#128000
0y
0."
0T"
0x
0-"
0S"
0/
0*
#129000
1T"
1."
1y
b1000110100 8
b1000110100 2#
b1000110100 9#
07#
b1000110100101100 <#
b1000001 A
1S"
1-"
1x
1/
1*
#130000
0y
0."
0T"
0x
0-"
0S"
0/
0*
#131000
1T"
1."
1y
b1000111101 8
b1000111101 2#
b1000111101 9#
b1000010 A
b1000111101011000 <#
1S"
1-"
1x
1/
1*
