FPGA/HDL/UI/out.vcd
$date
	Sat Oct 19 16:10:52 2019
$end
$version
	Icarus Verilog
$end
$timescale
	1ps
$end
$scope module top_UI_tb $end
$var wire 16 ! HC [15:0] $end
$var wire 1 " LCD_RW $end
$var wire 4 # SF_D [3:0] $end
$var wire 1 $ R $end
$var wire 1 % LCD_RS $end
$var wire 1 & LCD_E $end
$var wire 1 ' G $end
$var wire 1 ( B $end
$var reg 4 ) Button [3:0] $end
$var reg 1 * CLK $end
$scope module topUIinst $end
$var wire 4 + Button [3:0] $end
$var wire 1 * CLK12 $end
$var wire 16 , HC [15:0] $end
$var wire 1 " LCD_RW $end
$var wire 3 - reffreq [2:0] $end
$var wire 2 . refampl [1:0] $end
$var wire 1 / refIO $end
$var wire 2 0 gain [1:0] $end
$var wire 4 1 TC [3:0] $end
$var wire 4 2 SF_D [3:0] $end
$var wire 1 $ R $end
$var wire 1 % LCD_RS $end
$var wire 1 & LCD_E $end
$var wire 1 ' G $end
$var wire 1 ( B $end
$var reg 5 3 cnt [4:0] $end
$var reg 1 4 rst $end
$scope module UI_inst $end
$var wire 17 5 Ang [16:0] $end
$var wire 4 6 Button [3:0] $end
$var wire 17 7 Mag [16:0] $end
$var wire 32 8 X [31:0] $end
$var wire 32 9 Y [31:0] $end
$var wire 1 * clk $end
$var wire 1 4 rst $end
$var wire 1 : weBTL $end
$var wire 1 ; we $end
$var wire 1 < repaint $end
$var wire 8 = datBTL [7:0] $end
$var wire 8 > dat [7:0] $end
$var wire 1 ? busy $end
$var wire 5 @ addrS [4:0] $end
$var wire 5 A addrBTL [4:0] $end
$var wire 5 B addr [4:0] $end
$var wire 4 C SF_D [3:0] $end
$var wire 1 % LCD_RS $end
$var wire 1 & LCD_E $end
$var reg 4 D BP [3:0] $end
$var reg 4 E TC [3:0] $end
$var reg 1 F btnt0 $end
$var reg 1 G btnt1 $end
$var reg 1 H btnt2 $end
$var reg 1 I btnt3 $end
$var reg 24 J cnt0 [23:0] $end
$var reg 24 K cnt1 [23:0] $end
$var reg 24 L cnt2 [23:0] $end
$var reg 24 M cnt3 [23:0] $end
$var reg 9 N count [8:0] $end
$var reg 8 O datS [7:0] $end
$var reg 1 P dispdone $end
$var reg 5 Q disppos [4:0] $end
$var reg 2 R gain [1:0] $end
$var reg 1 S ismagphase $end
$var reg 1 / refIO $end
$var reg 2 T refampl [1:0] $end
$var reg 3 U reffreq [2:0] $end
$var reg 1 V repaintS $end
$var reg 4 W state [3:0] $end
$var reg 1 X update $end
$var reg 1 Y weS $end
$scope module LCD $end
$var wire 5 Z addr [4:0] $end
$var wire 1 * clk $end
$var wire 8 [ dat [7:0] $end
$var wire 1 < repaint $end
$var wire 1 4 reset $end
$var wire 1 \ tx_init $end
$var wire 1 ; we $end
$var wire 8 ] ramdat [7:0] $end
$var wire 8 ^ ramaddr [7:0] $end
$var wire 1 _ output_selector $end
$var wire 1 ` delay_done $end
$var wire 1 ? busy $end
$var wire 4 a SF_D [3:0] $end
$var wire 1 % LCD_RS $end
$var wire 1 & LCD_E $end
$var reg 1 b LCD_E0 $end
$var reg 1 c LCD_E1 $end
$var reg 4 d SF_D0 [3:0] $end
$var reg 4 e SF_D1 [3:0] $end
$var reg 5 f display_state [4:0] $end
$var reg 1 g main_delay_load $end
$var reg 20 h main_delay_value [19:0] $end
$var reg 8 i tx_byte [7:0] $end
$var reg 1 j tx_delay_load $end
$var reg 20 k tx_delay_value [19:0] $end
$var reg 1 l tx_done $end
$var reg 3 m tx_state [2:0] $end
$var integer 32 n pos [31:0] $end
$scope module delay_counter $end
$var wire 1 * clk $end
$var wire 20 o count [19:0] $end
$var wire 1 p load $end
$var wire 1 4 reset $end
$var wire 1 ` done $end
$var reg 20 q counter [19:0] $end
$upscope $end
$scope module ram40_4kinst_physical $end
$var wire 16 r MASK [15:0] $end
$var wire 11 s RADDR [10:0] $end
$var wire 1 * RCLK $end
$var wire 1 t RCLKE $end
$var wire 1 u RE $end
$var wire 16 v RMASK_I [15:0] $end
$var wire 11 w WADDR [10:0] $end
$var wire 1 * WCLK $end
$var wire 1 x WCLKE $end
$var wire 16 y WDATA [15:0] $end
$var wire 1 ; WE $end
$var wire 16 z WMASK_I [15:0] $end
$var wire 16 { WDATA_I [15:0] $end
$var wire 16 | RDATA [15:0] $end
$var reg 16 } RDATA_I [15:0] $end
$var integer 32 ~ i [31:0] $end
$scope begin genblk1 $end
$upscope $end
$scope begin genblk2 $end
$upscope $end
$scope begin genblk3 $end
$upscope $end
$scope begin genblk4 $end
$upscope $end
$upscope $end
$upscope $end
$scope module diplay_number $end
$var wire 17 !" Ang [16:0] $end
$var wire 17 "" Mag [16:0] $end
$var wire 32 #" X [31:0] $end
$var wire 32 $" Y [31:0] $end
$var wire 1 * clk $end
$var wire 1 S ismagphase $end
$var wire 1 X update $end
$var wire 5 %" addr [4:0] $end
$var reg 17 &" acc [16:0] $end
$var reg 8 '" dat [7:0] $end
$var reg 4 (" dec [3:0] $end
$var reg 17 )" difference [16:0] $end
$var reg 1 *" holdoff $end
$var reg 16 +" lastacc [15:0] $end
$var reg 1 ," lastupdate $end
$var reg 1 -" leadz $end
$var reg 5 ." pos [4:0] $end
$var reg 16 /" rest [15:0] $end
$var reg 16 0" secondlastacc [15:0] $end
$var reg 16 1" summand [15:0] $end
$var reg 1 2" updating $end
$var reg 1 : we $end
$upscope $end
$upscope $end
$upscope $end
$upscope $end
$enddefinitions $end
#0
$dumpvars
02"
b0 1"
b0 0"
b0 /"
b0 ."
0-"
0,"
b0 +"
0*"
b0 )"
b0 ("
b0 '"
b0 &"
b11111 %"
b11111 $"
b11111111000000000000 #"
b0 ""
b11111 !"
b10000 ~
bx }
bx |
b0 {
b0 z
b0 y
1x
b1001111 w
b0 v
1u
1t
b0 s
b0 r
bx q
0p
b0 o
b0 n
b110 m
0l
b0 k
0j
bx i
b0 h
0g
b0 f
b0 e
b0 d
0c
0b
b0 a
x`
0_
b1001111 ^
bx ]
0\
b0 [
b11111 Z
0Y
0X
b0 W
0V
b0 U
b0 T
0S
b0 R
b0 Q
0P
b0 O
b0 N
b0 M
b0 L
b0 K
b0 J
0I
0H
0G
0F
b110 E
b0 D
b0 C
b11111 B
b11111 A
b11111 @
1?
b0 >
b0 =
0<
0;
0:
b11111 9
b11111111000000000000 8
b0 7
b0 6
b11111 5
14
b0 3
b0 2
b110 1
b0 0
0/
b0 .
b0 -
bz ,
b1111 +
0*
b1111 )
1(
1'
0&
1%
1$
b0 #
0"
bz !
$end
#1000
b0 ]
b11110 5
b11110 !"
b11110 9
b11110 $"
b0 |
b0 }
b1 N
b1 7
b1 ""
b1 3
1*
#2000
0*
#3000
b11101 5
b11101 !"
b11101 9
b11101 $"
b10 7
b10 ""
b10 3
b10 N
1*
#4000
0*
#5000
b11100 5
b11100 !"
b11100 9
b11100 $"
b11 N
b11 7
b11 ""
b11 3
1*
#6000
0*
#7000
b11011 5
b11011 !"
b11011 9
b11011 $"
b100 7
b100 ""
b100 3
b100 N
1*
#8000
0*
#9000
b11010 5
b11010 !"
b11010 9
b11010 $"
b101 N
b101 7
b101 ""
b101 3
1*
#10000
0*
#11000
b11001 5
b11001 !"
b11001 9
b11001 $"
b110 7
b110 ""
b110 3
b110 N
1*
#12000
0*
#13000
b11000 5
b11000 !"
b11000 9
b11000 $"
b111 N
b111 7
b111 ""
b111 3
1*
#14000
0*
#15000
b10111 5
b10111 !"
b10111 9
b10111 $"
b1000 7
b1000 ""
b1000 3
b1000 N
1*
#16000
0*
#17000
b10110 5
b10110 !"
b10110 9
b10110 $"
b1001 N
b1001 7
b1001 ""
b1001 3
1*
#18000
0*
#19000
b10101 5
b10101 !"
b10101 9
b10101 $"
b1010 7
b1010 ""
b1010 3
b1010 N
1*
#20000
0*
#21000
b10100 5
b10100 !"
b10100 9
b10100 $"
b1011 N
b1011 7
b1011 ""
b1011 3
1*
#22000
0*
#23000
b10011 5
b10011 !"
b10011 9
b10011 $"
b1100 7
b1100 ""
b1100 3
b1100 N
1*
#24000
0*
#25000
b10010 5
b10010 !"
b10010 9
b10010 $"
b1101 N
b1101 7
b1101 ""
b1101 3
1*
#26000
0*
#27000
b10001 5
b10001 !"
b10001 9
b10001 $"
b1110 7
b1110 ""
b1110 3
b1110 N
1*
#28000
0*
#29000
b10000 5
b10000 !"
b10000 9
b10000 $"
b1111 N
b1111 7
b1111 ""
b1111 3
1*
#30000
0*
#31000
b1111 5
b1111 !"
b1111 9
b1111 $"
b10000 7
b10000 ""
b10000 3
b10000 N
1*
#32000
0*
#33000
b1110 5
b1110 !"
b1110 9
b1110 $"
b10001 N
b10001 7
b10001 ""
b10001 3
1*
#34000
0*
#35000
b1101 5
b1101 !"
b1101 9
b1101 $"
b10010 7
b10010 ""
b10010 3
b10010 N
1*
#36000
0*
#37000
b1100 5
b1100 !"
b1100 9
b1100 $"
b10011 N
b10011 7
b10011 ""
b10011 3
1*
#38000
0*
#39000
b1011 5
b1011 !"
b1011 9
b1011 $"
b10100 7
b10100 ""
b10100 3
b10100 N
1*
#40000
0*
#41000
b1010 5
b1010 !"
b1010 9
b1010 $"
b10101 N
b10101 7
b10101 ""
b10101 3
1*
#42000
0*
#43000
b1001 5
b1001 !"
b1001 9
b1001 $"
b10110 7
b10110 ""
b10110 3
b10110 N
1*
#44000
0*
#45000
b1000 5
b1000 !"
b1000 9
b1000 $"
b10111 N
b10111 7
b10111 ""
b10111 3
1*
#46000
0*
#47000
b111 5
b111 !"
b111 9
b111 $"
b11000 7
b11000 ""
b11000 3
b11000 N
1*
#48000
0*
#49000
b110 5
b110 !"
b110 9
b110 $"
b11001 N
b11001 7
b11001 ""
b11001 3
1*
#50000
0*
#51000
b101 5
b101 !"
b101 9
b101 $"
b11010 7
b11010 ""
b11010 3
b11010 N
1*
#52000
0*
#53000
b100 5
b100 !"
b100 9
b100 $"
b11011 N
b11011 7
b11011 ""
b11011 3
1*
#54000
0*
#55000
b11 5
b11 !"
b11 9
b11 $"
b11100 7
b11100 ""
b11100 3
b11100 N
1*
#56000
0*
#57000
b10 5
b10 !"
b10 9
b10 $"
b11101 N
b11101 7
b11101 ""
b11101 3
1*
#58000
0*
#59000
b1 5
b1 !"
b1 9
b1 $"
b11110 7
b11110 ""
b11110 3
b11110 N
1*
#60000
0*
#61000
b0 5
b0 !"
b0 9
b0 $"
b11111 N
b11111 7
b11111 ""
b11111 3
1*
#62000
0*
#63000
b11111 5
b11111 !"
b11111 9
b11111 $"
04
b0 7
b0 ""
b0 3
b100000 N
1*
#64000
0*
#65000
b11110 5
b11110 !"
b11110 9
b11110 $"
b10110111000110110000 o
1p
b100001 N
b1 7
b1 ""
b1 3
b10110111000110110000 h
1g
b1 f
b0 i
1*
#66000
0*
#67000
b11101 5
b11101 !"
b11101 9
b11101 $"
b0 o
0p
b10 7
b10 ""
b10 3
b100010 N
0`
b10110111000110110000 q
b0 h
0g
1*
#68000
0*
#69000
b11100 5
b11100 !"
b11100 9
b11100 $"
b10110111000110101111 q
b100011 N
b11 7
b11 ""
b11 3
1*
#70000
0*
#71000
b11011 5
b11011 !"
b11011 9
b11011 $"
b100 7
b100 ""
b100 3
b100100 N
b10110111000110101110 q
1*
#72000
0*
#73000
b11010 5
b11010 !"
b11010 9
b11010 $"
b10110111000110101101 q
b100101 N
b101 7
b101 ""
b101 3
1*
#74000
0*
#75000
b11001 5
b11001 !"
b11001 9
b11001 $"
b110 7
b110 ""
b110 3
b100110 N
b10110111000110101100 q
1*
#76000
0*
#77000
b11000 5
b11000 !"
b11000 9
b11000 $"
b10110111000110101011 q
b100111 N
b111 7
b111 ""
b111 3
1*
#78000
0*
#79000
b10111 5
b10111 !"
b10111 9
b10111 $"
b1000 7
b1000 ""
b1000 3
b101000 N
b10110111000110101010 q
1*
#80000
0*
#81000
b10110 5
b10110 !"
b10110 9
b10110 $"
b10110111000110101001 q
b101001 N
b1001 7
b1001 ""
b1001 3
1*
#82000
0*
#83000
b10101 5
b10101 !"
b10101 9
b10101 $"
b1010 7
b1010 ""
b1010 3
b101010 N
b10110111000110101000 q
1*
#84000
0*
#85000
b10100 5
b10100 !"
b10100 9
b10100 $"
b10110111000110100111 q
b101011 N
b1011 7
b1011 ""
b1011 3
1*
#86000
0*
#87000
b10011 5
b10011 !"
b10011 9
b10011 $"
b1100 7
b1100 ""
b1100 3
b101100 N
b10110111000110100110 q
1*
#88000
0*
#89000
b10010 5
b10010 !"
b10010 9
b10010 $"
b10110111000110100101 q
b101101 N
b1101 7
b1101 ""
b1101 3
1*
#90000
0*
#91000
b10001 5
b10001 !"
b10001 9
b10001 $"
b1110 7
b1110 ""
b1110 3
b101110 N
b10110111000110100100 q
1*
#92000
0*
#93000
b10000 5
b10000 !"
b10000 9
b10000 $"
b10110111000110100011 q
b101111 N
b1111 7
b1111 ""
b1111 3
1*
#94000
0*
#95000
b1111 5
b1111 !"
b1111 9
b1111 $"
b10000 7
b10000 ""
b10000 3
b110000 N
b10110111000110100010 q
1*
#96000
0*
#97000
b1110 5
b1110 !"
b1110 9
b1110 $"
b10110111000110100001 q
b110001 N
b10001 7
b10001 ""
b10001 3
1*
#98000
0*
#99000
b1101 5
b1101 !"
b1101 9
b1101 $"
b10010 7
b10010 ""
b10010 3
b110010 N
b10110111000110100000 q
1*
#100000
0*
#101000
b1100 5
b1100 !"
b1100 9
b1100 $"
b10110111000110011111 q
b110011 N
b10011 7
b10011 ""
b10011 3
1*
#102000
0*
#103000
b1011 5
b1011 !"
b1011 9
b1011 $"
b10100 7
b10100 ""
b10100 3
b110100 N
b10110111000110011110 q
1*
#104000
0*
#105000
b1010 5
b1010 !"
b1010 9
b1010 $"
b10110111000110011101 q
b110101 N
b10101 7
b10101 ""
b10101 3
1*
#106000
0*
#107000
b1001 5
b1001 !"
b1001 9
b1001 $"
b10110 7
b10110 ""
b10110 3
b110110 N
b10110111000110011100 q
1*
#108000
0*
#109000
b1000 5
b1000 !"
b1000 9
b1000 $"
b10110111000110011011 q
b110111 N
b10111 7
b10111 ""
b10111 3
1*
#110000
0*
#111000
b111 5
b111 !"
b111 9
b111 $"
b11000 7
b11000 ""
b11000 3
b111000 N
b10110111000110011010 q
1*
#112000
0*
#113000
b110 5
b110 !"
b110 9
b110 $"
b10110111000110011001 q
b111001 N
b11001 7
b11001 ""
b11001 3
1*
#114000
0*
#115000
b101 5
b101 !"
b101 9
b101 $"
b11010 7
b11010 ""
b11010 3
b111010 N
b10110111000110011000 q
1*
#116000
0*
#117000
b100 5
b100 !"
b100 9
b100 $"
b10110111000110010111 q
b111011 N
b11011 7
b11011 ""
b11011 3
1*
#118000
0*
#119000
b11 5
b11 !"
b11 9
b11 $"
b11100 7
b11100 ""
b11100 3
b111100 N
b10110111000110010110 q
1*
#120000
0*
#121000
b10 5
b10 !"
b10 9
b10 $"
b10110111000110010101 q
b111101 N
b11101 7
b11101 ""
b11101 3
1*
#122000
0*
#123000
b1 5
b1 !"
b1 9
b1 $"
b11110 7
b11110 ""
b11110 3
b111110 N
b10110111000110010100 q
1*
#124000
0*
#125000
b0 5
b0 !"
b0 9
b0 $"
b10110111000110010011 q
b111111 N
b11111 7
b11111 ""
b11111 3
1*
#126000
0*
#127000
b11111 5
b11111 !"
b11111 9
b11111 $"
b0 7
b0 ""
b0 3
b1000000 N
b10110111000110010010 q
1*
#128000
0*
#129000
b11110 5
b11110 !"
b11110 9
b11110 $"
b10110111000110010001 q
b1000001 N
b1 7
b1 ""
b1 3
1*
#130000
0*
#131000
b11101 5
b11101 !"
b11101 9
b11101 $"
b10 7
b10 ""
b10 3
b1000010 N
b10110111000110010000 q
1*
#132000
0*
#133000
b11100 5
b11100 !"
b11100 9
b11100 $"
b10110111000110001111 q
b1000011 N
b11 7
b11 ""
b11 3
1*
#134000
0*
#135000
b11011 5
b11011 !"
b11011 9
b11011 $"
b100 7
b100 ""
b100 3
b1000100 N
b10110111000110001110 q
1*
#136000
0*
#137000
b11010 5
b11010 !"
b11010 9
b11010 $"
b10110111000110001101 q
b1000101 N
b101 7
b101 ""
b101 3
1*
#138000
0*
#139000
b11001 5
b11001 !"
b11001 9
b11001 $"
b110 7
b110 ""
b110 3
b1000110 N
b10110111000110001100 q
1*
#140000
0*
#141000
b11000 5
b11000 !"
b11000 9
b11000 $"
b10110111000110001011 q
b1000111 N
b111 7
b111 ""
b111 3
1*
#142000
0*
#143000
b10111 5
b10111 !"
b10111 9
b10111 $"
b1000 7
b1000 ""
b1000 3
b1001000 N
b10110111000110001010 q
1*
#144000
0*
#145000
b10110 5
b10110 !"
b10110 9
b10110 $"
b10110111000110001001 q
b1001001 N
b1001 7
b1001 ""
b1001 3
1*
#146000
0*
#147000
b10101 5
b10101 !"
b10101 9
b10101 $"
b1010 7
b1010 ""
b1010 3
b1001010 N
b10110111000110001000 q
1*
#148000
0*
#149000
b10100 5
b10100 !"
b10100 9
b10100 $"
b10110111000110000111 q
b1001011 N
b1011 7
b1011 ""
b1011 3
1*
#150000
0*
#151000
b10011 5
b10011 !"
b10011 9
b10011 $"
b1100 7
b1100 ""
b1100 3
b1001100 N
b10110111000110000110 q
1*
#152000
0*
#153000
b10010 5
b10010 !"
b10010 9
b10010 $"
b10110111000110000101 q
b1001101 N
b1101 7
b1101 ""
b1101 3
1*
#154000
0*
#155000
b10001 5
b10001 !"
b10001 9
b10001 $"
b1110 7
b1110 ""
b1110 3
b1001110 N
b10110111000110000100 q
1*
#156000
0*
#157000
b10000 5
b10000 !"
b10000 9
b10000 $"
b10110111000110000011 q
b1001111 N
b1111 7
b1111 ""
b1111 3
1*
#158000
0*
#159000
b1111 5
b1111 !"
b1111 9
b1111 $"
b10000 7
b10000 ""
b10000 3
b1010000 N
b10110111000110000010 q
1*
#160000
0*
#161000
b1110 5
b1110 !"
b1110 9
b1110 $"
b10110111000110000001 q
b1010001 N
b10001 7
b10001 ""
b10001 3
1*
#162000
0*
#163000
b1101 5
b1101 !"
b1101 9
b1101 $"
b10010 7
b10010 ""
b10010 3
b1010010 N
b10110111000110000000 q
1*
#164000
0*
#165000
b1100 5
b1100 !"
b1100 9
b1100 $"
b10110111000101111111 q
b1010011 N
b10011 7
b10011 ""
b10011 3
1*
#166000
0*
#167000
b1011 5
b1011 !"
b1011 9
b1011 $"
b10100 7
b10100 ""
b10100 3
b1010100 N
b10110111000101111110 q
1*
#168000
0*
#169000
b1010 5
b1010 !"
b1010 9
b1010 $"
b10110111000101111101 q
b1010101 N
b10101 7
b10101 ""
b10101 3
1*
#170000
0*
#171000
b1001 5
b1001 !"
b1001 9
b1001 $"
b10110 7
b10110 ""
b10110 3
b1010110 N
b10110111000101111100 q
1*
#172000
0*
#173000
b1000 5
b1000 !"
b1000 9
b1000 $"
b10110111000101111011 q
b1010111 N
b10111 7
b10111 ""
b10111 3
1*
#174000
0*
#175000
b111 5
b111 !"
b111 9
b111 $"
b11000 7
b11000 ""
b11000 3
b1011000 N
b10110111000101111010 q
1*
#176000
0*
#177000
b110 5
b110 !"
b110 9
b110 $"
b10110111000101111001 q
b1011001 N
b11001 7
b11001 ""
b11001 3
1*
#178000
0*
#179000
b101 5
b101 !"
b101 9
b101 $"
b11010 7
b11010 ""
b11010 3
b1011010 N
b10110111000101111000 q
1*
#180000
0*
#181000
b100 5
b100 !"
b100 9
b100 $"
b10110111000101110111 q
b1011011 N
b11011 7
b11011 ""
b11011 3
1*
#182000
0*
#183000
b11 5
b11 !"
b11 9
b11 $"
b11100 7
b11100 ""
b11100 3
b1011100 N
b10110111000101110110 q
1*
#184000
0*
#185000
b10 5
b10 !"
b10 9
b10 $"
b10110111000101110101 q
b1011101 N
b11101 7
b11101 ""
b11101 3
1*
#186000
0*
#187000
b1 5
b1 !"
b1 9
b1 $"
b11110 7
b11110 ""
b11110 3
b1011110 N
b10110111000101110100 q
1*
#188000
0*
#189000
b0 5
b0 !"
b0 9
b0 $"
b10110111000101110011 q
b1011111 N
b11111 7
b11111 ""
b11111 3
1*
#190000
0*
#191000
b11111 5
b11111 !"
b11111 9
b11111 $"
b0 7
b0 ""
b0 3
b1100000 N
b10110111000101110010 q
1*
#192000
0*
#193000
b11110 5
b11110 !"
b11110 9
b11110 $"
b10110111000101110001 q
b1100001 N
b1 7
b1 ""
b1 3
1*
#194000
0*
#195000
b11101 5
b11101 !"
b11101 9
b11101 $"
b10 7
b10 ""
b10 3
b1100010 N
b10110111000101110000 q
1*
#196000
0*
#197000
b11100 5
b11100 !"
b11100 9
b11100 $"
b10110111000101101111 q
b1100011 N
b11 7
b11 ""
b11 3
1*
#198000
0*
#199000
b11011 5
b11011 !"
b11011 9
b11011 $"
b100 7
b100 ""
b100 3
b1100100 N
b10110111000101101110 q
1*
#200000
0*
#201000
b11010 5
b11010 !"
b11010 9
b11010 $"
b10110111000101101101 q
b1100101 N
b101 7
b101 ""
b101 3
1*
#202000
0*
#203000
b11001 5
b11001 !"
b11001 9
b11001 $"
b110 7
b110 ""
b110 3
b1100110 N
b10110111000101101100 q
1*
#204000
0*
#205000
b11000 5
b11000 !"
b11000 9
b11000 $"
b10110111000101101011 q
b1100111 N
b111 7
b111 ""
b111 3
1*
#206000
0*
#207000
b10111 5
b10111 !"
b10111 9
b10111 $"
b1000 7
b1000 ""
b1000 3
b1101000 N
b10110111000101101010 q
1*
#208000
0*
#209000
b10110 5
b10110 !"
b10110 9
b10110 $"
b10110111000101101001 q
b1101001 N
b1001 7
b1001 ""
b1001 3
1*
#210000
0*
#211000
b10101 5
b10101 !"
b10101 9
b10101 $"
b1010 7
b1010 ""
b1010 3
b1101010 N
b10110111000101101000 q
1*
#212000
0*
#213000
b10100 5
b10100 !"
b10100 9
b10100 $"
b10110111000101100111 q
b1101011 N
b1011 7
b1011 ""
b1011 3
1*
#214000
0*
#215000
b10011 5
b10011 !"
b10011 9
b10011 $"
b1100 7
b1100 ""
b1100 3
b1101100 N
b10110111000101100110 q
1*
#216000
0*
#217000
b10010 5
b10010 !"
b10010 9
b10010 $"
b10110111000101100101 q
b1101101 N
b1101 7
b1101 ""
b1101 3
1*
#218000
0*
#219000
b10001 5
b10001 !"
b10001 9
b10001 $"
b1110 7
b1110 ""
b1110 3
b1101110 N
b10110111000101100100 q
1*
#220000
0*
#221000
b10000 5
b10000 !"
b10000 9
b10000 $"
b10110111000101100011 q
b1101111 N
b1111 7
b1111 ""
b1111 3
1*
#222000
0*
#223000
b1111 5
b1111 !"
b1111 9
b1111 $"
b10000 7
b10000 ""
b10000 3
b1110000 N
b10110111000101100010 q
1*
#224000
0*
#225000
b1110 5
b1110 !"
b1110 9
b1110 $"
b10110111000101100001 q
b1110001 N
b10001 7
b10001 ""
b10001 3
1*
#226000
0*
#227000
b1101 5
b1101 !"
b1101 9
b1101 $"
b10010 7
b10010 ""
b10010 3
b1110010 N
b10110111000101100000 q
1*
#228000
0*
#229000
b1100 5
b1100 !"
b1100 9
b1100 $"
b10110111000101011111 q
b1110011 N
b10011 7
b10011 ""
b10011 3
1*
#230000
0*
#231000
b1011 5
b1011 !"
b1011 9
b1011 $"
b10100 7
b10100 ""
b10100 3
b1110100 N
b10110111000101011110 q
1*
#232000
0*
#233000
b1010 5
b1010 !"
b1010 9
b1010 $"
b10110111000101011101 q
b1110101 N
b10101 7
b10101 ""
b10101 3
1*
#234000
0*
#235000
b1001 5
b1001 !"
b1001 9
b1001 $"
b10110 7
b10110 ""
b10110 3
b1110110 N
b10110111000101011100 q
1*
#236000
0*
#237000
b1000 5
b1000 !"
b1000 9
b1000 $"
b10110111000101011011 q
b1110111 N
b10111 7
b10111 ""
b10111 3
1*
#238000
0*
#239000
b111 5
b111 !"
b111 9
b111 $"
b11000 7
b11000 ""
b11000 3
b1111000 N
b10110111000101011010 q
1*
#240000
0*
#241000
b110 5
b110 !"
b110 9
b110 $"
b10110111000101011001 q
b1111001 N
b11001 7
b11001 ""
b11001 3
1*
#242000
0*
#243000
b101 5
b101 !"
b101 9
b101 $"
b11010 7
b11010 ""
b11010 3
b1111010 N
b10110111000101011000 q
1*
#244000
0*
#245000
b100 5
b100 !"
b100 9
b100 $"
b10110111000101010111 q
b1111011 N
b11011 7
b11011 ""
b11011 3
1*
#246000
0*
#247000
b11 5
b11 !"
b11 9
b11 $"
b11100 7
b11100 ""
b11100 3
b1111100 N
b10110111000101010110 q
1*
#248000
0*
#249000
b10 5
b10 !"
b10 9
b10 $"
b10110111000101010101 q
b1111101 N
b11101 7
b11101 ""
b11101 3
1*
#250000
0*
#251000
b1 5
b1 !"
b1 9
b1 $"
b11110 7
b11110 ""
b11110 3
b1111110 N
b10110111000101010100 q
1*
#252000
0*
#253000
b0 5
b0 !"
b0 9
b0 $"
b10110111000101010011 q
b1111111 N
b11111 7
b11111 ""
b11111 3
1*
#254000
0*
#255000
b11111 5
b11111 !"
b11111 9
b11111 $"
b0 7
b0 ""
b0 3
b10000000 N
b10110111000101010010 q
1*
#256000
0*
#257000
b11110 5
b11110 !"
b11110 9
b11110 $"
b10110111000101010001 q
b10000001 N
b1 7
b1 ""
b1 3
1*
#258000
0*
#259000
b11101 5
b11101 !"
b11101 9
b11101 $"
b10 7
b10 ""
b10 3
b10000010 N
b10110111000101010000 q
1*
#260000
0*
#261000
b11100 5
b11100 !"
b11100 9
b11100 $"
b10110111000101001111 q
b10000011 N
b11 7
b11 ""
b11 3
1*
#262000
0*
#263000
b11011 5
b11011 !"
b11011 9
b11011 $"
b100 7
b100 ""
b100 3
b10000100 N
b10110111000101001110 q
1*
#264000
0*
#265000
b11010 5
b11010 !"
b11010 9
b11010 $"
b10110111000101001101 q
b10000101 N
b101 7
b101 ""
b101 3
1*
#266000
0*
#267000
b11001 5
b11001 !"
b11001 9
b11001 $"
b110 7
b110 ""
b110 3
b10000110 N
b10110111000101001100 q
1*
#268000
0*
#269000
b11000 5
b11000 !"
b11000 9
b11000 $"
b10110111000101001011 q
b10000111 N
b111 7
b111 ""
b111 3
1*
#270000
0*
#271000
b10111 5
b10111 !"
b10111 9
b10111 $"
b1000 7
b1000 ""
b1000 3
b10001000 N
b10110111000101001010 q
1*
#272000
0*
#273000
b10110 5
b10110 !"
b10110 9
b10110 $"
b10110111000101001001 q
b10001001 N
b1001 7
b1001 ""
b1001 3
1*
#274000
0*
#275000
b10101 5
b10101 !"
b10101 9
b10101 $"
b1010 7
b1010 ""
b1010 3
b10001010 N
b10110111000101001000 q
1*
#276000
0*
#277000
b10100 5
b10100 !"
b10100 9
b10100 $"
b10110111000101000111 q
b10001011 N
b1011 7
b1011 ""
b1011 3
1*
#278000
0*
#279000
b10011 5
b10011 !"
b10011 9
b10011 $"
b1100 7
b1100 ""
b1100 3
b10001100 N
b10110111000101000110 q
1*
#280000
0*
#281000
b10010 5
b10010 !"
b10010 9
b10010 $"
b10110111000101000101 q
b10001101 N
b1101 7
b1101 ""
b1101 3
1*
#282000
0*
#283000
b10001 5
b10001 !"
b10001 9
b10001 $"
b1110 7
b1110 ""
b1110 3
b10001110 N
b10110111000101000100 q
1*
#284000
0*
#285000
b10000 5
b10000 !"
b10000 9
b10000 $"
b10110111000101000011 q
b10001111 N
b1111 7
b1111 ""
b1111 3
1*
#286000
0*
#287000
b1111 5
b1111 !"
b1111 9
b1111 $"
b10000 7
b10000 ""
b10000 3
b10010000 N
b10110111000101000010 q
1*
#288000
0*
#289000
b1110 5
b1110 !"
b1110 9
b1110 $"
b10110111000101000001 q
b10010001 N
b10001 7
b10001 ""
b10001 3
1*
#290000
0*
#291000
b1101 5
b1101 !"
b1101 9
b1101 $"
b10010 7
b10010 ""
b10010 3
b10010010 N
b10110111000101000000 q
1*
#292000
0*
#293000
b1100 5
b1100 !"
b1100 9
b1100 $"
b10110111000100111111 q
b10010011 N
b10011 7
b10011 ""
b10011 3
1*
#294000
0*
#295000
b1011 5
b1011 !"
b1011 9
b1011 $"
b10100 7
b10100 ""
b10100 3
b10010100 N
b10110111000100111110 q
1*
#296000
0*
#297000
b1010 5
b1010 !"
b1010 9
b1010 $"
b10110111000100111101 q
b10010101 N
b10101 7
b10101 ""
b10101 3
1*
#298000
0*
#299000
b1001 5
b1001 !"
b1001 9
b1001 $"
b10110 7
b10110 ""
b10110 3
b10010110 N
b10110111000100111100 q
1*
#300000
0*
#301000
b1000 5
b1000 !"
b1000 9
b1000 $"
b10110111000100111011 q
b10010111 N
b10111 7
b10111 ""
b10111 3
1*
#302000
0*
#303000
b111 5
b111 !"
b111 9
b111 $"
b11000 7
b11000 ""
b11000 3
b10011000 N
b10110111000100111010 q
1*
#304000
0*
#305000
b110 5
b110 !"
b110 9
b110 $"
b10110111000100111001 q
b10011001 N
b11001 7
b11001 ""
b11001 3
1*
#306000
0*
#307000
b101 5
b101 !"
b101 9
b101 $"
b11010 7
b11010 ""
b11010 3
b10011010 N
b10110111000100111000 q
1*
#308000
0*
#309000
b100 5
b100 !"
b100 9
b100 $"
b10110111000100110111 q
b10011011 N
b11011 7
b11011 ""
b11011 3
1*
#310000
0*
#311000
b11 5
b11 !"
b11 9
b11 $"
b11100 7
b11100 ""
b11100 3
b10011100 N
b10110111000100110110 q
1*
#312000
0*
#313000
b10 5
b10 !"
b10 9
b10 $"
b10110111000100110101 q
b10011101 N
b11101 7
b11101 ""
b11101 3
1*
#314000
0*
#315000
b1 5
b1 !"
b1 9
b1 $"
b11110 7
b11110 ""
b11110 3
b10011110 N
b10110111000100110100 q
1*
#316000
0*
#317000
b0 5
b0 !"
b0 9
b0 $"
b10110111000100110011 q
b10011111 N
b11111 7
b11111 ""
b11111 3
1*
#318000
0*
#319000
b11111 5
b11111 !"
b11111 9
b11111 $"
b0 7
b0 ""
b0 3
b10100000 N
b10110111000100110010 q
1*
#320000
0*
