FPGA/HDL/UI/out.vcd
$date
	Mon Oct  7 23:27:04 2019
$end
$version
	Icarus Verilog
$end
$timescale
	1ps
$end
$scope module top_UI_tb $end
$var wire 16 ! HC [15:0] $end
$var wire 1 " LCD_RW $end
$var wire 4 # SF_D [3:0] $end
$var wire 1 $ R $end
$var wire 1 % LCD_RS $end
$var wire 1 & LCD_E $end
$var wire 1 ' G $end
$var wire 1 ( B $end
$var reg 4 ) Button [3:0] $end
$var reg 1 * CLK $end
$scope module topUIinst $end
$var wire 4 + Button [3:0] $end
$var wire 1 * CLK12 $end
$var wire 16 , HC [15:0] $end
$var wire 1 " LCD_RW $end
$var wire 1 $ R $end
$var wire 3 - reffreq [2:0] $end
$var wire 2 . refampl [1:0] $end
$var wire 1 / refIO $end
$var wire 2 0 gain [1:0] $end
$var wire 4 1 TC [3:0] $end
$var wire 4 2 SF_D [3:0] $end
$var wire 1 % LCD_RS $end
$var wire 1 & LCD_E $end
$var wire 1 ' G $end
$var wire 1 ( B $end
$scope module UI_inst $end
$var wire 32 3 Ang [31:0] $end
$var wire 4 4 Button [3:0] $end
$var wire 32 5 Rad [31:0] $end
$var wire 32 6 X [31:0] $end
$var wire 32 7 Y [31:0] $end
$var wire 1 * clk $end
$var wire 1 8 weBTL $end
$var wire 1 9 we $end
$var wire 1 : update $end
$var wire 1 ; repaint $end
$var wire 1 < datBTL $end
$var wire 8 = dat [7:0] $end
$var wire 1 > busy $end
$var wire 5 ? addrS [4:0] $end
$var wire 1 @ addrBTL $end
$var wire 5 A addr [4:0] $end
$var wire 4 B SF_D [3:0] $end
$var wire 1 % LCD_RS $end
$var wire 1 & LCD_E $end
$var reg 4 C BP [3:0] $end
$var reg 4 D TC [3:0] $end
$var reg 1 E btnt0 $end
$var reg 1 F btnt1 $end
$var reg 1 G btnt2 $end
$var reg 1 H btnt3 $end
$var reg 2 I cnt0 [1:0] $end
$var reg 2 J cnt1 [1:0] $end
$var reg 2 K cnt2 [1:0] $end
$var reg 2 L cnt3 [1:0] $end
$var reg 32 M count [31:0] $end
$var reg 8 N datS [7:0] $end
$var reg 5 O disppos [4:0] $end
$var reg 2 P gain [1:0] $end
$var reg 1 Q ismagphase $end
$var reg 32 R number1 [31:0] $end
$var reg 1 / refIO $end
$var reg 2 S refampl [1:0] $end
$var reg 3 T reffreq [2:0] $end
$var reg 1 U repaintS $end
$var reg 1 V reset $end
$var reg 4 W state [3:0] $end
$var reg 1 X weS $end
$scope module LCD $end
$var wire 5 Y addr [4:0] $end
$var wire 1 * clk $end
$var wire 8 Z dat [7:0] $end
$var wire 1 ; repaint $end
$var wire 1 V reset $end
$var wire 1 [ tx_init $end
$var wire 1 9 we $end
$var wire 8 \ ramdat [7:0] $end
$var wire 8 ] ramaddr [7:0] $end
$var wire 1 ^ output_selector $end
$var wire 1 _ delay_done $end
$var wire 1 > busy $end
$var wire 4 ` SF_D [3:0] $end
$var wire 1 % LCD_RS $end
$var wire 1 & LCD_E $end
$var reg 1 a LCD_E0 $end
$var reg 1 b LCD_E1 $end
$var reg 4 c SF_D0 [3:0] $end
$var reg 4 d SF_D1 [3:0] $end
$var reg 5 e display_state [4:0] $end
$var reg 1 f main_delay_load $end
$var reg 20 g main_delay_value [19:0] $end
$var reg 8 h tx_byte [7:0] $end
$var reg 1 i tx_delay_load $end
$var reg 20 j tx_delay_value [19:0] $end
$var reg 1 k tx_done $end
$var reg 3 l tx_state [2:0] $end
$var integer 32 m pos [31:0] $end
$scope module delay_counter $end
$var wire 1 * clk $end
$var wire 20 n count [19:0] $end
$var wire 1 o load $end
$var wire 1 V reset $end
$var wire 1 _ done $end
$var reg 20 p counter [19:0] $end
$upscope $end
$scope module ram40_4kinst_physical $end
$var wire 16 q MASK [15:0] $end
$var wire 11 r RADDR [10:0] $end
$var wire 1 * RCLK $end
$var wire 1 s RCLKE $end
$var wire 1 t RE $end
$var wire 16 u RMASK_I [15:0] $end
$var wire 11 v WADDR [10:0] $end
$var wire 1 * WCLK $end
$var wire 1 w WCLKE $end
$var wire 16 x WDATA [15:0] $end
$var wire 1 9 WE $end
$var wire 16 y WMASK_I [15:0] $end
$var wire 16 z WDATA_I [15:0] $end
$var wire 16 { RDATA [15:0] $end
$var reg 16 | RDATA_I [15:0] $end
$var integer 32 } i [31:0] $end
$scope begin genblk1 $end
$upscope $end
$scope begin genblk2 $end
$upscope $end
$scope begin genblk3 $end
$upscope $end
$scope begin genblk4 $end
$upscope $end
$upscope $end
$upscope $end
$scope module diplay_number $end
$var wire 1 * clk $end
$var wire 1 Q ismagphase $end
$var wire 32 ~ number1 [31:0] $end
$var wire 32 !" number2 [31:0] $end
$var wire 1 : update $end
$var wire 35 "" difference [34:0] $end
$var wire 5 #" addr [4:0] $end
$var reg 33 $" acc [32:0] $end
$var reg 8 %" dat [7:0] $end
$var reg 4 &" dec [3:0] $end
$var reg 32 '" lastacc [31:0] $end
$var reg 1 (" lastupdate $end
$var reg 5 )" pos [4:0] $end
$var reg 32 *" rest [31:0] $end
$var reg 32 +" summand [31:0] $end
$var reg 1 ," updating $end
$var reg 1 8 we $end
$upscope $end
$upscope $end
$upscope $end
$upscope $end
$enddefinitions $end
#0
$dumpvars
0,"
b0 +"
b0 *"
b0 )"
0("
b0 '"
b0 &"
b0 %"
b0 $"
b11111 #"
b0 ""
b1111 !"
b11111111111111111111111111110000 ~
b10000 }
bx |
bx {
b0 z
b0 y
b0 x
1w
b1 v
b0 u
1t
1s
b0 r
b0 q
bx p
0o
b0 n
b0 m
b110 l
0k
b0 j
0i
bx h
b0 g
0f
b0 e
b0 d
b0 c
0b
0a
b0 `
x_
0^
b1 ]
bx \
0[
b0 Z
b1 Y
0X
b0 W
1V
xU
b0 T
b0 S
b11111111111111111111111111110000 R
0Q
b0 P
b0 O
b0 N
b0 M
b0 L
b0 K
b0 J
b0 I
0H
0G
0F
0E
b0 D
b0 C
b0 B
b1 A
1@
b11111 ?
1>
b0 =
0<
0;
0:
09
08
b0 7
b0 6
b0 5
b0 4
b0 3
b0 2
b0 1
b0 0
0/
b0 .
b0 -
bz ,
b0 +
0*
b0 )
0(
0'
0&
1%
1$
b0 #
0"
bz !
$end
#1000
b0 \
b0 {
b0 |
0U
b1 M
1*
#2000
0*
#3000
b10 M
1*
#4000
0*
#5000
b11 M
1*
#6000
0*
#7000
b100 M
1*
#8000
0*
#9000
b101 M
1*
#10000
0*
b1 )
b1 +
b1 4
#11000
b110 M
1E
b1 C
1*
#12000
0*
#13000
b1001111 v
b1001111 ]
b11111 A
b11111 Y
b1 I
b1 W
b111 M
b0 C
1*
#14000
0*
#15000
b0 v
b0 ]
b0 A
b0 Y
b100000 z
b100000 x
b100000 =
b100000 Z
b100000 N
b0 ?
b1 O
b1000 M
b10 I
1*
#16000
0*
#17000
b1 v
b1 ]
b1 A
b1 Y
b1010100 z
b1010100 x
b1010100 =
b1010100 Z
b11 I
b1010100 N
b1 ?
b10 O
b1001 M
1*
#18000
0*
#19000
b10 v
b10 ]
b10 A
b10 Y
b1101001 z
b1101001 x
b1101001 =
b1101001 Z
b1101001 N
b10 ?
b11 O
b1010 M
0E
b0 I
1*
#20000
0*
#21000
b11 v
b11 ]
b11 A
b11 Y
b1101101 z
b1101101 x
b1101101 =
b1101101 Z
1E
b1 C
b1101101 N
b11 ?
b100 O
b1011 M
1*
#22000
0*
#23000
b100 v
b100 ]
b100 A
b100 Y
b1100101 z
b1100101 x
b1100101 =
b1100101 Z
b1100101 N
b100 ?
b101 O
b1100 M
b1 I
b0 C
1*
#24000
0*
#25000
b101 v
b101 ]
b101 A
b101 Y
b100000 z
b100000 x
b100000 =
b100000 Z
b10 I
b100000 N
b101 ?
b110 O
b1101 M
1*
#26000
0*
#27000
b110 v
b110 ]
b110 A
b110 Y
b1000011 z
b1000011 x
b1000011 =
b1000011 Z
b1000011 N
b110 ?
b111 O
b1110 M
b11 I
1*
#28000
0*
#29000
b111 v
b111 ]
b111 A
b111 Y
b1101111 z
b1101111 x
b1101111 =
b1101111 Z
0E
b0 I
b1101111 N
b111 ?
b1000 O
b1111 M
1*
#30000
0*
#31000
b1000 v
b1000 ]
b1000 A
b1000 Y
b1101110 z
b1101110 x
b1101110 =
b1101110 Z
b1101110 N
b1000 ?
b1001 O
b10000 M
1E
b1 C
1*
#32000
0*
#33000
b1001111 v
b1001111 ]
1;
b11111 A
b11111 Y
b1110011 z
b1110011 x
b1110011 =
b1110011 Z
b1 I
1U
b10 W
b1110011 N
b11111 ?
b0 O
b10001 M
b0 C
1*
#34000
0*
#35000
b0 v
b0 ]
0;
b0 A
b0 Y
b100000 z
b100000 x
b100000 =
b100000 Z
b100000 N
b0 ?
b1 O
0U
b10010 M
b10 I
1*
#36000
0*
#37000
b1 v
b1 ]
b1 A
b1 Y
b1000111 z
b1000111 x
b1000111 =
b1000111 Z
b11 I
b1000111 N
b1 ?
b10 O
b10011 M
1*
#38000
0*
#39000
b10 v
b10 ]
b10 A
b10 Y
b1100001 z
b1100001 x
b1100001 =
b1100001 Z
b1100001 N
b10 ?
b11 O
b10100 M
0E
b0 I
1*
#40000
0*
#41000
b11 v
b11 ]
b11 A
b11 Y
b1101001 z
b1101001 x
b1101001 =
b1101001 Z
1E
b1 C
b1101001 N
b11 ?
b100 O
b10101 M
1*
#42000
0*
#43000
b100 v
b100 ]
b100 A
b100 Y
b1101110 z
b1101110 x
b1101110 =
b1101110 Z
b1101110 N
b100 ?
b101 O
b10110 M
b1 I
b0 C
1*
#44000
0*
#45000
b101 v
b101 ]
b101 A
b101 Y
b111010 z
b111010 x
b111010 =
b111010 Z
b10 I
b111010 N
b101 ?
b110 O
b10111 M
1*
#46000
0*
#47000
b110 v
b110 ]
b110 A
b110 Y
b100000 z
b100000 x
b100000 =
b100000 Z
b100000 N
b110 ?
b111 O
b11000 M
b11 I
1*
#48000
0*
#49000
b111 v
b111 ]
b111 A
b111 Y
0E
b0 I
b111 ?
b1000 O
b11001 M
1*
#50000
0*
#51000
b1000 v
b1000 ]
b1000 A
b1000 Y
b1000 ?
b1001 O
b11010 M
1E
b1 C
1*
#52000
0*
#53000
b1001111 v
b1001111 ]
1;
b11111 A
b11111 Y
b1 I
1U
b11 W
b11111 ?
b0 O
b11011 M
b0 C
1*
#54000
0*
#55000
b0 v
b0 ]
0;
b0 A
b0 Y
b0 ?
b1 O
0U
b11100 M
b10 I
1*
#56000
0*
#57000
b1 v
b1 ]
b1 A
b1 Y
b1010010 z
b1010010 x
b1010010 =
b1010010 Z
b11 I
b1010010 N
b1 ?
b10 O
b11101 M
1*
#58000
0*
#59000
b10 v
b10 ]
b10 A
b10 Y
b1100101 z
b1100101 x
b1100101 =
b1100101 Z
b1100101 N
b10 ?
b11 O
b11110 M
0E
b0 I
1*
#60000
0*
#61000
b11 v
b11 ]
b11 A
b11 Y
b1100110 z
b1100110 x
b1100110 =
b1100110 Z
1E
b1 C
b1100110 N
b11 ?
b100 O
b11111 M
1*
#62000
0*
#63000
b100 v
b100 ]
b100 A
b100 Y
b1100101 z
b1100101 x
b1100101 =
b1100101 Z
b1100101 N
b100 ?
b101 O
0V
b100000 M
b1 I
b0 C
1*
#64000
0*
#65000
b101 v
b101 ]
b101 A
b101 Y
b1110010 z
b1110010 x
b1110010 =
b1110010 Z
b10110111000110110000 n
1o
b10 I
b1110010 N
b101 ?
b110 O
b100001 M
b10110111000110110000 g
1f
b1 e
b0 h
1*
#66000
0*
#67000
b110 v
b110 ]
b110 A
b110 Y
b1100101 z
b1100101 x
b1100101 =
b1100101 Z
b0 n
0o
b1100101 N
b110 ?
b111 O
b100010 M
b11 I
0_
b10110111000110110000 p
b0 g
0f
1*
#68000
0*
#69000
b111 v
b111 ]
b111 A
b111 Y
b1101110 z
b1101110 x
b1101110 =
b1101110 Z
b10110111000110101111 p
0E
b0 I
b1101110 N
b111 ?
b1000 O
b100011 M
1*
#70000
0*
#71000
b1000 v
b1000 ]
b1000 A
b1000 Y
b1100011 z
b1100011 x
b1100011 =
b1100011 Z
b1100011 N
b1000 ?
b1001 O
b100100 M
1E
b1 C
b10110111000110101110 p
1*
#72000
0*
#73000
b1001111 v
b1001111 ]
1;
b11111 A
b11111 Y
b1100101 z
b1100101 x
b1100101 =
b1100101 Z
b10110111000110101101 p
b1 I
1U
b100 W
b1100101 N
b11111 ?
b0 O
b100101 M
b0 C
1*
#74000
0*
#75000
b0 v
b0 ]
0;
b0 A
b0 Y
b100000 z
b100000 x
b100000 =
b100000 Z
b100000 N
b0 ?
b1 O
0U
b100110 M
b10 I
b10110111000110101100 p
1*
#76000
0*
#77000
b1 v
b1 ]
b1 A
b1 Y
b1101001 z
b1101001 x
b1101001 =
b1101001 Z
b10110111000110101011 p
b11 I
b1101001 N
b1 ?
b10 O
b100111 M
1*
#78000
0*
#79000
b10 v
b10 ]
b10 A
b10 Y
b1101110 z
b1101110 x
b1101110 =
b1101110 Z
b1101110 N
b10 ?
b11 O
b101000 M
0E
b0 I
b10110111000110101010 p
1*
#80000
0*
#81000
b11 v
b11 ]
b11 A
b11 Y
b1110100 z
b1110100 x
b1110100 =
b1110100 Z
b10110111000110101001 p
1E
b1 C
b1110100 N
b11 ?
b100 O
b101001 M
1*
#82000
0*
#83000
b100 v
b100 ]
b100 A
b100 Y
b101110 z
b101110 x
b101110 =
b101110 Z
b101110 N
b100 ?
b101 O
b101010 M
b1 I
b10110111000110101000 p
b0 C
1*
#84000
0*
#85000
b101 v
b101 ]
b101 A
b101 Y
b100000 z
b100000 x
b100000 =
b100000 Z
b10110111000110100111 p
b10 I
b100000 N
b101 ?
b110 O
b101011 M
1*
#86000
0*
#87000
b110 v
b110 ]
b110 A
b110 Y
b1010010 z
b1010010 x
b1010010 =
b1010010 Z
b1010010 N
b110 ?
b111 O
b101100 M
b11 I
b10110111000110100110 p
1*
#88000
0*
#89000
b111 v
b111 ]
b111 A
b111 Y
b1100101 z
b1100101 x
b1100101 =
b1100101 Z
b10110111000110100101 p
0E
b0 I
b1100101 N
b111 ?
b1000 O
b101101 M
1*
#90000
0*
#91000
b1000 v
b1000 ]
b1000 A
b1000 Y
b1100110 z
b1100110 x
b1100110 =
b1100110 Z
b1100110 N
b1000 ?
b1001 O
b101110 M
1E
b1 C
b10110111000110100100 p
1*
#92000
0*
#93000
b1001111 v
b1001111 ]
1;
b11111 A
b11111 Y
b101110 z
b101110 x
b101110 =
b101110 Z
b10110111000110100011 p
b1 I
1U
b101 W
b101110 N
b11111 ?
b0 O
b101111 M
b0 C
1*
#94000
0*
#95000
b0 v
b0 ]
0;
b0 A
b0 Y
b100000 z
b100000 x
b100000 =
b100000 Z
b100000 N
b0 ?
b1 O
0U
b110000 M
b10 I
b10110111000110100010 p
1*
#96000
0*
#97000
b1 v
b1 ]
b1 A
b1 Y
b1101001 z
b1101001 x
b1101001 =
b1101001 Z
b10110111000110100001 p
b11 I
b1101001 N
b1 ?
b10 O
b110001 M
1*
#98000
0*
#99000
b10 v
b10 ]
b10 A
b10 Y
b1101110 z
b1101110 x
b1101110 =
b1101110 Z
b1101110 N
b10 ?
b11 O
b110010 M
0E
b0 I
b10110111000110100000 p
1*
#100000
0*
#101000
b11 v
b11 ]
b11 A
b11 Y
b1110100 z
b1110100 x
b1110100 =
b1110100 Z
b10110111000110011111 p
1E
b1 C
b1110100 N
b11 ?
b100 O
b110011 M
1*
#102000
0*
#103000
b100 v
b100 ]
b100 A
b100 Y
b101110 z
b101110 x
b101110 =
b101110 Z
b101110 N
b100 ?
b101 O
b110100 M
b1 I
b10110111000110011110 p
b0 C
1*
#104000
0*
#105000
b101 v
b101 ]
b101 A
b101 Y
b100000 z
b100000 x
b100000 =
b100000 Z
b10110111000110011101 p
b10 I
b100000 N
b101 ?
b110 O
b110101 M
1*
#106000
0*
#107000
b110 v
b110 ]
b110 A
b110 Y
b1010010 z
b1010010 x
b1010010 =
b1010010 Z
b1010010 N
b110 ?
b111 O
b110110 M
b11 I
b10110111000110011100 p
1*
#108000
0*
#109000
b111 v
b111 ]
b111 A
b111 Y
b1100101 z
b1100101 x
b1100101 =
b1100101 Z
b10110111000110011011 p
0E
b0 I
b1100101 N
b111 ?
b1000 O
b110111 M
1*
#110000
0*
#111000
b1000 v
b1000 ]
b1000 A
b1000 Y
b1100110 z
b1100110 x
b1100110 =
b1100110 Z
b1100110 N
b1000 ?
b1001 O
b111000 M
1E
b1 C
b10110111000110011010 p
1*
#112000
0*
#113000
b1001111 v
b1001111 ]
1;
b11111 A
b11111 Y
b101110 z
b101110 x
b101110 =
b101110 Z
b10110111000110011001 p
b1 I
1U
b1 W
b101110 N
b11111 ?
b0 O
b111001 M
b0 C
1*
#114000
0*
#115000
b0 v
b0 ]
0;
b0 A
b0 Y
b100000 z
b100000 x
b100000 =
b100000 Z
b100000 N
b0 ?
b1 O
0U
b111010 M
b10 I
b10110111000110011000 p
1*
#116000
0*
#117000
b1 v
b1 ]
b1 A
b1 Y
b1010100 z
b1010100 x
b1010100 =
b1010100 Z
b10110111000110010111 p
b11 I
b1010100 N
b1 ?
b10 O
b111011 M
1*
#118000
0*
#119000
b10 v
b10 ]
b10 A
b10 Y
b1101001 z
b1101001 x
b1101001 =
b1101001 Z
b1101001 N
b10 ?
b11 O
b111100 M
0E
b0 I
b10110111000110010110 p
1*
#120000
0*
#121000
b11 v
b11 ]
b11 A
b11 Y
b1101101 z
b1101101 x
b1101101 =
b1101101 Z
b10110111000110010101 p
1E
b1 C
b1101101 N
b11 ?
b100 O
b111101 M
1*
#122000
0*
#123000
b100 v
b100 ]
b100 A
b100 Y
b1100101 z
b1100101 x
b1100101 =
b1100101 Z
b1100101 N
b100 ?
b101 O
b111110 M
b1 I
b10110111000110010100 p
b0 C
1*
#124000
0*
#125000
b101 v
b101 ]
b101 A
b101 Y
b100000 z
b100000 x
b100000 =
b100000 Z
b10110111000110010011 p
b10 I
b100000 N
b101 ?
b110 O
b111111 M
1*
#126000
0*
#127000
b110 v
b110 ]
b110 A
b110 Y
b1000011 z
b1000011 x
b1000011 =
b1000011 Z
b1000011 N
b110 ?
b111 O
b1000000 M
b11 I
b10110111000110010010 p
1*
#128000
0*
#129000
b111 v
b111 ]
b111 A
b111 Y
b1101111 z
b1101111 x
b1101111 =
b1101111 Z
b10110111000110010001 p
0E
b0 I
b1101111 N
b111 ?
b1000 O
b1000001 M
1*
#130000
0*
#131000
b1000 v
b1000 ]
b1000 A
b1000 Y
b1101110 z
b1101110 x
b1101110 =
b1101110 Z
b1101110 N
b1000 ?
b1001 O
b1000010 M
1E
b1 C
b10110111000110010000 p
1*
#132000
0*
#133000
b1001111 v
b1001111 ]
1;
b11111 A
b11111 Y
b1110011 z
b1110011 x
b1110011 =
b1110011 Z
b10110111000110001111 p
b1 I
1U
b10 W
b1110011 N
b11111 ?
b0 O
b1000011 M
b0 C
1*
#134000
0*
#135000
b0 v
b0 ]
0;
b0 A
b0 Y
b100000 z
b100000 x
b100000 =
b100000 Z
b100000 N
b0 ?
b1 O
0U
b1000100 M
b10 I
b10110111000110001110 p
1*
#136000
0*
#137000
b1 v
b1 ]
b1 A
b1 Y
b1000111 z
b1000111 x
b1000111 =
b1000111 Z
b10110111000110001101 p
b11 I
b1000111 N
b1 ?
b10 O
b1000101 M
1*
#138000
0*
#139000
b10 v
b10 ]
b10 A
b10 Y
b1100001 z
b1100001 x
b1100001 =
b1100001 Z
b1100001 N
b10 ?
b11 O
b1000110 M
0E
b0 I
b10110111000110001100 p
1*
#140000
0*
#141000
b11 v
b11 ]
b11 A
b11 Y
b1101001 z
b1101001 x
b1101001 =
b1101001 Z
b10110111000110001011 p
1E
b1 C
b1101001 N
b11 ?
b100 O
b1000111 M
1*
#142000
0*
#143000
b100 v
b100 ]
b100 A
b100 Y
b1101110 z
b1101110 x
b1101110 =
b1101110 Z
b1101110 N
b100 ?
b101 O
b1001000 M
b1 I
b10110111000110001010 p
b0 C
1*
#144000
0*
#145000
b101 v
b101 ]
b101 A
b101 Y
b111010 z
b111010 x
b111010 =
b111010 Z
b10110111000110001001 p
b10 I
b111010 N
b101 ?
b110 O
b1001001 M
1*
#146000
0*
#147000
b110 v
b110 ]
b110 A
b110 Y
b100000 z
b100000 x
b100000 =
b100000 Z
b100000 N
b110 ?
b111 O
b1001010 M
b11 I
b10110111000110001000 p
1*
#148000
0*
#149000
b111 v
b111 ]
b111 A
b111 Y
b10110111000110000111 p
0E
b0 I
b111 ?
b1000 O
b1001011 M
1*
#150000
0*
#151000
b1000 v
b1000 ]
b1000 A
b1000 Y
b1000 ?
b1001 O
b1001100 M
1E
b1 C
b10110111000110000110 p
1*
#152000
0*
#153000
b1001111 v
b1001111 ]
1;
b11111 A
b11111 Y
b10110111000110000101 p
b1 I
1U
b11 W
b11111 ?
b0 O
b1001101 M
b0 C
1*
#154000
0*
#155000
b0 v
b0 ]
0;
b0 A
b0 Y
b0 ?
b1 O
0U
b1001110 M
b10 I
b10110111000110000100 p
1*
#156000
0*
#157000
b1 v
b1 ]
b1 A
b1 Y
b1010010 z
b1010010 x
b1010010 =
b1010010 Z
b10110111000110000011 p
b11 I
b1010010 N
b1 ?
b10 O
b1001111 M
1*
#158000
0*
#159000
b10 v
b10 ]
b10 A
b10 Y
b1100101 z
b1100101 x
b1100101 =
b1100101 Z
b1100101 N
b10 ?
b11 O
b1010000 M
0E
b0 I
b10110111000110000010 p
1*
#160000
0*
#161000
b11 v
b11 ]
b11 A
b11 Y
b1100110 z
b1100110 x
b1100110 =
b1100110 Z
b10110111000110000001 p
1E
b1 C
b1100110 N
b11 ?
b100 O
b1010001 M
1*
#162000
0*
#163000
b100 v
b100 ]
b100 A
b100 Y
b1100101 z
b1100101 x
b1100101 =
b1100101 Z
b1100101 N
b100 ?
b101 O
b1010010 M
b1 I
b10110111000110000000 p
b0 C
1*
#164000
0*
#165000
b101 v
b101 ]
b101 A
b101 Y
b1110010 z
b1110010 x
b1110010 =
b1110010 Z
b10110111000101111111 p
b10 I
b1110010 N
b101 ?
b110 O
b1010011 M
1*
#166000
0*
#167000
b110 v
b110 ]
b110 A
b110 Y
b1100101 z
b1100101 x
b1100101 =
b1100101 Z
b1100101 N
b110 ?
b111 O
b1010100 M
b11 I
b10110111000101111110 p
1*
#168000
0*
#169000
b111 v
b111 ]
b111 A
b111 Y
b1101110 z
b1101110 x
b1101110 =
b1101110 Z
b10110111000101111101 p
0E
b0 I
b1101110 N
b111 ?
b1000 O
b1010101 M
1*
#170000
0*
#171000
b1000 v
b1000 ]
b1000 A
b1000 Y
b1100011 z
b1100011 x
b1100011 =
b1100011 Z
b1100011 N
b1000 ?
b1001 O
b1010110 M
1E
b1 C
b10110111000101111100 p
1*
#172000
0*
#173000
b1001111 v
b1001111 ]
1;
b11111 A
b11111 Y
b1100101 z
b1100101 x
b1100101 =
b1100101 Z
b10110111000101111011 p
b1 I
1U
b100 W
b1100101 N
b11111 ?
b0 O
b1010111 M
b0 C
1*
#174000
0*
#175000
b0 v
b0 ]
0;
b0 A
b0 Y
b100000 z
b100000 x
b100000 =
b100000 Z
b100000 N
b0 ?
b1 O
0U
b1011000 M
b10 I
b10110111000101111010 p
1*
#176000
0*
#177000
b1 v
b1 ]
b1 A
b1 Y
b1101001 z
b1101001 x
b1101001 =
b1101001 Z
b10110111000101111001 p
b11 I
b1101001 N
b1 ?
b10 O
b1011001 M
1*
#178000
0*
#179000
b10 v
b10 ]
b10 A
b10 Y
b1101110 z
b1101110 x
b1101110 =
b1101110 Z
b1101110 N
b10 ?
b11 O
b1011010 M
0E
b0 I
b10110111000101111000 p
1*
#180000
0*
#181000
b11 v
b11 ]
b11 A
b11 Y
b1110100 z
b1110100 x
b1110100 =
b1110100 Z
b10110111000101110111 p
1E
b1 C
b1110100 N
b11 ?
b100 O
b1011011 M
1*
#182000
0*
#183000
b100 v
b100 ]
b100 A
b100 Y
b101110 z
b101110 x
b101110 =
b101110 Z
b101110 N
b100 ?
b101 O
b1011100 M
b1 I
b10110111000101110110 p
b0 C
1*
#184000
0*
#185000
b101 v
b101 ]
b101 A
b101 Y
b100000 z
b100000 x
b100000 =
b100000 Z
b10110111000101110101 p
b10 I
b100000 N
b101 ?
b110 O
b1011101 M
1*
#186000
0*
#187000
b110 v
b110 ]
b110 A
b110 Y
b1010010 z
b1010010 x
b1010010 =
b1010010 Z
b1010010 N
b110 ?
b111 O
b1011110 M
b11 I
b10110111000101110100 p
1*
#188000
0*
#189000
b111 v
b111 ]
b111 A
b111 Y
b1100101 z
b1100101 x
b1100101 =
b1100101 Z
b10110111000101110011 p
0E
b0 I
b1100101 N
b111 ?
b1000 O
b1011111 M
1*
#190000
0*
#191000
b1000 v
b1000 ]
b1000 A
b1000 Y
b1100110 z
b1100110 x
b1100110 =
b1100110 Z
b1100110 N
b1000 ?
b1001 O
b1100000 M
1E
b1 C
b10110111000101110010 p
1*
#192000
0*
#193000
b1001111 v
b1001111 ]
1;
b11111 A
b11111 Y
b101110 z
b101110 x
b101110 =
b101110 Z
b10110111000101110001 p
b1 I
1U
b101 W
b101110 N
b11111 ?
b0 O
b1100001 M
b0 C
1*
#194000
0*
#195000
b0 v
b0 ]
0;
b0 A
b0 Y
b100000 z
b100000 x
b100000 =
b100000 Z
b100000 N
b0 ?
b1 O
0U
b1100010 M
b10 I
b10110111000101110000 p
1*
#196000
0*
#197000
b1 v
b1 ]
b1 A
b1 Y
b1101001 z
b1101001 x
b1101001 =
b1101001 Z
b10110111000101101111 p
b11 I
b1101001 N
b1 ?
b10 O
b1100011 M
1*
#198000
0*
#199000
b10 v
b10 ]
b10 A
b10 Y
b1101110 z
b1101110 x
b1101110 =
b1101110 Z
b1101110 N
b10 ?
b11 O
b1100100 M
0E
b0 I
b10110111000101101110 p
1*
#200000
0*
#201000
b11 v
b11 ]
b11 A
b11 Y
b1110100 z
b1110100 x
b1110100 =
b1110100 Z
b10110111000101101101 p
1E
b1 C
b1110100 N
b11 ?
b100 O
b1100101 M
1*
#202000
0*
#203000
b100 v
b100 ]
b100 A
b100 Y
b101110 z
b101110 x
b101110 =
b101110 Z
b101110 N
b100 ?
b101 O
b1100110 M
b1 I
b10110111000101101100 p
b0 C
1*
#204000
0*
#205000
b101 v
b101 ]
b101 A
b101 Y
b100000 z
b100000 x
b100000 =
b100000 Z
b10110111000101101011 p
b10 I
b100000 N
b101 ?
b110 O
b1100111 M
1*
#206000
0*
#207000
b110 v
b110 ]
b110 A
b110 Y
b1010010 z
b1010010 x
b1010010 =
b1010010 Z
b1010010 N
b110 ?
b111 O
b1101000 M
b11 I
b10110111000101101010 p
1*
#208000
0*
#209000
b111 v
b111 ]
b111 A
b111 Y
b1100101 z
b1100101 x
b1100101 =
b1100101 Z
b10110111000101101001 p
0E
b0 I
b1100101 N
b111 ?
b1000 O
b1101001 M
1*
#210000
0*
#211000
b1000 v
b1000 ]
b1000 A
b1000 Y
b1100110 z
b1100110 x
b1100110 =
b1100110 Z
b1100110 N
b1000 ?
b1001 O
b1101010 M
1E
b1 C
b10110111000101101000 p
1*
#212000
0*
#213000
b1001111 v
b1001111 ]
1;
b11111 A
b11111 Y
b101110 z
b101110 x
b101110 =
b101110 Z
b10110111000101100111 p
b1 I
1U
b1 W
b101110 N
b11111 ?
b0 O
b1101011 M
b0 C
1*
#214000
0*
#215000
b0 v
b0 ]
0;
b0 A
b0 Y
b100000 z
b100000 x
b100000 =
b100000 Z
b100000 N
b0 ?
b1 O
0U
b1101100 M
b10 I
b10110111000101100110 p
1*
#216000
0*
#217000
b1 v
b1 ]
b1 A
b1 Y
b1010100 z
b1010100 x
b1010100 =
b1010100 Z
b10110111000101100101 p
b11 I
b1010100 N
b1 ?
b10 O
b1101101 M
1*
#218000
0*
#219000
b10 v
b10 ]
b10 A
b10 Y
b1101001 z
b1101001 x
b1101001 =
b1101001 Z
b1101001 N
b10 ?
b11 O
b1101110 M
0E
b0 I
b10110111000101100100 p
1*
#220000
0*
#221000
b11 v
b11 ]
b11 A
b11 Y
b1101101 z
b1101101 x
b1101101 =
b1101101 Z
b10110111000101100011 p
1E
b1 C
b1101101 N
b11 ?
b100 O
b1101111 M
1*
#222000
0*
#223000
b100 v
b100 ]
b100 A
b100 Y
b1100101 z
b1100101 x
b1100101 =
b1100101 Z
b1100101 N
b100 ?
b101 O
b1110000 M
b1 I
b10110111000101100010 p
b0 C
1*
#224000
0*
#225000
b101 v
b101 ]
b101 A
b101 Y
b100000 z
b100000 x
b100000 =
b100000 Z
b10110111000101100001 p
b10 I
b100000 N
b101 ?
b110 O
b1110001 M
1*
#226000
0*
#227000
b110 v
b110 ]
b110 A
b110 Y
b1000011 z
b1000011 x
b1000011 =
b1000011 Z
b1000011 N
b110 ?
b111 O
b1110010 M
b11 I
b10110111000101100000 p
1*
#228000
0*
#229000
b111 v
b111 ]
b111 A
b111 Y
b1101111 z
b1101111 x
b1101111 =
b1101111 Z
b10110111000101011111 p
0E
b0 I
b1101111 N
b111 ?
b1000 O
b1110011 M
1*
#230000
0*
#231000
b1000 v
b1000 ]
b1000 A
b1000 Y
b1101110 z
b1101110 x
b1101110 =
b1101110 Z
b1101110 N
b1000 ?
b1001 O
b1110100 M
1E
b1 C
b10110111000101011110 p
1*
#232000
0*
#233000
b1001111 v
b1001111 ]
1;
b11111 A
b11111 Y
b1110011 z
b1110011 x
b1110011 =
b1110011 Z
b10110111000101011101 p
b1 I
1U
b10 W
b1110011 N
b11111 ?
b0 O
b1110101 M
b0 C
1*
#234000
0*
#235000
b0 v
b0 ]
0;
b0 A
b0 Y
b100000 z
b100000 x
b100000 =
b100000 Z
b100000 N
b0 ?
b1 O
0U
b1110110 M
b10 I
b10110111000101011100 p
1*
#236000
0*
