FPGA/HDL/UI/out.vcd
$date
	Wed Oct  9 12:19:44 2019
$end
$version
	Icarus Verilog
$end
$timescale
	1ps
$end
$scope module top_UI_tb $end
$var wire 16 ! HC [15:0] $end
$var wire 1 " LCD_RW $end
$var wire 4 # SF_D [3:0] $end
$var wire 1 $ R $end
$var wire 1 % LCD_RS $end
$var wire 1 & LCD_E $end
$var wire 1 ' G $end
$var wire 1 ( B $end
$var reg 4 ) Button [3:0] $end
$var reg 1 * CLK $end
$scope module topUIinst $end
$var wire 4 + Button [3:0] $end
$var wire 1 * CLK12 $end
$var wire 16 , HC [15:0] $end
$var wire 1 " LCD_RW $end
$var wire 3 - reffreq [2:0] $end
$var wire 2 . refampl [1:0] $end
$var wire 1 / refIO $end
$var wire 2 0 gain [1:0] $end
$var wire 4 1 TC [3:0] $end
$var wire 4 2 SF_D [3:0] $end
$var wire 1 $ R $end
$var wire 1 % LCD_RS $end
$var wire 1 & LCD_E $end
$var wire 1 ' G $end
$var wire 1 ( B $end
$var reg 5 3 cnt [4:0] $end
$var reg 1 4 rst $end
$scope module UI_inst $end
$var wire 17 5 Ang [16:0] $end
$var wire 4 6 Button [3:0] $end
$var wire 17 7 Mag [16:0] $end
$var wire 32 8 X [31:0] $end
$var wire 32 9 Y [31:0] $end
$var wire 1 * clk $end
$var wire 1 4 rst $end
$var wire 1 : weBTL $end
$var wire 1 ; we $end
$var wire 1 < repaint $end
$var wire 8 = datBTL [7:0] $end
$var wire 8 > dat [7:0] $end
$var wire 1 ? busy $end
$var wire 5 @ addrS [4:0] $end
$var wire 5 A addrBTL [4:0] $end
$var wire 5 B addr [4:0] $end
$var wire 4 C SF_D [3:0] $end
$var wire 1 % LCD_RS $end
$var wire 1 & LCD_E $end
$var reg 4 D BP [3:0] $end
$var reg 4 E TC [3:0] $end
$var reg 1 F btnt0 $end
$var reg 1 G btnt1 $end
$var reg 1 H btnt2 $end
$var reg 1 I btnt3 $end
$var reg 24 J cnt0 [23:0] $end
$var reg 24 K cnt1 [23:0] $end
$var reg 24 L cnt2 [23:0] $end
$var reg 24 M cnt3 [23:0] $end
$var reg 7 N count [6:0] $end
$var reg 8 O datS [7:0] $end
$var reg 1 P dispdone $end
$var reg 5 Q disppos [4:0] $end
$var reg 2 R gain [1:0] $end
$var reg 1 S ismagphase $end
$var reg 1 / refIO $end
$var reg 2 T refampl [1:0] $end
$var reg 3 U reffreq [2:0] $end
$var reg 1 V repaintS $end
$var reg 4 W state [3:0] $end
$var reg 1 X update $end
$var reg 1 Y weS $end
$scope module LCD $end
$var wire 5 Z addr [4:0] $end
$var wire 1 * clk $end
$var wire 8 [ dat [7:0] $end
$var wire 1 < repaint $end
$var wire 1 4 reset $end
$var wire 1 \ tx_init $end
$var wire 1 ; we $end
$var wire 8 ] ramdat [7:0] $end
$var wire 8 ^ ramaddr [7:0] $end
$var wire 1 _ output_selector $end
$var wire 1 ` delay_done $end
$var wire 1 ? busy $end
$var wire 4 a SF_D [3:0] $end
$var wire 1 % LCD_RS $end
$var wire 1 & LCD_E $end
$var reg 1 b LCD_E0 $end
$var reg 1 c LCD_E1 $end
$var reg 4 d SF_D0 [3:0] $end
$var reg 4 e SF_D1 [3:0] $end
$var reg 5 f display_state [4:0] $end
$var reg 1 g main_delay_load $end
$var reg 20 h main_delay_value [19:0] $end
$var reg 8 i tx_byte [7:0] $end
$var reg 1 j tx_delay_load $end
$var reg 20 k tx_delay_value [19:0] $end
$var reg 1 l tx_done $end
$var reg 3 m tx_state [2:0] $end
$var integer 32 n pos [31:0] $end
$scope module delay_counter $end
$var wire 1 * clk $end
$var wire 20 o count [19:0] $end
$var wire 1 p load $end
$var wire 1 4 reset $end
$var wire 1 ` done $end
$var reg 20 q counter [19:0] $end
$upscope $end
$scope module ram40_4kinst_physical $end
$var wire 16 r MASK [15:0] $end
$var wire 11 s RADDR [10:0] $end
$var wire 1 * RCLK $end
$var wire 1 t RCLKE $end
$var wire 1 u RE $end
$var wire 16 v RMASK_I [15:0] $end
$var wire 11 w WADDR [10:0] $end
$var wire 1 * WCLK $end
$var wire 1 x WCLKE $end
$var wire 16 y WDATA [15:0] $end
$var wire 1 ; WE $end
$var wire 16 z WMASK_I [15:0] $end
$var wire 16 { WDATA_I [15:0] $end
$var wire 16 | RDATA [15:0] $end
$var reg 16 } RDATA_I [15:0] $end
$var integer 32 ~ i [31:0] $end
$scope begin genblk1 $end
$upscope $end
$scope begin genblk2 $end
$upscope $end
$scope begin genblk3 $end
$upscope $end
$scope begin genblk4 $end
$upscope $end
$upscope $end
$upscope $end
$scope module diplay_number $end
$var wire 17 !" Ang [16:0] $end
$var wire 17 "" Mag [16:0] $end
$var wire 32 #" X [31:0] $end
$var wire 32 $" Y [31:0] $end
$var wire 1 * clk $end
$var wire 1 S ismagphase $end
$var wire 1 X update $end
$var wire 5 %" addr [4:0] $end
$var reg 33 &" acc [32:0] $end
$var reg 8 '" dat [7:0] $end
$var reg 4 (" dec [3:0] $end
$var reg 33 )" difference [32:0] $end
$var reg 1 *" holdoff $end
$var reg 32 +" lastacc [31:0] $end
$var reg 1 ," lastupdate $end
$var reg 1 -" leadz $end
$var reg 5 ." pos [4:0] $end
$var reg 32 /" rest [31:0] $end
$var reg 32 0" secondlastacc [31:0] $end
$var reg 32 1" summand [31:0] $end
$var reg 1 2" updating $end
$var reg 1 : we $end
$upscope $end
$upscope $end
$upscope $end
$upscope $end
$enddefinitions $end
#0
$dumpvars
02"
b0 1"
b0 0"
b0 /"
b0 ."
0-"
0,"
b0 +"
0*"
b0 )"
b0 ("
b0 '"
b0 &"
b11111 %"
b11111 $"
b0 #"
b0 ""
b11111 !"
b10000 ~
bx }
bx |
b0 {
b0 z
b0 y
1x
b1001111 w
b0 v
1u
1t
b0 s
b0 r
bx q
0p
b0 o
b0 n
b110 m
0l
b0 k
0j
bx i
b0 h
0g
b0 f
b0 e
b0 d
0c
0b
b0 a
x`
0_
b1001111 ^
bx ]
0\
b0 [
b11111 Z
0Y
0X
b0 W
0V
b0 U
b0 T
0S
b0 R
b0 Q
0P
b0 O
b0 N
b0 M
b0 L
b0 K
b0 J
0I
0H
0G
0F
b0 E
b0 D
b0 C
b11111 B
b11111 A
b11111 @
1?
b0 >
b0 =
0<
0;
0:
b11111 9
b0 8
b0 7
b0 6
b11111 5
14
b0 3
b0 2
b0 1
b0 0
0/
b0 .
b0 -
bz ,
b1111 +
0*
b1111 )
1(
1'
0&
1%
1$
b0 #
0"
bz !
$end
#1000
b0 ]
b11110 5
b11110 !"
b11110 9
b11110 $"
b0 |
b0 }
b1 N
b1 8
b1 #"
b1 7
b1 ""
b1 3
1*
#2000
0*
#3000
b11101 5
b11101 !"
b11101 9
b11101 $"
b10 8
b10 #"
b10 7
b10 ""
b10 3
b10 N
1*
#4000
0*
#5000
b11100 5
b11100 !"
b11100 9
b11100 $"
b11 N
b11 8
b11 #"
b11 7
b11 ""
b11 3
1*
#6000
0*
#7000
b11011 5
b11011 !"
b11011 9
b11011 $"
b100 8
b100 #"
b100 7
b100 ""
b100 3
b100 N
1*
#8000
0*
#9000
b11010 5
b11010 !"
b11010 9
b11010 $"
b101 N
b101 8
b101 #"
b101 7
b101 ""
b101 3
1*
#10000
b10 6
0*
b1101 )
b1101 +
#11000
b11001 5
b11001 !"
b11001 9
b11001 $"
b110 8
b110 #"
b110 7
b110 ""
b110 3
b110 N
1G
b10 D
1*
#12000
0*
#13000
1<
b11000 5
b11000 !"
b11000 9
b11000 $"
b1 K
b0 D
1X
1S
b111 N
b111 8
b111 #"
b111 7
b111 ""
b111 3
1*
#14000
0*
#15000
0<
b10111 5
b10111 !"
b10111 9
b10111 $"
b1000 8
b1000 #"
b1000 7
b1000 ""
b1000 3
0X
b1000 N
b10 K
12"
1,"
1*
#16000
0*
#17000
b0 w
b0 ^
1;
b0 B
b0 Z
b1010010 {
b1010010 y
b1010010 >
b1010010 [
b10110 5
b10110 !"
b10110 9
b10110 $"
b1010010 =
b1010010 '"
1:
b0 A
b0 %"
b1 ."
0,"
b11 K
b1001 N
b1001 8
b1001 #"
b1001 7
b1001 ""
b1001 3
1*
#18000
0*
#19000
b1 w
b1 ^
b1 B
b1 Z
b111010 {
b111010 y
b111010 >
b111010 [
b10101 5
b10101 !"
b10101 9
b10101 $"
b1010 8
b1010 #"
b1010 7
b1010 ""
b1010 3
b1010 N
b100 K
b111010 =
b111010 '"
b1 A
b1 %"
b10 ."
1*
#20000
b0 6
0*
b1111 )
b1111 +
#21000
b10 w
b10 ^
b10 B
b10 Z
b100000 {
b100000 y
b100000 >
b100000 [
b1010010 ]
b10100 5
b10100 !"
b10100 9
b10100 $"
1*"
b1010000000000000 /"
b111011100110101100101000000000 &"
b111011100110101100101000000000 1"
b100000 =
b100000 '"
b10 A
b10 %"
b11 ."
b1010010 |
b1010010 }
b101 K
b1011 N
b1011 8
b1011 #"
b1011 7
b1011 ""
b1011 3
1*
#22000
0*
#23000
0;
b10011 5
b10011 !"
b10011 9
b10011 $"
b1100 8
b1100 #"
b1100 7
b1100 ""
b1100 3
b1100 N
b110 K
0*"
b1 ("
0:
b111011100110101100101000000000 +"
b1110111001101011001010000000000 &"
b111000100011001011101011000000000 )"
1*
#24000
0*
#25000
b11 w
b11 ^
1;
b11 B
b11 Z
b10010 5
b10010 !"
b10010 9
b10010 $"
1*"
b101111101011110000100000000 1"
b11 A
b11 %"
b100 ."
1:
b100000 =
b100000 '"
b0 ("
b111011100110101100101000000000 0"
b1110111001101011001010000000000 +"
b101111101011110000100000000 &"
b110001000110010110000110000000000 )"
b111 K
b1101 N
b1101 8
b1101 #"
b1101 7
b1101 ""
b1101 3
1*
#26000
0*
#27000
0;
b10001 5
b10001 !"
b10001 9
b10001 $"
b1110 8
b1110 #"
b1110 7
b1110 ""
b1110 3
b1110 N
b1000 K
0*"
b1 ("
0:
b0 0"
b101111101011110000100000000 +"
b1011111010111100001000000000 &"
b111111010000010101011111100000000 )"
1*
#28000
0*
#29000
b100 w
b100 ^
1;
b100 B
b100 Z
b10000 5
b10000 !"
b10000 9
b10000 $"
1*"
b100110001001011010000000 1"
b100 A
b100 %"
b101 ."
1:
b100000 =
b100000 '"
b0 ("
b101111101011110000100000000 0"
b1011111010111100001000000000 +"
b100110001001011010000000 &"
b111110100000101001101111000000000 )"
b1001 K
b1111 N
b1111 8
b1111 #"
b1111 7
b1111 ""
b1111 3
1*
#30000
0*
#31000
0;
b1111 5
b1111 !"
b1111 9
b1111 $"
b10000 8
b10000 #"
b10000 7
b10000 ""
b10000 3
b10000 N
b1010 K
0*"
b1 ("
0:
b0 0"
b100110001001011010000000 +"
b1001100010010110100000000 &"
b111111111011010000000100110000000 )"
1*
#32000
0*
#33000
b101 w
b101 ^
1;
b101 B
b101 Z
b1110 5
b1110 !"
b1110 9
b1110 $"
1*"
b11110100001001000000 1"
b101 A
b101 %"
b110 ."
1:
b100000 =
b100000 '"
b0 ("
b100110001001011010000000 0"
b1001100010010110100000000 +"
b11110100001001000000 &"
b111111110110011110111001100000000 )"
b1011 K
b10001 N
b10001 8
b10001 #"
b10001 7
b10001 ""
b10001 3
1*
#34000
0*
#35000
0;
b1101 5
b1101 !"
b1101 9
b1101 $"
b10010 8
b10010 #"
b10010 7
b10010 ""
b10010 3
b10010 N
b1100 K
0*"
b1 ("
0:
b0 0"
b11110100001001000000 +"
b111101000010010000000 &"
b111111111111100010101110111000000 )"
1*
#36000
0*
#37000
b110 w
b110 ^
1;
b110 B
b110 Z
b1100 5
b1100 !"
b1100 9
b1100 $"
1*"
b11000011010100000 1"
b110 A
b110 %"
b111 ."
1:
b100000 =
b100000 '"
b0 ("
b11110100001001000000 0"
b111101000010010000000 +"
b11000011010100000 &"
b111111111111000100001101110000000 )"
b1101 K
b10011 N
b10011 8
b10011 #"
b10011 7
b10011 ""
b10011 3
1*
#38000
0*
#39000
0;
b1011 5
b1011 !"
b1011 9
b1011 $"
b10100 8
b10100 #"
b10100 7
b10100 ""
b10100 3
b10100 N
b1110 K
0*"
b1 ("
0:
b0 0"
b11000011010100000 +"
b110000110101000000 &"
b111111111111111110001100101100000 )"
1*
#40000
0*
#41000
b111 w
b111 ^
1;
b111 B
b111 Z
b1010 5
b1010 !"
b1010 9
b1010 $"
1*"
b10011100010000 1"
b111 A
b111 %"
b1000 ."
1:
b100000 =
b100000 '"
b0 ("
b11000011010100000 0"
b110000110101000000 +"
b10011100010000 &"
b111111111111111011001001011000000 )"
b1111 K
b10101 N
b10101 8
b10101 #"
b10101 7
b10101 ""
b10101 3
1*
#42000
0*
#43000
0;
b1001 5
b1001 !"
b1001 9
b1001 $"
b10110 8
b10110 #"
b10110 7
b10110 ""
b10110 3
b10110 N
b10000 K
0*"
b1 ("
0:
b0 0"
b10011100010000 +"
b100111000100000 &"
b111100011110000 )"
1*
#44000
0*
#45000
b1000 5
b1000 !"
b1000 9
b1000 $"
b10 ("
b10011100010000 0"
b100111000100000 +"
b111010100110000 &"
b101000111100000 )"
b10001 K
b10111 N
b10111 8
b10111 #"
b10111 7
b10111 ""
b10111 3
1*
#46000
0*
#47000
b111 5
b111 !"
b111 9
b111 $"
b11000 8
b11000 #"
b11000 7
b11000 ""
b11000 3
b11000 N
b10010 K
b11 ("
b100111000100000 0"
b111010100110000 +"
b1001110001000000 &"
b10101011010000 )"
1*
#48000
0*
#49000
b110 5
b110 !"
b110 9
b110 $"
b100 ("
b111010100110000 0"
b1001110001000000 +"
b1100001101010000 &"
b1111000000 )"
b10011 K
b11001 N
b11001 8
b11001 #"
b11001 7
b11001 ""
b11001 3
1*
#50000
0*
#51000
b101 5
b101 !"
b101 9
b101 $"
b11010 8
b11010 #"
b11010 7
b11010 ""
b11010 3
b11010 N
b10100 K
b101 ("
b1001110001000000 0"
b1100001101010000 +"
b1110101001100000 &"
b111111111111111111101110010110000 )"
1*
#52000
0*
#53000
b1000 w
b1000 ^
1;
b1000 B
b1000 Z
b110100 {
b110100 y
b110100 >
b110100 [
b100 5
b100 !"
b100 9
b100 $"
1*"
b1111101000 1"
b1000 A
b1000 %"
b1001 ."
1:
1-"
b110100 =
b110100 '"
b0 ("
b1100001101010000 0"
b1110101001100000 +"
b1111101000 &"
b111111111111111111011010110100000 )"
b10101 K
b11011 N
b11011 8
b11011 #"
b11011 7
b11011 ""
b11011 3
b1111000000 /"
1*
#54000
0*
#55000
0;
b11 5
b11 !"
b11 9
b11 $"
b11100 8
b11100 #"
b11100 7
b11100 ""
b11100 3
b11100 N
b10110 K
0*"
b1 ("
0:
b0 0"
b1111101000 +"
b11111010000 &"
b111111111111111111111111111011000 )"
1*
#56000
0*
#57000
b1001 w
b1001 ^
1;
b1001 B
b1001 Z
b110000 {
b110000 y
b110000 >
b110000 [
b10 5
b10 !"
b10 9
b10 $"
1*"
b1100100 1"
b1001 A
b1001 %"
b1010 ."
1:
b110000 =
b110000 '"
b0 ("
b1111101000 0"
b11111010000 +"
b1100100 &"
b111111111111111111111101111110000 )"
b10111 K
b11101 N
b11101 8
b11101 #"
b11101 7
b11101 ""
b11101 3
1*
#58000
0*
#59000
0;
b1 5
b1 !"
b1 9
b1 $"
b11110 8
b11110 #"
b11110 7
b11110 ""
b11110 3
b11110 N
b11000 K
0*"
b1 ("
0:
b0 0"
b1100100 +"
b11001000 &"
b1101011100 )"
1*
#60000
0*
#61000
b0 5
b0 !"
b0 9
b0 $"
b10 ("
b1100100 0"
b11001000 +"
b100101100 &"
b1011111000 )"
b11001 K
b11111 N
b11111 8
b11111 #"
b11111 7
b11111 ""
b11111 3
1*
#62000
0*
#63000
b11111 5
b11111 !"
b11111 9
b11111 $"
04
b0 8
b0 #"
b0 7
b0 ""
b0 3
b100000 N
b11010 K
b11 ("
b11001000 0"
b100101100 +"
b110010000 &"
b1010010100 )"
1*
#64000
0*
#65000
b11110 5
b11110 !"
b11110 9
b11110 $"
b10110111000110110000 o
1p
b100 ("
b100101100 0"
b110010000 +"
b111110100 &"
b1000110000 )"
b11011 K
b100001 N
b1 8
b1 #"
b1 7
b1 ""
b1 3
b10110111000110110000 h
1g
b1 f
b0 i
1*
#66000
0*
#67000
b11101 5
b11101 !"
b11101 9
b11101 $"
b0 o
0p
b10 8
b10 #"
b10 7
b10 ""
b10 3
b100010 N
b11100 K
0`
b10110111000110110000 q
b101 ("
b110010000 0"
b111110100 +"
b1001011000 &"
b111001100 )"
b0 h
0g
1*
#68000
0*
#69000
b11100 5
b11100 !"
b11100 9
b11100 $"
b110 ("
b111110100 0"
b1001011000 +"
b1010111100 &"
b101101000 )"
b10110111000110101111 q
b11101 K
b100011 N
b11 8
b11 #"
b11 7
b11 ""
b11 3
1*
#70000
0*
#71000
b11011 5
b11011 !"
b11011 9
b11011 $"
b100 8
b100 #"
b100 7
b100 ""
b100 3
b100100 N
b11110 K
b10110111000110101110 q
b111 ("
b1001011000 0"
b1010111100 +"
b1100100000 &"
b100000100 )"
1*
#72000
0*
#73000
b11010 5
b11010 !"
b11010 9
b11010 $"
b1000 ("
b1010111100 0"
b1100100000 +"
b1110000100 &"
b10100000 )"
b10110111000110101101 q
b11111 K
b100101 N
b101 8
b101 #"
b101 7
b101 ""
b101 3
1*
#74000
0*
#75000
b11001 5
b11001 !"
b11001 9
b11001 $"
b110 8
b110 #"
b110 7
b110 ""
b110 3
b100110 N
b100000 K
b10110111000110101100 q
b1001 ("
b1100100000 0"
b1110000100 +"
b1111101000 &"
b111100 )"
1*
#76000
0*
#77000
b11000 5
b11000 !"
b11000 9
b11000 $"
b1010 ("
b1110000100 0"
b1111101000 +"
b10001001100 &"
b111111111111111111111111111011000 )"
b10110111000110101011 q
b100001 K
b100111 N
b111 8
b111 #"
b111 7
b111 ""
b111 3
1*
#78000
0*
#79000
b1010 w
b1010 ^
1;
b1010 B
b1010 Z
b111001 {
b111001 y
b111001 >
b111001 [
b10111 5
b10111 !"
b10111 9
b10111 $"
b1000 8
b1000 #"
b1000 7
b1000 ""
b1000 3
b101000 N
b100010 K
b10110111000110101010 q
1*"
b1010 1"
b1010 A
b1010 %"
b1011 ."
1:
b111001 =
b111001 '"
b0 ("
b1111101000 0"
b10001001100 +"
b1010 &"
b111111111111111111111111101110100 )"
b111100 /"
1*
#80000
0*
#81000
0;
b10110 5
b10110 !"
b10110 9
b10110 $"
0*"
b1 ("
0:
b0 0"
b1010 +"
b10100 &"
b110010 )"
b10110111000110101001 q
b100011 K
b101001 N
b1001 8
b1001 #"
b1001 7
b1001 ""
b1001 3
1*
#82000
0*
#83000
b10101 5
b10101 !"
b10101 9
b10101 $"
b1010 8
b1010 #"
b1010 7
b1010 ""
b1010 3
b101010 N
b100100 K
b10110111000110101000 q
b10 ("
b1010 0"
b10100 +"
b11110 &"
b101000 )"
1*
#84000
0*
#85000
b10100 5
b10100 !"
b10100 9
b10100 $"
b11 ("
b10100 0"
b11110 +"
b101000 &"
b11110 )"
b10110111000110100111 q
b100101 K
b101011 N
b1011 8
b1011 #"
b1011 7
b1011 ""
b1011 3
1*
#86000
0*
#87000
b10011 5
b10011 !"
b10011 9
b10011 $"
b1100 8
b1100 #"
b1100 7
b1100 ""
b1100 3
b101100 N
b100110 K
b10110111000110100110 q
b100 ("
b11110 0"
b101000 +"
b110010 &"
b10100 )"
1*
#88000
0*
#89000
b10010 5
b10010 !"
b10010 9
b10010 $"
b101 ("
b101000 0"
b110010 +"
b111100 &"
b1010 )"
b10110111000110100101 q
b100111 K
b101101 N
b1101 8
b1101 #"
b1101 7
b1101 ""
b1101 3
1*
#90000
0*
#91000
b10001 5
b10001 !"
b10001 9
b10001 $"
b1110 8
b1110 #"
b1110 7
b1110 ""
b1110 3
b101110 N
b101000 K
b10110111000110100100 q
b110 ("
b110010 0"
b111100 +"
b1000110 &"
b0 )"
1*
#92000
0*
#93000
b10000 5
b10000 !"
b10000 9
b10000 $"
b111 ("
b111100 0"
b1000110 +"
b1010000 &"
b111111111111111111111111111110110 )"
b10110111000110100011 q
b101001 K
b101111 N
b1111 8
b1111 #"
b1111 7
b1111 ""
b1111 3
1*
#94000
0*
#95000
b1011 w
b1011 ^
1;
b1011 B
b1011 Z
b110110 {
b110110 y
b110110 >
b110110 [
b1111 5
b1111 !"
b1111 9
b1111 $"
b10000 8
b10000 #"
b10000 7
b10000 ""
b10000 3
b110000 N
b101010 K
b10110111000110100010 q
1*"
b1 1"
b1011 A
b1011 %"
b1100 ."
1:
b110110 =
b110110 '"
b0 ("
b1000110 0"
b1010000 +"
b1 &"
b111111111111111111111111111101100 )"
b0 /"
1*
#96000
0*
#97000
0;
b1110 5
b1110 !"
b1110 9
b1110 $"
0*"
b1 ("
0:
b0 0"
b1 +"
b10 &"
b111111111111111111111111111111111 )"
b10110111000110100001 q
b101011 K
b110001 N
b10001 8
b10001 #"
b10001 7
b10001 ""
b10001 3
1*
#98000
0*
#99000
b1100 w
b1100 ^
1;
b1100 B
b1100 Z
b110000 {
b110000 y
b110000 >
b110000 [
b1101 5
b1101 !"
b1101 9
b1101 $"
b10010 8
b10010 #"
b10010 7
b10010 ""
b10010 3
b110010 N
b101100 K
b10110111000110100000 q
b1100 A
b1100 %"
b1101 ."
1:
b110000 =
b110000 '"
b0 ("
b1 0"
b10 +"
b11 &"
b111111111111111111111111111111110 )"
1*
#100000
0*
#101000
b1101 w
b1101 ^
b1101 B
b1101 Z
b100000 {
b100000 y
b100000 >
b100000 [
b1100 5
b1100 !"
b1100 9
b1100 $"
b100000 =
b100000 '"
b1101 A
b1101 %"
b1110 ."
b10 0"
b11 +"
b100 &"
b111111111111111111111111111111101 )"
b10110111000110011111 q
b101101 K
b110011 N
b10011 8
b10011 #"
b10011 7
b10011 ""
b10011 3
1*
#102000
0*
#103000
b1110 w
b1110 ^
b1110 B
b1110 Z
b1011 5
b1011 !"
b1011 9
b1011 $"
b10100 8
b10100 #"
b10100 7
b10100 ""
b10100 3
b110100 N
b101110 K
b10110111000110011110 q
b1110 A
b1110 %"
b1111 ."
b11 0"
b100 +"
b101 &"
b111111111111111111111111111111100 )"
1*
#104000
0*
#105000
b1111 w
b1111 ^
b1111 B
b1111 Z
b1010 5
b1010 !"
b1010 9
b1010 $"
b1111 A
b1111 %"
b10000 ."
b100 0"
b101 +"
b110 &"
b111111111111111111111111111111011 )"
b10110111000110011101 q
b101111 K
b110101 N
b10101 8
b10101 #"
b10101 7
b10101 ""
b10101 3
1*
#106000
0*
#107000
b1000000 w
b1000000 ^
b10000 B
b10000 Z
b11110010 {
b11110010 y
b11110010 >
b11110010 [
b1001 5
b1001 !"
b1001 9
b1001 $"
b10110 8
b10110 #"
b10110 7
b10110 ""
b10110 3
b110110 N
b110000 K
b10110111000110011100 q
b11110010 =
b11110010 '"
b10000 A
b10000 %"
b10001 ."
b101 0"
b110 +"
b111 &"
b111111111111111111111111111111010 )"
1*
#108000
0*
#109000
b1000001 w
b1000001 ^
b10001 B
b10001 Z
b111010 {
b111010 y
b111010 >
b111010 [
b1000 5
b1000 !"
b1000 9
b1000 $"
b111010 =
b111010 '"
b10001 A
b10001 %"
b10010 ."
b110 0"
b111 +"
b1000 &"
b111111111111111111111111111111001 )"
b10110111000110011011 q
b110001 K
b110111 N
b10111 8
b10111 #"
b10111 7
b10111 ""
b10111 3
1*
#110000
0*
#111000
b1000010 w
b1000010 ^
b10010 B
b10010 Z
b100000 {
b100000 y
b100000 >
b100000 [
b111 5
b111 !"
b111 9
b111 $"
b11000 8
b11000 #"
b11000 7
b11000 ""
b11000 3
b111000 N
b110010 K
b10110111000110011010 q
0-"
1*"
b1000 /"
b111011100110101100101000000000 1"
b100000 =
b100000 '"
b10010 A
b10010 %"
b10011 ."
b111 0"
b1000 +"
b111011100110101100101000000000 &"
b111111111111111111111111111111000 )"
1*
#112000
0*
#113000
0;
b110 5
b110 !"
b110 9
b110 $"
0*"
b1 ("
0:
b0 0"
b111011100110101100101000000000 +"
b1110111001101011001010000000000 &"
b111000100011001010011011000001000 )"
b10110111000110011001 q
b110011 K
b111001 N
b11001 8
b11001 #"
b11001 7
b11001 ""
b11001 3
1*
#114000
0*
#115000
b1000011 w
b1000011 ^
1;
b10011 B
b10011 Z
b101 5
b101 !"
b101 9
b101 $"
b11010 8
b11010 #"
b11010 7
b11010 ""
b11010 3
b111010 N
b110100 K
b10110111000110011000 q
1*"
b101111101011110000100000000 1"
b10011 A
b10011 %"
b10100 ."
1:
b100000 =
b100000 '"
b0 ("
b111011100110101100101000000000 0"
b1110111001101011001010000000000 +"
b101111101011110000100000000 &"
b110001000110010100110110000001000 )"
1*
#116000
0*
#117000
0;
b100 5
b100 !"
b100 9
b100 $"
0*"
b1 ("
0:
b0 0"
b101111101011110000100000000 +"
b1011111010111100001000000000 &"
b111111010000010100001111100001000 )"
b10110111000110010111 q
b110101 K
b111011 N
b11011 8
b11011 #"
b11011 7
b11011 ""
b11011 3
1*
#118000
0*
#119000
b1000100 w
b1000100 ^
1;
b10100 B
b10100 Z
b11 5
b11 !"
b11 9
b11 $"
b11100 8
b11100 #"
b11100 7
b11100 ""
b11100 3
b111100 N
b110110 K
b10110111000110010110 q
1*"
b100110001001011010000000 1"
b10100 A
b10100 %"
b10101 ."
1:
b100000 =
b100000 '"
b0 ("
b101111101011110000100000000 0"
b1011111010111100001000000000 +"
b100110001001011010000000 &"
b111110100000101000011111000001000 )"
1*
#120000
0*
#121000
0;
b10 5
b10 !"
b10 9
b10 $"
0*"
b1 ("
0:
b0 0"
b100110001001011010000000 +"
b1001100010010110100000000 &"
b111111111011001110110100110001000 )"
b10110111000110010101 q
b110111 K
b111101 N
b11101 8
b11101 #"
b11101 7
b11101 ""
b11101 3
1*
#122000
0*
#123000
b1000101 w
b1000101 ^
1;
b10101 B
b10101 Z
b1 5
b1 !"
b1 9
b1 $"
b11110 8
b11110 #"
b11110 7
b11110 ""
b11110 3
b111110 N
b111000 K
b10110111000110010100 q
1*"
b11110100001001000000 1"
b10101 A
b10101 %"
b10110 ."
1:
b100000 =
b100000 '"
b0 ("
b100110001001011010000000 0"
b1001100010010110100000000 +"
b11110100001001000000 &"
b111111110110011101101001100001000 )"
1*
#124000
0*
#125000
0;
b0 5
b0 !"
b0 9
b0 $"
0*"
b1 ("
0:
b0 0"
b11110100001001000000 +"
b111101000010010000000 &"
b111111111111100001011110111001000 )"
b10110111000110010011 q
b111001 K
b111111 N
b11111 8
b11111 #"
b11111 7
b11111 ""
b11111 3
1*
#126000
0*
#127000
b1000110 w
b1000110 ^
1;
b10110 B
b10110 Z
b11111 5
b11111 !"
b11111 9
b11111 $"
b0 8
b0 #"
b0 7
b0 ""
b0 3
b1000000 N
b111010 K
b10110111000110010010 q
1*"
b11000011010100000 1"
b10110 A
b10110 %"
b10111 ."
1:
b100000 =
b100000 '"
b0 ("
b11110100001001000000 0"
b111101000010010000000 +"
b11000011010100000 &"
b111111111111000010111101110001000 )"
1*
#128000
0*
#129000
0;
b11110 5
b11110 !"
b11110 9
b11110 $"
0*"
b1 ("
0:
b0 0"
b11000011010100000 +"
b110000110101000000 &"
b111111111111111100111100101101000 )"
b10110111000110010001 q
b111011 K
b1000001 N
b1 8
b1 #"
b1 7
b1 ""
b1 3
1*
#130000
0*
#131000
b1000111 w
b1000111 ^
1;
b10111 B
b10111 Z
b11101 5
b11101 !"
b11101 9
b11101 $"
b10 8
b10 #"
b10 7
b10 ""
b10 3
b1000010 N
b111100 K
b10110111000110010000 q
1*"
b10011100010000 1"
b10111 A
b10111 %"
b11000 ."
1:
b100000 =
b100000 '"
b0 ("
b11000011010100000 0"
b110000110101000000 +"
b10011100010000 &"
b111111111111111001111001011001000 )"
1*
#132000
0*
#133000
0;
b11100 5
b11100 !"
b11100 9
b11100 $"
0*"
b1 ("
0:
b0 0"
b10011100010000 +"
b100111000100000 &"
b111111111111111111101100011111000 )"
b10110111000110001111 q
b111101 K
b1000011 N
b11 8
b11 #"
b11 7
b11 ""
b11 3
1*
#134000
0*
#135000
b1001000 w
b1001000 ^
1;
b11000 B
b11000 Z
b11011 5
b11011 !"
b11011 9
b11011 $"
b100 8
b100 #"
b100 7
b100 ""
b100 3
b1000100 N
b111110 K
b10110111000110001110 q
1*"
b1111101000 1"
b11000 A
b11000 %"
b11001 ."
1:
b100000 =
b100000 '"
b0 ("
b10011100010000 0"
b100111000100000 +"
b1111101000 &"
b111111111111111111011000111101000 )"
1*
#136000
0*
#137000
0;
b11010 5
b11010 !"
b11010 9
b11010 $"
0*"
b1 ("
0:
b0 0"
b1111101000 +"
b11111010000 &"
b111111111111111111111110000100000 )"
b10110111000110001101 q
b111111 K
b1000101 N
b101 8
b101 #"
b101 7
b101 ""
b101 3
1*
#138000
0*
#139000
b1001001 w
b1001001 ^
1;
b11001 B
b11001 Z
b11001 5
b11001 !"
b11001 9
b11001 $"
b110 8
b110 #"
b110 7
b110 ""
b110 3
b1000110 N
b1000000 K
b10110111000110001100 q
1*"
b1100100 1"
b11001 A
b11001 %"
b11010 ."
1:
b100000 =
b100000 '"
b0 ("
b1111101000 0"
b11111010000 +"
b1100100 &"
b111111111111111111111100000111000 )"
1*
#140000
0*
#141000
0;
b11000 5
b11000 !"
b11000 9
b11000 $"
0*"
b1 ("
0:
b0 0"
b1100100 +"
b11001000 &"
b111111111111111111111111110100100 )"
b10110111000110001011 q
b1000001 K
b1000111 N
b111 8
b111 #"
b111 7
b111 ""
b111 3
1*
#142000
0*
