FPGA/HDL/UI/out.vcd
$date
	Tue Oct  8 11:45:43 2019
$end
$version
	Icarus Verilog
$end
$timescale
	1ps
$end
$scope module top_UI_tb $end
$var wire 16 ! HC [15:0] $end
$var wire 1 " LCD_RW $end
$var wire 4 # SF_D [3:0] $end
$var wire 1 $ R $end
$var wire 1 % LCD_RS $end
$var wire 1 & LCD_E $end
$var wire 1 ' G $end
$var wire 1 ( B $end
$var reg 4 ) Button [3:0] $end
$var reg 1 * CLK $end
$scope module topUIinst $end
$var wire 4 + Button [3:0] $end
$var wire 1 * CLK12 $end
$var wire 16 , HC [15:0] $end
$var wire 1 " LCD_RW $end
$var wire 3 - reffreq [2:0] $end
$var wire 2 . refampl [1:0] $end
$var wire 1 / refIO $end
$var wire 2 0 gain [1:0] $end
$var wire 4 1 TC [3:0] $end
$var wire 4 2 SF_D [3:0] $end
$var wire 1 $ R $end
$var wire 1 % LCD_RS $end
$var wire 1 & LCD_E $end
$var wire 1 ' G $end
$var wire 1 ( B $end
$scope module UI_inst $end
$var wire 32 3 Ang [31:0] $end
$var wire 4 4 Button [3:0] $end
$var wire 32 5 Rad [31:0] $end
$var wire 32 6 X [31:0] $end
$var wire 32 7 Y [31:0] $end
$var wire 1 * clk $end
$var wire 1 8 weBTL $end
$var wire 1 9 we $end
$var wire 1 : update $end
$var wire 1 ; repaint $end
$var wire 8 < datBTL [7:0] $end
$var wire 8 = dat [7:0] $end
$var wire 1 > busy $end
$var wire 5 ? addrS [4:0] $end
$var wire 5 @ addrBTL [4:0] $end
$var wire 5 A addr [4:0] $end
$var wire 4 B SF_D [3:0] $end
$var wire 1 % LCD_RS $end
$var wire 1 & LCD_E $end
$var reg 4 C BP [3:0] $end
$var reg 4 D TC [3:0] $end
$var reg 1 E btnt0 $end
$var reg 1 F btnt1 $end
$var reg 1 G btnt2 $end
$var reg 1 H btnt3 $end
$var reg 9 I cnt0 [8:0] $end
$var reg 9 J cnt1 [8:0] $end
$var reg 9 K cnt2 [8:0] $end
$var reg 9 L cnt3 [8:0] $end
$var reg 32 M count [31:0] $end
$var reg 8 N datS [7:0] $end
$var reg 1 O dispdone $end
$var reg 5 P disppos [4:0] $end
$var reg 2 Q gain [1:0] $end
$var reg 1 R ismagphase $end
$var reg 32 S number1 [31:0] $end
$var reg 1 / refIO $end
$var reg 2 T refampl [1:0] $end
$var reg 3 U reffreq [2:0] $end
$var reg 1 V repaintS $end
$var reg 1 W reset $end
$var reg 4 X state [3:0] $end
$var reg 1 Y weS $end
$scope module LCD $end
$var wire 5 Z addr [4:0] $end
$var wire 1 * clk $end
$var wire 8 [ dat [7:0] $end
$var wire 1 ; repaint $end
$var wire 1 W reset $end
$var wire 1 \ tx_init $end
$var wire 1 9 we $end
$var wire 8 ] ramdat [7:0] $end
$var wire 8 ^ ramaddr [7:0] $end
$var wire 1 _ output_selector $end
$var wire 1 ` delay_done $end
$var wire 1 > busy $end
$var wire 4 a SF_D [3:0] $end
$var wire 1 % LCD_RS $end
$var wire 1 & LCD_E $end
$var reg 1 b LCD_E0 $end
$var reg 1 c LCD_E1 $end
$var reg 4 d SF_D0 [3:0] $end
$var reg 4 e SF_D1 [3:0] $end
$var reg 5 f display_state [4:0] $end
$var reg 1 g main_delay_load $end
$var reg 20 h main_delay_value [19:0] $end
$var reg 8 i tx_byte [7:0] $end
$var reg 1 j tx_delay_load $end
$var reg 20 k tx_delay_value [19:0] $end
$var reg 1 l tx_done $end
$var reg 3 m tx_state [2:0] $end
$var integer 32 n pos [31:0] $end
$scope module delay_counter $end
$var wire 1 * clk $end
$var wire 20 o count [19:0] $end
$var wire 1 p load $end
$var wire 1 W reset $end
$var wire 1 ` done $end
$var reg 20 q counter [19:0] $end
$upscope $end
$scope module ram40_4kinst_physical $end
$var wire 16 r MASK [15:0] $end
$var wire 11 s RADDR [10:0] $end
$var wire 1 * RCLK $end
$var wire 1 t RCLKE $end
$var wire 1 u RE $end
$var wire 16 v RMASK_I [15:0] $end
$var wire 11 w WADDR [10:0] $end
$var wire 1 * WCLK $end
$var wire 1 x WCLKE $end
$var wire 16 y WDATA [15:0] $end
$var wire 1 9 WE $end
$var wire 16 z WMASK_I [15:0] $end
$var wire 16 { WDATA_I [15:0] $end
$var wire 16 | RDATA [15:0] $end
$var reg 16 } RDATA_I [15:0] $end
$var integer 32 ~ i [31:0] $end
$scope begin genblk1 $end
$upscope $end
$scope begin genblk2 $end
$upscope $end
$scope begin genblk3 $end
$upscope $end
$scope begin genblk4 $end
$upscope $end
$upscope $end
$upscope $end
$scope module diplay_number $end
$var wire 1 * clk $end
$var wire 1 R ismagphase $end
$var wire 32 !" number1 [31:0] $end
$var wire 32 "" number2 [31:0] $end
$var wire 1 : update $end
$var wire 35 #" difference [34:0] $end
$var wire 5 $" addr [4:0] $end
$var reg 33 %" acc [32:0] $end
$var reg 8 &" dat [7:0] $end
$var reg 4 '" dec [3:0] $end
$var reg 32 (" lastacc [31:0] $end
$var reg 1 )" lastupdate $end
$var reg 5 *" pos [4:0] $end
$var reg 32 +" rest [31:0] $end
$var reg 32 ," summand [31:0] $end
$var reg 1 -" updating $end
$var reg 1 8 we $end
$upscope $end
$upscope $end
$upscope $end
$upscope $end
$enddefinitions $end
#0
$dumpvars
0-"
b0 ,"
b0 +"
b0 *"
0)"
b0 ("
b0 '"
b0 &"
b0 %"
b11111 $"
b0 #"
b1111 ""
b11111111111111111111111111110000 !"
b10000 ~
bx }
bx |
b0 {
b0 z
b0 y
1x
b1001111 w
b0 v
1u
1t
b0 s
b0 r
bx q
0p
b0 o
b0 n
b110 m
0l
b0 k
0j
bx i
b0 h
0g
b0 f
b0 e
b0 d
0c
0b
b0 a
x`
0_
b1001111 ^
bx ]
0\
b0 [
b11111 Z
0Y
b0 X
1W
0V
b0 U
b0 T
b11111111111111111111111111110000 S
0R
b0 Q
b0 P
0O
b0 N
b0 M
b0 L
b0 K
b0 J
b0 I
0H
0G
0F
0E
b0 D
b0 C
b0 B
b11111 A
b11111 @
b11111 ?
1>
b0 =
b0 <
0;
0:
09
08
b0 7
b0 6
b0 5
b0 4
b0 3
b0 2
b0 1
b0 0
0/
b0 .
b0 -
bz ,
b0 +
0*
b0 )
0(
0'
0&
1%
0$
b0 #
0"
bz !
$end
#1000
b0 ]
b0 |
b0 }
b1 M
1*
#2000
0*
#3000
b10 M
1*
#4000
0*
#5000
b11 M
1*
#6000
0*
#7000
b100 M
1*
#8000
0*
#9000
b101 M
1*
#10000
1(
0*
b1 )
b1 +
b1 4
#11000
b110 M
1E
b1 C
1*
#12000
0*
#13000
1;
b1 I
b0 C
1V
b1 X
b111 M
1*
#14000
0*
#15000
b0 w
b0 ^
0;
19
b0 A
b0 Z
b100000 {
b100000 y
b100000 =
b100000 [
b100000 N
1Y
b0 ?
b1 P
0V
b1000 M
b10 I
1*
#16000
0*
#17000
b1 w
b1 ^
b1 A
b1 Z
b1010100 {
b1010100 y
b1010100 =
b1010100 [
b11 I
b1010100 N
b1 ?
b10 P
1Y
b1001 M
1*
#18000
0*
#19000
b10 w
b10 ^
b10 A
b10 Z
b1101001 {
b1101001 y
b1101001 =
b1101001 [
b100000 ]
b1101001 N
b10 ?
b11 P
1Y
b1010 M
b100 I
b100000 |
b100000 }
1*
#20000
0(
0*
b0 )
b0 +
b0 4
#21000
b11 w
b11 ^
b11 A
b11 Z
b1101101 {
b1101101 y
b1101101 =
b1101101 [
b101 I
b1101101 N
b11 ?
b100 P
1Y
b1011 M
1*
#22000
0*
#23000
b100 w
b100 ^
b100 A
b100 Z
b1100101 {
b1100101 y
b1100101 =
b1100101 [
b1100101 N
b100 ?
b101 P
1Y
b1100 M
b110 I
1*
#24000
0*
#25000
b101 w
b101 ^
b101 A
b101 Z
b100000 {
b100000 y
b100000 =
b100000 [
b111 I
b100000 N
b101 ?
b110 P
1Y
b1101 M
1*
#26000
0*
#27000
b110 w
b110 ^
b110 A
b110 Z
b1000011 {
b1000011 y
b1000011 =
b1000011 [
b1000011 N
b110 ?
b111 P
1Y
b1110 M
b1000 I
1*
#28000
0*
#29000
b111 w
b111 ^
b111 A
b111 Z
b1101111 {
b1101111 y
b1101111 =
b1101111 [
b1001 I
b1101111 N
b111 ?
b1000 P
1Y
b1111 M
1*
#30000
0*
#31000
b1000 w
b1000 ^
b1000 A
b1000 Z
b1101110 {
b1101110 y
b1101110 =
b1101110 [
b1101110 N
b1000 ?
b1001 P
1Y
b10000 M
b1010 I
1*
#32000
0*
#33000
b1001 w
b1001 ^
b1001 A
b1001 Z
b1110011 {
b1110011 y
b1110011 =
b1110011 [
b1011 I
b1110011 N
b1001 ?
b1010 P
1Y
b10001 M
1*
#34000
0*
#35000
b1010 w
b1010 ^
b1010 A
b1010 Z
b1110100 {
b1110100 y
b1110100 =
b1110100 [
b1110100 N
b1010 ?
b1011 P
1Y
b10010 M
b1100 I
1*
#36000
0*
#37000
b1011 w
b1011 ^
b1011 A
b1011 Z
b1100001 {
b1100001 y
b1100001 =
b1100001 [
b1101 I
b1100001 N
b1011 ?
b1100 P
1Y
b10011 M
1*
#38000
0*
#39000
b1100 w
b1100 ^
b1100 A
b1100 Z
b1101110 {
b1101110 y
b1101110 =
b1101110 [
b1101110 N
b1100 ?
b1101 P
1Y
b10100 M
b1110 I
1*
#40000
0*
#41000
b1101 w
b1101 ^
b1101 A
b1101 Z
b1110100 {
b1110100 y
b1110100 =
b1110100 [
b1111 I
b1110100 N
b1101 ?
b1110 P
1Y
b10101 M
1*
#42000
0*
#43000
b1110 w
b1110 ^
b1110 A
b1110 Z
b111010 {
b111010 y
b111010 =
b111010 [
b111010 N
b1110 ?
b1111 P
1Y
b10110 M
b10000 I
1*
#44000
0*
#45000
b1111 w
b1111 ^
b1111 A
b1111 Z
b100000 {
b100000 y
b100000 =
b100000 [
b10001 I
b100000 N
b1111 ?
b10000 P
1Y
b10111 M
1*
#46000
0*
#47000
b1000000 w
b1000000 ^
b10000 A
b10000 Z
b10000 ?
b10001 P
1Y
b11000 M
b10010 I
1*
#48000
0*
#49000
b1000001 w
b1000001 ^
b10001 A
b10001 Z
b10011 I
b10001 ?
b10010 P
1Y
b11001 M
1*
#50000
0*
#51000
b1000010 w
b1000010 ^
b10010 A
b10010 Z
b10010 ?
b10011 P
1Y
b11010 M
b10100 I
1*
#52000
0*
#53000
b1000011 w
b1000011 ^
b10011 A
b10011 Z
b10101 I
b10011 ?
b10100 P
1Y
b11011 M
1*
#54000
0*
#55000
b1000100 w
b1000100 ^
b10100 A
b10100 Z
b10100 ?
b10101 P
1Y
b11100 M
b10110 I
1*
#56000
0*
#57000
b1000101 w
b1000101 ^
b10101 A
b10101 Z
b10111 I
b10101 ?
b10110 P
1Y
b11101 M
1*
#58000
0*
#59000
b1000110 w
b1000110 ^
b10110 A
b10110 Z
b10110 ?
b10111 P
1Y
b11110 M
b11000 I
1*
#60000
0*
#61000
b1000111 w
b1000111 ^
b10111 A
b10111 Z
b11001 I
b10111 ?
b11000 P
1Y
b11111 M
1*
#62000
0*
#63000
b1001000 w
b1001000 ^
b11000 A
b11000 Z
b11000 ?
b11001 P
1Y
0W
b100000 M
b11010 I
1*
#64000
0*
#65000
b1001001 w
b1001001 ^
b11001 A
b11001 Z
b10110111000110110000 o
1p
b11011 I
b11001 ?
b11010 P
1Y
b100001 M
b10110111000110110000 h
1g
b1 f
b0 i
1*
#66000
0*
#67000
b1001010 w
b1001010 ^
b11010 A
b11010 Z
b0 o
0p
b11010 ?
b11011 P
1Y
b100010 M
b11100 I
0`
b10110111000110110000 q
b0 h
0g
1*
#68000
0*
#69000
b1001011 w
b1001011 ^
b11011 A
b11011 Z
b10110111000110101111 q
b11101 I
b11011 ?
b11100 P
1Y
b100011 M
1*
#70000
0*
#71000
b1001100 w
b1001100 ^
b11100 A
b11100 Z
b11100 ?
b11101 P
1Y
b100100 M
b11110 I
b10110111000110101110 q
1*
#72000
0*
#73000
b1001101 w
b1001101 ^
b11101 A
b11101 Z
b1101101 {
b1101101 y
b1101101 =
b1101101 [
b10110111000110101101 q
b11111 I
b1101101 N
b11101 ?
b11110 P
1Y
b100101 M
1*
#74000
0*
#75000
b1001110 w
b1001110 ^
b11110 A
b11110 Z
b1110011 {
b1110011 y
b1110011 =
b1110011 [
b1110011 N
b11110 ?
b11111 P
1Y
b100110 M
b100000 I
b10110111000110101100 q
1*
#76000
0*
#77000
b1001111 w
b1001111 ^
b11111 A
b11111 Z
b100000 {
b100000 y
b100000 =
b100000 [
b10110111000110101011 q
b100001 I
b100000 N
b11111 ?
b0 P
1O
1Y
b100111 M
1*
#78000
0*
#79000
09
0Y
b101000 M
b100010 I
b10110111000110101010 q
1*
#80000
0*
#81000
b10110111000110101001 q
b100011 I
b101001 M
1*
#82000
0*
#83000
b101010 M
b100100 I
b10110111000110101000 q
1*
#84000
0*
#85000
b10110111000110100111 q
b100101 I
b101011 M
1*
#86000
0*
#87000
b101100 M
b100110 I
b10110111000110100110 q
1*
#88000
0*
#89000
b10110111000110100101 q
b100111 I
b101101 M
1*
#90000
0*
#91000
b101110 M
b101000 I
b10110111000110100100 q
1*
#92000
0*
#93000
b10110111000110100011 q
b101001 I
b101111 M
1*
#94000
0*
#95000
b110000 M
b101010 I
b10110111000110100010 q
1*
#96000
0*
#97000
b10110111000110100001 q
b101011 I
b110001 M
1*
#98000
0*
#99000
b110010 M
b101100 I
b10110111000110100000 q
1*
#100000
0*
#101000
b10110111000110011111 q
b101101 I
b110011 M
1*
#102000
0*
#103000
b110100 M
b101110 I
b10110111000110011110 q
1*
#104000
0*
#105000
b10110111000110011101 q
b101111 I
b110101 M
1*
#106000
0*
#107000
b110110 M
b110000 I
b10110111000110011100 q
1*
#108000
0*
#109000
b10110111000110011011 q
b110001 I
b110111 M
1*
#110000
0*
#111000
b111000 M
b110010 I
b10110111000110011010 q
1*
#112000
0*
#113000
b10110111000110011001 q
b110011 I
b111001 M
1*
#114000
0*
#115000
b111010 M
b110100 I
b10110111000110011000 q
1*
#116000
0*
#117000
b10110111000110010111 q
b110101 I
b111011 M
1*
#118000
0*
#119000
b111100 M
b110110 I
b10110111000110010110 q
1*
#120000
0*
#121000
b10110111000110010101 q
b110111 I
b111101 M
1*
#122000
0*
#123000
b111110 M
b111000 I
b10110111000110010100 q
1*
#124000
0*
#125000
b10110111000110010011 q
b111001 I
b111111 M
1*
#126000
0*
#127000
b1000000 M
b111010 I
b10110111000110010010 q
1*
#128000
0*
#129000
b10110111000110010001 q
b111011 I
b1000001 M
1*
#130000
0*
#131000
b1000010 M
b111100 I
b10110111000110010000 q
1*
#132000
0*
#133000
b10110111000110001111 q
b111101 I
b1000011 M
1*
#134000
0*
#135000
b1000100 M
b111110 I
b10110111000110001110 q
1*
#136000
0*
#137000
b10110111000110001101 q
b111111 I
b1000101 M
1*
#138000
0*
#139000
b1000110 M
b1000000 I
b10110111000110001100 q
1*
#140000
0*
#141000
b10110111000110001011 q
b1000001 I
b1000111 M
1*
#142000
0*
#143000
b1001000 M
b1000010 I
b10110111000110001010 q
1*
#144000
0*
#145000
b10110111000110001001 q
b1000011 I
b1001001 M
1*
#146000
0*
#147000
b1001010 M
b1000100 I
b10110111000110001000 q
1*
#148000
0*
#149000
b10110111000110000111 q
b1000101 I
b1001011 M
1*
#150000
0*
#151000
b1001100 M
b1000110 I
b10110111000110000110 q
1*
#152000
0*
#153000
b10110111000110000101 q
b1000111 I
b1001101 M
1*
#154000
0*
#155000
b1001110 M
b1001000 I
b10110111000110000100 q
1*
#156000
0*
#157000
b10110111000110000011 q
b1001001 I
b1001111 M
1*
#158000
0*
#159000
b1010000 M
b1001010 I
b10110111000110000010 q
1*
#160000
0*
#161000
b10110111000110000001 q
b1001011 I
b1010001 M
1*
#162000
0*
#163000
b1010010 M
b1001100 I
b10110111000110000000 q
1*
#164000
0*
#165000
b10110111000101111111 q
b1001101 I
b1010011 M
1*
#166000
0*
#167000
b1010100 M
b1001110 I
b10110111000101111110 q
1*
#168000
0*
#169000
b10110111000101111101 q
b1001111 I
b1010101 M
1*
#170000
0*
#171000
b1010110 M
b1010000 I
b10110111000101111100 q
1*
#172000
0*
#173000
b10110111000101111011 q
b1010001 I
b1010111 M
1*
#174000
0*
#175000
b1011000 M
b1010010 I
b10110111000101111010 q
1*
#176000
0*
#177000
b10110111000101111001 q
b1010011 I
b1011001 M
1*
#178000
0*
#179000
b1011010 M
b1010100 I
b10110111000101111000 q
1*
#180000
0*
#181000
b10110111000101110111 q
b1010101 I
b1011011 M
1*
#182000
0*
#183000
b1011100 M
b1010110 I
b10110111000101110110 q
1*
#184000
0*
#185000
b10110111000101110101 q
b1010111 I
b1011101 M
1*
#186000
0*
#187000
b1011110 M
b1011000 I
b10110111000101110100 q
1*
#188000
0*
#189000
b10110111000101110011 q
b1011001 I
b1011111 M
1*
#190000
0*
#191000
b1100000 M
b1011010 I
b10110111000101110010 q
1*
#192000
0*
#193000
b10110111000101110001 q
b1011011 I
b1100001 M
1*
#194000
0*
#195000
b1100010 M
b1011100 I
b10110111000101110000 q
1*
#196000
0*
#197000
b10110111000101101111 q
b1011101 I
b1100011 M
1*
#198000
0*
#199000
b1100100 M
b1011110 I
b10110111000101101110 q
1*
#200000
0*
#201000
b10110111000101101101 q
b1011111 I
b1100101 M
1*
#202000
0*
#203000
b1100110 M
b1100000 I
b10110111000101101100 q
1*
#204000
0*
#205000
b10110111000101101011 q
b1100001 I
b1100111 M
1*
#206000
0*
#207000
b1101000 M
b1100010 I
b10110111000101101010 q
1*
#208000
0*
#209000
b10110111000101101001 q
b1100011 I
b1101001 M
1*
#210000
0*
#211000
b1101010 M
b1100100 I
b10110111000101101000 q
1*
#212000
0*
#213000
b10110111000101100111 q
b1100101 I
b1101011 M
1*
#214000
0*
#215000
b1101100 M
b1100110 I
b10110111000101100110 q
1*
#216000
0*
#217000
b10110111000101100101 q
b1100111 I
b1101101 M
1*
#218000
0*
#219000
b1101110 M
b1101000 I
b10110111000101100100 q
1*
#220000
0*
#221000
b10110111000101100011 q
b1101001 I
b1101111 M
1*
#222000
0*
#223000
b1110000 M
b1101010 I
b10110111000101100010 q
1*
#224000
0*
#225000
b10110111000101100001 q
b1101011 I
b1110001 M
1*
#226000
0*
#227000
b1110010 M
b1101100 I
b10110111000101100000 q
1*
#228000
0*
#229000
b10110111000101011111 q
b1101101 I
b1110011 M
1*
#230000
0*
#231000
b1110100 M
b1101110 I
b10110111000101011110 q
1*
#232000
0*
#233000
b10110111000101011101 q
b1101111 I
b1110101 M
1*
#234000
0*
#235000
b1110110 M
b1110000 I
b10110111000101011100 q
1*
#236000
0*
#237000
b10110111000101011011 q
b1110001 I
b1110111 M
1*
#238000
0*
#239000
b1111000 M
b1110010 I
b10110111000101011010 q
1*
#240000
0*
#241000
b10110111000101011001 q
b1110011 I
b1111001 M
1*
#242000
0*
#243000
b1111010 M
b1110100 I
b10110111000101011000 q
1*
#244000
0*
#245000
b10110111000101010111 q
b1110101 I
b1111011 M
1*
#246000
0*
#247000
b1111100 M
b1110110 I
b10110111000101010110 q
1*
#248000
0*
#249000
b10110111000101010101 q
b1110111 I
b1111101 M
1*
#250000
0*
#251000
b1111110 M
b1111000 I
b10110111000101010100 q
1*
#252000
0*
#253000
b10110111000101010011 q
b1111001 I
b1111111 M
1*
#254000
0*
#255000
b10000000 M
b1111010 I
b10110111000101010010 q
1*
#256000
0*
#257000
b10110111000101010001 q
b1111011 I
b10000001 M
1*
#258000
0*
#259000
b10000010 M
b1111100 I
b10110111000101010000 q
1*
#260000
0*
#261000
b10110111000101001111 q
b1111101 I
b10000011 M
1*
#262000
0*
#263000
b10000100 M
b1111110 I
b10110111000101001110 q
1*
#264000
0*
#265000
b10110111000101001101 q
b1111111 I
b10000101 M
1*
#266000
0*
#267000
b10000110 M
b10000000 I
b10110111000101001100 q
1*
#268000
0*
#269000
b10110111000101001011 q
b10000001 I
b10000111 M
1*
#270000
0*
#271000
b10001000 M
b10000010 I
b10110111000101001010 q
1*
#272000
0*
#273000
b10110111000101001001 q
b10000011 I
b10001001 M
1*
#274000
0*
#275000
b10001010 M
b10000100 I
b10110111000101001000 q
1*
#276000
0*
#277000
b10110111000101000111 q
b10000101 I
b10001011 M
1*
#278000
0*
#279000
b10001100 M
b10000110 I
b10110111000101000110 q
1*
#280000
0*
#281000
b10110111000101000101 q
b10000111 I
b10001101 M
1*
#282000
0*
#283000
b10001110 M
b10001000 I
b10110111000101000100 q
1*
#284000
0*
#285000
b10110111000101000011 q
b10001001 I
b10001111 M
1*
#286000
0*
#287000
b10010000 M
b10001010 I
b10110111000101000010 q
1*
#288000
0*
#289000
b10110111000101000001 q
b10001011 I
b10010001 M
1*
#290000
0*
#291000
b10010010 M
b10001100 I
b10110111000101000000 q
1*
#292000
0*
#293000
b10110111000100111111 q
b10001101 I
b10010011 M
1*
#294000
0*
#295000
b10010100 M
b10001110 I
b10110111000100111110 q
1*
#296000
0*
#297000
b10110111000100111101 q
b10001111 I
b10010101 M
1*
#298000
0*
#299000
b10010110 M
b10010000 I
b10110111000100111100 q
1*
#300000
0*
#301000
b10110111000100111011 q
b10010001 I
b10010111 M
1*
#302000
0*
#303000
b10011000 M
b10010010 I
b10110111000100111010 q
1*
#304000
0*
#305000
b10110111000100111001 q
b10010011 I
b10011001 M
1*
#306000
0*
#307000
b10011010 M
b10010100 I
b10110111000100111000 q
1*
#308000
0*
#309000
b10110111000100110111 q
b10010101 I
b10011011 M
1*
#310000
0*
#311000
b10011100 M
b10010110 I
b10110111000100110110 q
1*
#312000
0*
#313000
b10110111000100110101 q
b10010111 I
b10011101 M
1*
#314000
0*
#315000
b10011110 M
b10011000 I
b10110111000100110100 q
1*
#316000
0*
#317000
b10110111000100110011 q
b10011001 I
b10011111 M
1*
#318000
0*
#319000
b10100000 M
b10011010 I
b10110111000100110010 q
1*
#320000
0*
#321000
b10110111000100110001 q
b10011011 I
b10100001 M
1*
#322000
0*
#323000
b10100010 M
b10011100 I
b10110111000100110000 q
1*
#324000
0*
#325000
b10110111000100101111 q
b10011101 I
b10100011 M
1*
#326000
0*
#327000
b10100100 M
b10011110 I
b10110111000100101110 q
1*
#328000
0*
#329000
b10110111000100101101 q
b10011111 I
b10100101 M
1*
#330000
0*
#331000
b10100110 M
b10100000 I
b10110111000100101100 q
1*
#332000
0*
#333000
b10110111000100101011 q
b10100001 I
b10100111 M
1*
#334000
0*
#335000
b10101000 M
b10100010 I
b10110111000100101010 q
1*
#336000
0*
#337000
b10110111000100101001 q
b10100011 I
b10101001 M
1*
#338000
0*
#339000
b10101010 M
b10100100 I
b10110111000100101000 q
1*
#340000
0*
#341000
b10110111000100100111 q
b10100101 I
b10101011 M
1*
#342000
0*
#343000
b10101100 M
b10100110 I
b10110111000100100110 q
1*
#344000
0*
#345000
b10110111000100100101 q
b10100111 I
b10101101 M
1*
#346000
0*
#347000
b10101110 M
b10101000 I
b10110111000100100100 q
1*
#348000
0*
#349000
b10110111000100100011 q
b10101001 I
b10101111 M
1*
#350000
0*
#351000
b10110000 M
b10101010 I
b10110111000100100010 q
1*
#352000
0*
#353000
b10110111000100100001 q
b10101011 I
b10110001 M
1*
#354000
0*
#355000
b10110010 M
b10101100 I
b10110111000100100000 q
1*
#356000
0*
#357000
b10110111000100011111 q
b10101101 I
b10110011 M
1*
#358000
0*
#359000
b10110100 M
b10101110 I
b10110111000100011110 q
1*
#360000
0*
#361000
b10110111000100011101 q
b10101111 I
b10110101 M
1*
#362000
0*
#363000
b10110110 M
b10110000 I
b10110111000100011100 q
1*
#364000
0*
#365000
b10110111000100011011 q
b10110001 I
b10110111 M
1*
#366000
0*
#367000
b10111000 M
b10110010 I
b10110111000100011010 q
1*
#368000
0*
#369000
b10110111000100011001 q
b10110011 I
b10111001 M
1*
#370000
0*
#371000
b10111010 M
b10110100 I
b10110111000100011000 q
1*
#372000
0*
#373000
b10110111000100010111 q
b10110101 I
b10111011 M
1*
#374000
0*
#375000
b10111100 M
b10110110 I
b10110111000100010110 q
1*
#376000
0*
#377000
b10110111000100010101 q
b10110111 I
b10111101 M
1*
#378000
0*
#379000
b10111110 M
b10111000 I
b10110111000100010100 q
1*
#380000
0*
#381000
b10110111000100010011 q
b10111001 I
b10111111 M
1*
#382000
0*
#383000
b11000000 M
b10111010 I
b10110111000100010010 q
1*
#384000
0*
#385000
b10110111000100010001 q
b10111011 I
b11000001 M
1*
#386000
0*
#387000
b11000010 M
b10111100 I
b10110111000100010000 q
1*
#388000
0*
#389000
b10110111000100001111 q
b10111101 I
b11000011 M
1*
#390000
0*
#391000
b11000100 M
b10111110 I
b10110111000100001110 q
1*
#392000
0*
#393000
b10110111000100001101 q
b10111111 I
b11000101 M
1*
#394000
0*
#395000
b11000110 M
b11000000 I
b10110111000100001100 q
1*
#396000
0*
#397000
b10110111000100001011 q
b11000001 I
b11000111 M
1*
#398000
0*
#399000
b11001000 M
b11000010 I
b10110111000100001010 q
1*
#400000
0*
#401000
b10110111000100001001 q
b11000011 I
b11001001 M
1*
#402000
0*
#403000
b11001010 M
b11000100 I
b10110111000100001000 q
1*
#404000
0*
#405000
b10110111000100000111 q
b11000101 I
b11001011 M
1*
#406000
0*
#407000
b11001100 M
b11000110 I
b10110111000100000110 q
1*
#408000
0*
#409000
b10110111000100000101 q
b11000111 I
b11001101 M
1*
#410000
0*
#411000
b11001110 M
b11001000 I
b10110111000100000100 q
1*
#412000
0*
#413000
b10110111000100000011 q
b11001001 I
b11001111 M
1*
#414000
0*
#415000
b11010000 M
b11001010 I
b10110111000100000010 q
1*
#416000
0*
#417000
b10110111000100000001 q
b11001011 I
b11010001 M
1*
#418000
0*
#419000
b11010010 M
b11001100 I
b10110111000100000000 q
1*
#420000
0*
#421000
b10110111000011111111 q
b11001101 I
b11010011 M
1*
#422000
0*
#423000
b11010100 M
b11001110 I
b10110111000011111110 q
1*
#424000
0*
#425000
b10110111000011111101 q
b11001111 I
b11010101 M
1*
#426000
0*
#427000
b11010110 M
b11010000 I
b10110111000011111100 q
1*
#428000
0*
#429000
b10110111000011111011 q
b11010001 I
b11010111 M
1*
#430000
0*
#431000
b11011000 M
b11010010 I
b10110111000011111010 q
1*
#432000
0*
#433000
b10110111000011111001 q
b11010011 I
b11011001 M
1*
#434000
0*
#435000
b11011010 M
b11010100 I
b10110111000011111000 q
1*
#436000
0*
#437000
b10110111000011110111 q
b11010101 I
b11011011 M
1*
#438000
0*
#439000
b11011100 M
b11010110 I
b10110111000011110110 q
1*
#440000
0*
#441000
b10110111000011110101 q
b11010111 I
b11011101 M
1*
#442000
0*
#443000
b11011110 M
b11011000 I
b10110111000011110100 q
1*
#444000
0*
#445000
b10110111000011110011 q
b11011001 I
b11011111 M
1*
#446000
0*
#447000
b11100000 M
b11011010 I
b10110111000011110010 q
1*
#448000
0*
#449000
b10110111000011110001 q
b11011011 I
b11100001 M
1*
#450000
0*
#451000
b11100010 M
b11011100 I
b10110111000011110000 q
1*
#452000
0*
#453000
b10110111000011101111 q
b11011101 I
b11100011 M
1*
#454000
0*
#455000
b11100100 M
b11011110 I
b10110111000011101110 q
1*
#456000
0*
#457000
b10110111000011101101 q
b11011111 I
b11100101 M
1*
#458000
0*
#459000
b11100110 M
b11100000 I
b10110111000011101100 q
1*
#460000
0*
#461000
b10110111000011101011 q
b11100001 I
b11100111 M
1*
#462000
0*
#463000
b11101000 M
b11100010 I
b10110111000011101010 q
1*
#464000
0*
#465000
b10110111000011101001 q
b11100011 I
b11101001 M
1*
#466000
0*
#467000
b11101010 M
b11100100 I
b10110111000011101000 q
1*
#468000
0*
#469000
b10110111000011100111 q
b11100101 I
b11101011 M
1*
#470000
0*
#471000
b11101100 M
b11100110 I
b10110111000011100110 q
1*
#472000
0*
#473000
b10110111000011100101 q
b11100111 I
b11101101 M
1*
#474000
0*
#475000
b11101110 M
b11101000 I
b10110111000011100100 q
1*
#476000
0*
#477000
b10110111000011100011 q
b11101001 I
b11101111 M
1*
#478000
0*
#479000
b11110000 M
b11101010 I
b10110111000011100010 q
1*
#480000
0*
#481000
b10110111000011100001 q
b11101011 I
b11110001 M
1*
#482000
0*
#483000
b11110010 M
b11101100 I
b10110111000011100000 q
1*
#484000
0*
#485000
b10110111000011011111 q
b11101101 I
b11110011 M
1*
#486000
0*
#487000
b11110100 M
b11101110 I
b10110111000011011110 q
1*
#488000
0*
#489000
b10110111000011011101 q
b11101111 I
b11110101 M
1*
#490000
0*
#491000
b11110110 M
b11110000 I
b10110111000011011100 q
1*
#492000
0*
#493000
b10110111000011011011 q
b11110001 I
b11110111 M
1*
#494000
0*
#495000
b11111000 M
b11110010 I
b10110111000011011010 q
1*
#496000
0*
#497000
b10110111000011011001 q
b11110011 I
b11111001 M
1*
#498000
0*
#499000
b11111010 M
b11110100 I
b10110111000011011000 q
1*
#500000
0*
#501000
b10110111000011010111 q
b11110101 I
b11111011 M
1*
#502000
0*
#503000
b11111100 M
b11110110 I
b10110111000011010110 q
1*
#504000
0*
#505000
b10110111000011010101 q
b11110111 I
b11111101 M
1*
#506000
0*
#507000
b11111110 M
b11111000 I
b10110111000011010100 q
1*
#508000
0*
#509000
b10110111000011010011 q
b11111001 I
b11111111 M
1*
#510000
0*
#511000
b100000000 M
b11111010 I
b10110111000011010010 q
1*
#512000
0*
#513000
b10110111000011010001 q
b11111011 I
b100000001 M
1*
#514000
0*
#515000
b100000010 M
b11111100 I
b10110111000011010000 q
1*
#516000
0*
#517000
b10110111000011001111 q
b11111101 I
b100000011 M
1*
#518000
0*
#519000
b100000100 M
b11111110 I
b10110111000011001110 q
1*
#520000
0*
#521000
b10110111000011001101 q
b11111111 I
b100000101 M
1*
#522000
0*
